sum2b/simulation/qsim/sum2b.msim.vcd
$comment
	File created using the following command:
		vcd file sum2b.msim.vcd -direction
$end
$date
	Fri Feb 04 15:55:11 2022
$end
$version
	ModelSim Version 2020.1
$end
$timescale
	1ps
$end

$scope module sum2b_vlg_vec_tst $end
$var reg 2 ! a [1:0] $end
$var reg 2 " b [1:0] $end
$var reg 1 # ci $end
$var wire 1 $ co $end
$var wire 1 % so [1] $end
$var wire 1 & so [0] $end

$scope module i1 $end
$var wire 1 ' gnd $end
$var wire 1 ( vcc $end
$var wire 1 ) unknown $end
$var tri1 1 * devclrn $end
$var tri1 1 + devpor $end
$var tri1 1 , devoe $end
$var wire 1 - ci~combout $end
$var wire 1 . x0|so~0_combout $end
$var wire 1 / x0|co~0_combout $end
$var wire 1 0 x1|so~combout $end
$var wire 1 1 a~combout [1] $end
$var wire 1 2 a~combout [0] $end
$var wire 1 3 b~combout [1] $end
$var wire 1 4 b~combout [0] $end
$upscope $end
$upscope $end
$enddefinitions $end
#0
$dumpvars
b0 !
b10 "
0#
0$
0&
1%
0'
1(
x)
1*
1+
1,
0-
0.
0/
10
02
01
04
13
$end
#50000
b1 !
b11 "
1#
14
12
1-
1/
1.
00
1&
0%
#100000
b11 !
b1 "
b10 !
b0 "
0#
04
03
02
11
0-
0/
0.
10
0&
1%
#150000
b11 !
b1 "
1#
14
12
1-
1/
1.
00
1&
0%
#200000
b1 !
b11 "
b0 !
b10 "
0#
04
13
02
01
0-
0/
0.
10
0&
1%
#250000
b1 !
b11 "
1#
14
12
1-
1/
1.
00
1&
0%
#300000
b11 !
b1 "
b10 !
b0 "
0#
04
03
02
11
0-
0/
0.
10
0&
1%
#350000
b11 !
b1 "
1#
14
12
1-
1/
1.
00
1&
0%
#400000
b1 !
b11 "
b0 !
b10 "
0#
04
13
02
01
0-
0/
0.
10
0&
1%
#450000
b1 !
b11 "
1#
14
12
1-
1/
1.
00
1&
0%
#500000
b11 !
b1 "
b10 !
b0 "
0#
04
03
02
11
0-
0/
0.
10
0&
1%
#550000
b11 !
b1 "
1#
14
12
1-
1/
1.
00
1&
0%
#600000
b1 !
b11 "
b0 !
b10 "
0#
04
13
02
01
0-
0/
0.
10
0&
1%
#650000
b1 !
b11 "
1#
14
12
1-
1/
1.
00
1&
0%
#700000
b11 !
b1 "
b10 !
b0 "
0#
04
03
02
11
0-
0/
0.
10
0&
1%
#750000
b11 !
b1 "
1#
14
12
1-
1/
1.
00
1&
0%
#800000
b1 !
b11 "
b0 !
b10 "
0#
04
13
02
01
0-
0/
0.
10
0&
1%
#850000
b1 !
b11 "
1#
14
12
1-
1/
1.
00
1&
0%
#900000
b11 !
b1 "
b10 !
b0 "
0#
04
03
02
11
0-
0/
0.
10
0&
1%
#950000
b11 !
b1 "
1#
14
12
1-
1/
1.
00
1&
0%
