reloj4/simulation/qsim/reloj4.msim.vcd
$comment
	File created using the following command:
		vcd file reloj4.msim.vcd -direction
$end
$date
	Fri Mar 25 15:13:50 2022
$end
$version
	ModelSim Version 2020.1
$end
$timescale
	1ps
$end

$scope module reloj4_vlg_vec_tst $end
$var reg 1 ! btn1 $end
$var reg 1 " btn2 $end
$var reg 1 # clk $end
$var reg 1 $ rst $end
$var wire 1 % dm [3] $end
$var wire 1 & dm [2] $end
$var wire 1 ' dm [1] $end
$var wire 1 ( dm [0] $end
$var wire 1 ) ds [3] $end
$var wire 1 * ds [2] $end
$var wire 1 + ds [1] $end
$var wire 1 , ds [0] $end
$var wire 1 - um [3] $end
$var wire 1 . um [2] $end
$var wire 1 / um [1] $end
$var wire 1 0 um [0] $end
$var wire 1 1 us [3] $end
$var wire 1 2 us [2] $end
$var wire 1 3 us [1] $end
$var wire 1 4 us [0] $end

$scope module i1 $end
$var wire 1 5 gnd $end
$var wire 1 6 vcc $end
$var wire 1 7 unknown $end
$var tri1 1 8 devclrn $end
$var tri1 1 9 devpor $end
$var tri1 1 : devoe $end
$var wire 1 ; clk~combout $end
$var wire 1 < rst~combout $end
$var wire 1 = btn2~combout $end
$var wire 1 > x1|maquina~regout $end
$var wire 1 ? x1|us[1]~1_combout $end
$var wire 1 @ x0|segundos[0]~3 $end
$var wire 1 A x0|segundos[1]~5 $end
$var wire 1 B x0|segundos[2]~1 $end
$var wire 1 C x0|segundos[3]~7 $end
$var wire 1 D x0|segundos[4]~9 $end
$var wire 1 E x0|always0~2_combout $end
$var wire 1 F x0|Equal1~0_combout $end
$var wire 1 G x0|Equal1~1_combout $end
$var wire 1 H x0|Add1~0_combout $end
$var wire 1 I x0|Add1~1_combout $end
$var wire 1 J x0|Equal0~0_combout $end
$var wire 1 K x0|always1~0_combout $end
$var wire 1 L btn1~combout $end
$var wire 1 M maquina~regout $end
$var wire 1 N us~0_combout $end
$var wire 1 O x1|Add0~0_combout $end
$var wire 1 P x1|Add0~1_combout $end
$var wire 1 Q x1|Equal1~0_combout $end
$var wire 1 R us~1_combout $end
$var wire 1 S us~2_combout $end
$var wire 1 T us~3_combout $end
$var wire 1 U x1|ds[0]~1_combout $end
$var wire 1 V x0|always2~1_combout $end
$var wire 1 W x0|Equal1~2_combout $end
$var wire 1 X x0|always2~2_combout $end
$var wire 1 Y x0|Add2~0_combout $end
$var wire 1 Z x0|Add2~1_combout $end
$var wire 1 [ x0|Equal2~0_combout $end
$var wire 1 \ x0|always2~0_combout $end
$var wire 1 ] ds~0_combout $end
$var wire 1 ^ x1|Add1~0_combout $end
$var wire 1 _ x1|Add1~1_combout $end
$var wire 1 ` x1|Equal0~0_combout $end
$var wire 1 a ds~1_combout $end
$var wire 1 b ds~2_combout $end
$var wire 1 c ds~3_combout $end
$var wire 1 d x1|um[0]~1_combout $end
$var wire 1 e x0|always4~0_combout $end
$var wire 1 f x0|always4~1_combout $end
$var wire 1 g x0|hu~7_combout $end
$var wire 1 h x0|always4~2_combout $end
$var wire 1 i x0|always4~3_combout $end
$var wire 1 j x0|Add4~0_combout $end
$var wire 1 k x0|hd~2_combout $end
$var wire 1 l x0|Add4~1_combout $end
$var wire 1 m x0|always4~4_combout $end
$var wire 1 n x0|hd~0_combout $end
$var wire 1 o x0|hd~1_combout $end
$var wire 1 p x0|always4~5_combout $end
$var wire 1 q x0|Equal8~0_combout $end
$var wire 1 r x0|hu~5_combout $end
$var wire 1 s x0|Add3~0_combout $end
$var wire 1 t x0|hu~4_combout $end
$var wire 1 u x0|Equal4~0_combout $end
$var wire 1 v x0|always3~0_combout $end
$var wire 1 w um~0_combout $end
$var wire 1 x x1|Add2~0_combout $end
$var wire 1 y x1|Add2~1_combout $end
$var wire 1 z x1|Equal2~0_combout $end
$var wire 1 { um~1_combout $end
$var wire 1 | um~2_combout $end
$var wire 1 } um~3_combout $end
$var wire 1 ~ x1|always4~0_combout $end
$var wire 1 !! x1|always4~1_combout $end
$var wire 1 "! x1|Add3~1_combout $end
$var wire 1 #! x1|dm~2_combout $end
$var wire 1 $! x1|Equal3~0_combout $end
$var wire 1 %! x1|dm~1_combout $end
$var wire 1 &! x1|always4~2_combout $end
$var wire 1 '! x1|Add3~0_combout $end
$var wire 1 (! x1|dm~0_combout $end
$var wire 1 )! dm~0_combout $end
$var wire 1 *! dm~1_combout $end
$var wire 1 +! dm~2_combout $end
$var wire 1 ,! dm~3_combout $end
$var wire 1 -! x1|us [3] $end
$var wire 1 .! x1|us [2] $end
$var wire 1 /! x1|us [1] $end
$var wire 1 0! x1|us [0] $end
$var wire 1 1! x1|dm [3] $end
$var wire 1 2! x1|dm [2] $end
$var wire 1 3! x1|dm [1] $end
$var wire 1 4! x1|dm [0] $end
$var wire 1 5! x0|mu [3] $end
$var wire 1 6! x0|mu [2] $end
$var wire 1 7! x0|mu [1] $end
$var wire 1 8! x0|mu [0] $end
$var wire 1 9! x0|segundos [5] $end
$var wire 1 :! x0|segundos [4] $end
$var wire 1 ;! x0|segundos [3] $end
$var wire 1 <! x0|segundos [2] $end
$var wire 1 =! x0|segundos [1] $end
$var wire 1 >! x0|segundos [0] $end
$var wire 1 ?! x1|ds [3] $end
$var wire 1 @! x1|ds [2] $end
$var wire 1 A! x1|ds [1] $end
$var wire 1 B! x1|ds [0] $end
$var wire 1 C! x0|md [3] $end
$var wire 1 D! x0|md [2] $end
$var wire 1 E! x0|md [1] $end
$var wire 1 F! x0|md [0] $end
$var wire 1 G! x1|um [3] $end
$var wire 1 H! x1|um [2] $end
$var wire 1 I! x1|um [1] $end
$var wire 1 J! x1|um [0] $end
$var wire 1 K! x0|hu [3] $end
$var wire 1 L! x0|hu [2] $end
$var wire 1 M! x0|hu [1] $end
$var wire 1 N! x0|hu [0] $end
$var wire 1 O! x0|hd [3] $end
$var wire 1 P! x0|hd [2] $end
$var wire 1 Q! x0|hd [1] $end
$var wire 1 R! x0|hd [0] $end
$upscope $end
$upscope $end
$enddefinitions $end
#0
$dumpvars
0!
0"
0#
0$
0(
0'
0&
0%
0,
0+
0*
0)
00
0/
0.
0-
04
03
02
01
05
16
x7
18
19
1:
0;
0<
0=
0>
0?
0@
1A
0B
1C
0D
0E
1F
1G
0H
0I
0J
0K
0L
0M
0N
0O
0P
1Q
0R
0S
0T
0U
0V
1W
0X
0Y
0Z
0[
0\
0]
0^
0_
1`
0a
0b
0c
0d
0e
0f
0g
0h
0i
0j
0k
0l
0m
0n
0o
0p
0q
0r
0s
0t
0u
0v
0w
0x
0y
1z
0{
0|
0}
0~
0!!
0"!
0#!
0$!
0%!
0&!
0'!
0(!
0)!
0*!
0+!
0,!
00!
0/!
0.!
0-!
04!
03!
02!
01!
08!
07!
06!
05!
0>!
0=!
0<!
0;!
0:!
09!
0B!
0A!
0@!
0?!
0F!
0E!
0D!
0C!
0J!
0I!
0H!
0G!
0N!
0M!
0L!
0K!
0R!
0Q!
0P!
0O!
$end
#10000
1#
1;
1>!
1@
#20000
0#
0;
#30000
1#
1;
1=!
0>!
0A
0@
1A
#40000
0#
0;
#50000
1#
1;
1>!
1@
0A
#60000
0#
0;
#70000
1#
1;
1<!
0=!
0>!
1B
1A
0@
0B
#80000
0#
0;
#90000
1#
1;
1>!
1@
#100000
0#
0;
#110000
1#
1;
1=!
0>!
0A
0@
1B
1A
0B
#120000
1"
0#
1=
0;
#130000
1#
1;
1>!
1>
1@
1?
0A
1B
#140000
0"
0#
0=
0;
#150000
1#
1;
1;!
0<!
0=!
0>!
10!
0C
0B
1A
0@
1C
#160000
0#
0;
#170000
1#
1;
1/!
1>!
00!
1@
#180000
0#
0;
#190000
1#
1;
1=!
0>!
10!
0A
0@
1O
1A
#200000
0#
0;
#210000
1#
1;
0/!
1.!
1>!
00!
0O
0F
1@
0A
#220000
0#
0;
#230000
1#
1;
1<!
0=!
0>!
10!
1F
1B
1A
0@
0C
0B
1C
#240000
0#
0;
#250000
1#
1;
1/!
1>!
00!
1@
#260000
0#
0;
#270000
1#
1;
1=!
0>!
10!
0A
0@
1P
1O
1B
1A
0C
0B
1C
#280000
0#
0;
#290000
1#
1;
0/!
1-!
0.!
1>!
00!
0P
0O
1@
0A
1B
0C
#300000
0#
0;
#310000
1#
1;
1:!
0;!
0<!
0=!
0>!
10!
1D
1C
0B
1A
0@
0Q
0D
1U
#320000
1!
0#
1L
0;
#330000
1#
1;
1B!
0-!
1M
1>!
00!
1]
1Q
1@
0U
1,
#340000
0!
0#
0L
0;
#350000
1#
1;
1=!
0>!
10!
0A
0@
1N
1A
14
#360000
0#
0;
#370000
1#
1;
1/!
1>!
00!
1R
1@
0N
0A
13
04
#380000
0#
0;
#390000
1#
1;
1<!
0=!
0>!
10!
1B
1A
0@
1O
1N
0B
14
#400000
0#
0;
#410000
1#
1;
0/!
1.!
1>!
00!
0R
0O
1S
1@
0N
03
12
04
#420000
0#
0;
#430000
1#
1;
1=!
0>!
10!
0A
0@
1N
1B
1A
14
0B
#440000
0#
0;
#450000
1#
1;
1/!
1>!
00!
1R
1@
0N
0A
13
04
1B
#460000
0#
0;
#470000
1#
1;
1;!
0<!
0=!
0>!
10!
0C
0B
1A
0@
1P
1O
1N
1D
1C
14
0D
#480000
0#
0;
#490000
1#
1;
0/!
1-!
0.!
1>!
00!
0R
0P
0O
1T
0S
1@
0N
03
11
02
04
#500000
0#
0;
#510000
1#
1;
1=!
0>!
10!
0A
0@
0Q
1N
1A
1U
14
#520000
0#
0;
#530000
1#
1;
1A!
0B!
0-!
1>!
00!
1a
0]
0T
1Q
0F
1@
0N
0U
0A
1+
0,
01
04
#540000
0#
0;
#550000
1#
1;
1<!
0=!
0>!
10!
1F
1B
1A
0@
1N
0C
0B
14
1D
1C
0D
#560000
0#
0;
#570000
1#
1;
1/!
1>!
00!
1R
1@
0N
13
04
#580000
0#
0;
#590000
1#
1;
1=!
0>!
10!
0A
0@
1O
1N
1B
1A
14
0C
0B
1D
1C
0D
#600000
0#
0;
#610000
1#
1;
0/!
1.!
1>!
00!
0R
0O
1S
1@
0N
0A
03
12
04
1B
0C
1D
#620000
1"
0#
1=
0;
#630000
1#
1;
19!
0:!
0;!
0<!
0=!
0>!
10!
0>
0D
1C
0B
1A
0@
1N
0?
14
#640000
0"
0#
0=
0;
#650000
1#
1;
1>!
1@
#660000
0#
0;
#670000
1#
1;
1=!
0>!
0A
0@
1A
#680000
0#
0;
#690000
1#
1;
1>!
1@
0A
#700000
0#
0;
#710000
1#
1;
1<!
0=!
0>!
1B
1A
0@
0B
#720000
0#
0;
#730000
1#
1;
1>!
1@
#740000
0#
0;
#750000
1#
1;
1=!
0>!
0A
0@
1B
1A
0B
#760000
0#
0;
#770000
1#
1;
1>!
1@
0A
1B
#780000
0#
0;
#790000
1#
1;
1;!
0<!
0=!
0>!
0C
0B
1A
0@
1C
#800000
0#
0;
#810000
1#
1;
1>!
1@
#820000
0#
0;
#830000
1#
1;
1=!
0>!
0A
0@
1A
#840000
0#
0;
#850000
1#
1;
1>!
0F
1@
0A
#860000
1!
0#
1L
0;
#870000
1#
1;
0M
1<!
0=!
0>!
0a
0S
0N
1F
1B
1A
0@
0C
0B
0+
02
04
1C
#880000
0!
0#
0L
0;
#890000
1#
1;
1>!
1@
#900000
0#
0;
#910000
1#
1;
1=!
0>!
0A
0@
1B
1A
0C
0B
1C
#920000
0#
0;
#930000
1#
1;
1>!
1@
0A
1B
0C
#940000
0#
0;
#950000
1#
1;
1:!
0;!
0<!
0=!
0>!
0W
1D
1C
0B
1A
0@
0D
#960000
0#
0;
#970000
1#
1;
1>!
1@
#980000
0#
0;
#990000
1#
1;
1=!
0>!
0A
0@
1A
#1000000
0#
0;
#1010000
1#
1;
1>!
1@
0A
#1020000
0#
0;
#1030000
1#
1;
1<!
0=!
0>!
1B
1A
0@
0B
#1040000
0#
0;
#1050000
1#
1;
1>!
1@
#1060000
0#
0;
#1070000
1#
1;
1=!
0>!
0A
0@
1B
1A
0B
#1080000
0#
0;
#1090000
1#
1;
1>!
1@
0A
1B
#1100000
0#
0;
#1110000
1#
1;
1;!
0<!
0=!
0>!
0C
0B
1A
0@
1D
1C
0D
#1120000
0#
0;
#1130000
1#
1;
1>!
1@
#1140000
0#
0;
#1150000
1#
1;
1=!
0>!
0A
0@
1A
#1160000
0#
0;
#1170000
1#
1;
1>!
0F
1@
0G
1E
0A
#1180000
0#
0;
#1190000
1#
1;
18!
09!
0:!
0;!
0=!
0>!
1V
1N
1W
1G
0E
1F
1A
0@
14
#1200000
0#
0;
#1210000
1#
1;
1>!
1@
#1220000
0#
0;
#1230000
1#
1;
1=!
0>!
0A
0@
1A
#1240000
0#
0;
#1250000
1#
1;
1>!
1@
0A
#1260000
0#
0;
#1270000
1#
1;
1<!
0=!
0>!
1B
1A
0@
0B
#1280000
0#
0;
#1290000
1#
1;
1>!
1@
#1300000
0#
0;
#1310000
1#
1;
1=!
0>!
0A
0@
1B
1A
0B
#1320000
0#
0;
#1330000
1#
1;
1>!
1@
0A
1B
#1340000
0#
0;
#1350000
1#
1;
1;!
0<!
0=!
0>!
0C
0B
1A
0@
1C
#1360000
0#
0;
#1370000
1#
1;
1>!
1@
#1380000
1"
0#
1=
0;
#1390000
1#
1;
1=!
0>!
1>
0A
0@
1?
1A
#1400000
0"
0#
0=
0;
#1410000
1#
1;
1/!
1>!
00!
0F
1@
0A
#1420000
0#
0;
#1430000
1#
1;
1<!
0=!
0>!
10!
1F
1B
1A
0@
1P
1O
0C
0B
1C
#1440000
0#
0;
#1450000
1#
1;
0/!
1-!
0.!
1>!
00!
0P
0O
1@
#1460000
0#
0;
#1470000
1#
1;
1=!
0>!
10!
0A
0@
0Q
1B
1A
1U
0C
0B
1C
#1480000
0#
0;
#1490000
1#
1;
1B!
0-!
1>!
00!
1^
1Q
1@
0U
0A
1B
0C
#1500000
0#
0;
#1510000
1#
1;
1:!
0;!
0<!
0=!
0>!
10!
1D
1C
0B
1A
0@
0D
#1520000
0#
0;
#1530000
1#
1;
1/!
1>!
00!
1@
#1540000
0#
0;
#1550000
1#
1;
1=!
0>!
10!
0A
0@
1O
1A
#1560000
0#
0;
#1570000
1#
1;
0/!
1.!
1>!
00!
0O
1@
0A
#1580000
0#
0;
#1590000
1#
1;
1<!
0=!
0>!
10!
1B
1A
0@
0B
#1600000
0#
0;
#1610000
1#
1;
1/!
1>!
00!
1@
#1620000
0#
0;
#1630000
1#
1;
1=!
0>!
10!
0A
0@
1P
1O
1B
1A
0B
#1640000
0#
0;
#1650000
1#
1;
0/!
1-!
0.!
1>!
00!
0P
0O
1@
0A
1B
#1660000
0#
0;
#1670000
1#
1;
1;!
0<!
0=!
0>!
10!
0C
0B
1A
0@
0Q
1D
1C
1U
0D
#1680000
0#
0;
#1690000
1#
1;
0A!
1@!
0B!
0-!
1>!
00!
0^
1Q
1@
0U
#1700000
0#
0;
#1710000
1#
1;
1=!
0>!
10!
0A
0@
1A
#1720000
0#
0;
#1730000
1#
1;
1/!
1>!
00!
0F
1@
0A
#1740000
0#
0;
#1750000
1#
1;
1<!
0=!
0>!
10!
1F
1B
1A
0@
1O
0C
0B
1D
1C
0D
#1760000
0#
0;
#1770000
1#
1;
0/!
1.!
1>!
00!
0O
1@
#1780000
1!
0#
1L
0;
#1790000
1#
1;
1M
1=!
0>!
10!
1b
1S
0A
0@
1B
1A
1*
12
0C
0B
1D
1C
0D
#1800000
0!
0#
0L
0;
#1810000
1#
1;
1/!
1>!
00!
1R
1@
0N
0A
13
04
1B
0C
1D
#1820000
0#
0;
#1830000
1#
1;
19!
0:!
0;!
0<!
0=!
0>!
10!
0D
1C
0B
1A
0@
1P
1O
1N
14
#1840000
0#
0;
#1850000
1#
1;
0/!
1-!
0.!
1>!
00!
0R
0P
0O
1T
0S
1@
0N
03
11
02
04
#1860000
0#
0;
#1870000
1#
1;
1=!
0>!
10!
0A
0@
0Q
1N
1A
1U
14
#1880000
0#
0;
#1890000
1#
1;
1B!
0-!
1>!
00!
0`
1]
0T
1Q
1@
0N
0U
0A
1,
01
04
#1900000
0#
0;
#1910000
1#
1;
1<!
0=!
0>!
10!
1B
1A
0@
1N
0B
14
#1920000
0#
0;
#1930000
1#
1;
1/!
1>!
00!
1R
1@
0N
13
04
#1940000
0#
0;
#1950000
1#
1;
1=!
0>!
10!
0A
0@
1O
1N
1B
1A
14
0B
#1960000
0#
0;
#1970000
1#
1;
0/!
1.!
1>!
00!
0R
0O
1S
1@
0N
0A
03
12
04
1B
#1980000
0#
0;
#1990000
1#
1;
1;!
0<!
0=!
0>!
10!
0C
0B
1A
0@
1N
1C
14
#2000000
0#
0;
#2010000
1#
1;
1/!
1>!
00!
1R
1@
0N
13
04
#2020000
0#
0;
#2030000
1#
1;
1=!
0>!
10!
0A
0@
1P
1O
1N
1A
14
#2040000
0#
0;
#2050000
1#
1;
0/!
1-!
0.!
1>!
00!
0R
0P
0O
1T
0S
0F
1@
0N
0A
03
11
02
04
#2060000
0#
0;
#2070000
1#
1;
1<!
0=!
0>!
10!
1F
1B
1A
0@
0Q
1N
0C
0B
1d
1U
14
1C
#2080000
0#
0;
#2090000
1#
1;
1J!
0@!
0B!
0-!
1>!
00!
1w
0b
1`
0]
0T
1Q
1@
0N
0d
0U
10
0*
0,
01
04
#2100000
0#
0;
#2110000
1#
1;
1=!
0>!
10!
0A
0@
1N
1B
1A
14
0C
0B
1C
#2120000
0#
0;
#2130000
1#
1;
1/!
1>!
00!
1R
1@
0N
0A
13
04
1B
0C
#2140000
0#
0;
#2150000
1#
1;
1:!
0;!
0<!
0=!
0>!
10!
0W
1D
1C
0B
1A
0@
1O
1N
0D
14
#2160000
0#
0;
#2170000
1#
1;
0/!
1.!
1>!
00!
0R
0O
1S
1@
0N
03
12
04
#2180000
0#
0;
#2190000
1#
1;
1=!
0>!
10!
0A
0@
1N
1A
14
#2200000
0#
0;
#2210000
1#
1;
1/!
1>!
00!
1R
1@
0N
0A
13
04
#2220000
0#
0;
#2230000
1#
1;
1<!
0=!
0>!
10!
1B
1A
0@
1P
1O
1N
0B
14
#2240000
0#
0;
#2250000
1#
1;
0/!
1-!
0.!
1>!
00!
0R
0P
0O
1T
0S
1@
0N
03
11
02
04
#2260000
0#
0;
#2270000
1#
1;
1=!
0>!
10!
0A
0@
0Q
1N
1B
1A
1U
14
0B
#2280000
0#
0;
#2290000
1#
1;
1B!
0-!
1>!
00!
1]
0T
1Q
1@
0N
0U
0A
1,
01
04
1B
#2300000
0#
0;
#2310000
1#
1;
1;!
0<!
0=!
0>!
10!
0C
0B
1A
0@
1N
1D
1C
14
0D
#2320000
0#
0;
#2330000
1#
1;
1/!
1>!
00!
1R
1@
0N
13
04
#2340000
0#
0;
#2350000
1#
1;
1=!
0>!
10!
0A
0@
1O
1N
1A
14
#2360000
0#
0;
#2370000
1#
1;
0/!
1.!
1>!
00!
0R
0O
1S
0F
1@
0N
0G
1E
0A
03
12
04
#2380000
0#
0;
#2390000
1#
1;
08!
17!
09!
0:!
0;!
0=!
0>!
10!
0V
1N
1W
1G
0E
1F
1A
0@
14
#2400000
0#
0;
#2410000
1#
1;
1/!
1>!
00!
1R
1@
0N
13
04
#2420000
0#
0;
#2430000
1#
1;
1=!
0>!
10!
0A
0@
1P
1O
1N
1A
14
#2440000
0#
0;
#2450000
1#
1;
0/!
1-!
0.!
1>!
00!
0R
0P
0O
1T
0S
1@
0N
0A
03
11
02
04
#2460000
0#
0;
#2470000
1#
1;
1<!
0=!
0>!
10!
1B
1A
0@
0Q
1N
0B
1U
14
#2480000
0#
0;
#2490000
1#
1;
1A!
0B!
0-!
1>!
00!
1a
0]
0T
1Q
1@
0N
0U
1+
0,
01
04
#2500000
0#
0;
#2510000
1#
1;
1=!
0>!
10!
0A
0@
1N
1B
1A
14
0B
#2520000
0#
0;
#2530000
1#
1;
1/!
1>!
00!
1R
1@
0N
0A
13
04
1B
#2540000
0#
0;
#2550000
1#
1;
1;!
0<!
0=!
0>!
10!
0C
0B
1A
0@
1O
1N
1C
14
#2560000
0#
0;
#2570000
1#
1;
0/!
1.!
1>!
00!
0R
0O
1S
1@
0N
03
12
04
#2580000
0#
0;
#2590000
1#
1;
1=!
0>!
10!
0A
0@
1N
1A
14
#2600000
0#
0;
#2610000
1#
1;
1/!
1>!
00!
1R
0F
1@
0N
0A
13
04
#2620000
0#
0;
#2630000
1#
1;
1<!
0=!
0>!
10!
1F
1B
1A
0@
1P
1O
1N
0C
0B
14
1C
#2640000
0#
0;
#2650000
1#
1;
0/!
1-!
0.!
1>!
00!
0R
0P
0O
1T
0S
1@
0N
03
11
02
04
#2660000
0#
0;
#2670000
1#
1;
1=!
0>!
10!
0A
0@
0Q
1N
1B
1A
1U
14
0C
0B
1C
#2680000
0#
0;
#2690000
1#
1;
1B!
0-!
1>!
00!
1^
1]
0T
1Q
1@
0N
0U
0A
1,
01
04
1B
0C
#2700000
0#
0;
#2710000
1#
1;
1:!
0;!
0<!
0=!
0>!
10!
1D
1C
0B
1A
0@
1N
0D
14
#2720000
0#
0;
#2730000
1#
1;
1/!
1>!
00!
1R
1@
0N
13
04
#2740000
0#
0;
#2750000
1#
1;
1=!
0>!
10!
0A
0@
1O
1N
1A
14
#2760000
0#
0;
#2770000
1#
1;
0/!
1.!
1>!
00!
0R
0O
1S
1@
0N
0A
03
12
04
#2780000
0#
0;
#2790000
1#
1;
1<!
0=!
0>!
10!
1B
1A
0@
1N
0B
14
#2800000
0#
0;
#2810000
1#
1;
1/!
1>!
00!
1R
1@
0N
13
04
#2820000
0#
0;
#2830000
1#
1;
1=!
0>!
10!
0A
0@
1P
1O
1N
1B
1A
14
0B
#2840000
0#
0;
#2850000
1#
1;
0/!
1-!
0.!
1>!
00!
0R
0P
0O
1T
0S
1@
0N
0A
03
11
02
04
1B
#2860000
0#
0;
#2870000
1#
1;
1;!
0<!
0=!
0>!
10!
0C
0B
1A
0@
0Q
1N
1D
1C
1U
14
0D
#2880000
0#
0;
#2890000
1#
1;
0A!
1@!
0B!
0-!
1>!
00!
0a
0^
1b
0]
0T
1Q
1@
0N
0U
0+
1*
0,
01
04
#2900000
0#
0;
#2910000
1#
1;
1=!
0>!
10!
0A
0@
1N
1A
14
#2920000
0#
0;
#2930000
1#
1;
1/!
1>!
00!
1R
0F
1@
0N
0A
13
04
#2940000
0#
0;
#2950000
1#
1;
1<!
0=!
0>!
10!
1F
1B
1A
0@
1O
1N
0C
0B
14
1D
1C
0D
#2960000
0#
0;
#2970000
1#
1;
0/!
1.!
1>!
00!
0R
0O
1S
1@
0N
03
12
04
#2980000
0#
0;
#2990000
1#
1;
1=!
0>!
10!
0A
0@
1N
1B
1A
14
0C
0B
1D
1C
0D
#3000000
0#
0;
#3010000
1#
1;
1/!
1>!
00!
1R
1@
0N
0A
13
04
1B
0C
1D
#3020000
0#
0;
#3030000
1#
1;
19!
0:!
0;!
0<!
0=!
0>!
10!
0D
1C
0B
1A
0@
1P
1O
1N
14
#3040000
0#
0;
#3050000
1#
1;
0/!
1-!
0.!
1>!
00!
0R
0P
0O
1T
0S
1@
0N
03
11
02
04
#3060000
0#
0;
#3070000
1#
1;
1=!
0>!
10!
0A
0@
0Q
1N
1A
1U
14
#3080000
0#
0;
#3090000
1#
1;
1B!
0-!
1>!
00!
0`
1]
0T
1Q
1@
0N
0U
0A
1,
01
04
#3100000
0#
0;
#3110000
1#
1;
1<!
0=!
0>!
10!
1B
1A
0@
1N
0B
14
#3120000
0#
0;
#3130000
1#
1;
1/!
1>!
00!
1R
1@
0N
13
04
#3140000
0#
0;
#3150000
1#
1;
1=!
0>!
10!
0A
0@
1O
1N
1B
1A
14
0B
#3160000
0#
0;
#3170000
1#
1;
0/!
1.!
1>!
00!
0R
0O
1S
1@
0N
0A
03
12
04
1B
#3180000
0#
0;
#3190000
1#
1;
1;!
0<!
0=!
0>!
10!
0C
0B
1A
0@
1N
1C
14
#3200000
0#
0;
#3210000
1#
1;
1/!
1>!
00!
1R
1@
0N
13
04
#3220000
0#
0;
#3230000
1#
1;
1=!
0>!
10!
0A
0@
1P
1O
1N
1A
14
#3240000
0#
0;
#3250000
1#
1;
0/!
1-!
0.!
1>!
00!
0R
0P
0O
1T
0S
0F
1@
0N
0A
03
11
02
04
#3260000
0#
0;
#3270000
1#
1;
1<!
0=!
0>!
10!
1F
1B
1A
0@
0Q
1N
0C
0B
1d
1U
14
1C
#3280000
0#
0;
#3290000
1#
1;
1I!
0J!
0@!
0B!
0-!
1>!
00!
1{
0w
0b
1`
0]
0T
1Q
1@
0N
0d
0U
1/
00
0*
0,
01
04
#3300000
0#
0;
#3310000
1#
1;
1=!
0>!
10!
0A
0@
1N
1B
1A
14
0C
0B
1C
#3320000
0#
0;
#3330000
1#
1;
1/!
1>!
00!
1R
1@
0N
0A
13
04
1B
0C
#3340000
0#
0;
#3350000
1#
1;
1:!
0;!
0<!
0=!
0>!
10!
0W
1D
1C
0B
1A
0@
1O
1N
0D
14
#3360000
0#
0;
#3370000
1#
1;
0/!
1.!
1>!
00!
0R
0O
1S
1@
0N
03
12
04
#3380000
0#
0;
#3390000
1#
1;
1=!
0>!
10!
0A
0@
1N
1A
14
#3400000
0#
0;
#3410000
1#
1;
1/!
1>!
00!
1R
1@
0N
0A
13
04
#3420000
0#
0;
#3430000
1#
1;
1<!
0=!
0>!
10!
1B
1A
0@
1P
1O
1N
0B
14
#3440000
0#
0;
#3450000
1#
1;
0/!
1-!
0.!
1>!
00!
0R
0P
0O
1T
0S
1@
0N
03
11
02
04
#3460000
0#
0;
#3470000
1#
1;
1=!
0>!
10!
0A
0@
0Q
1N
1B
1A
1U
14
0B
#3480000
0#
0;
#3490000
1#
1;
1B!
0-!
1>!
00!
1]
0T
1Q
1@
0N
0U
0A
1,
01
04
1B
#3500000
0#
0;
#3510000
1#
1;
1;!
0<!
0=!
0>!
10!
0C
0B
1A
0@
1N
1D
1C
14
0D
#3520000
0#
0;
#3530000
1#
1;
1/!
1>!
00!
1R
1@
0N
13
04
#3540000
0#
0;
#3550000
1#
1;
1=!
0>!
10!
0A
0@
1O
1N
1A
14
#3560000
0#
0;
#3570000
1#
1;
0/!
1.!
1>!
00!
0R
0O
1S
0F
1@
0N
0G
1E
0A
03
12
04
#3580000
0#
0;
#3590000
1#
1;
18!
09!
0:!
0;!
0=!
0>!
10!
1N
1H
1W
1G
0E
1F
1A
0@
14
#3600000
0#
0;
#3610000
1#
1;
1/!
1>!
00!
1R
1@
0N
13
04
#3620000
1!
0#
1L
0;
#3630000
1#
1;
0M
1=!
0>!
10!
0{
0]
0S
1N
0A
0@
1P
1O
1A
0/
0,
02
14
#3640000
0!
0#
0L
0;
#3650000
1#
1;
0/!
1-!
0.!
1>!
00!
0P
0O
1@
0A
#3660000
0#
0;
#3670000
1#
1;
1<!
0=!
0>!
10!
1B
1A
0@
0Q
0B
1U
#3680000
0#
0;
#3690000
1#
1;
1A!
0B!
0-!
1>!
00!
1Q
1@
0U
#3700000
0#
0;
#3710000
1#
1;
1=!
0>!
10!
0A
0@
1B
1A
0B
#3720000
0#
0;
#3730000
1#
1;
1/!
1>!
00!
1@
0A
1B
#3740000
0#
0;
#3750000
1#
1;
1;!
0<!
0=!
0>!
10!
0C
0B
1A
0@
1O
1C
#3760000
0#
0;
#3770000
1#
1;
0/!
1.!
1>!
00!
0O
1@
#3780000
0#
0;
#3790000
1#
1;
1=!
0>!
10!
0A
0@
1A
#3800000
0#
0;
#3810000
1#
1;
1/!
1>!
00!
0F
1@
0A
#3820000
0#
0;
#3830000
1#
1;
1<!
0=!
0>!
10!
1F
1B
1A
0@
1P
1O
0C
0B
1C
#3840000
0#
0;
#3850000
1#
1;
0/!
1-!
0.!
1>!
00!
0P
0O
1@
#3860000
0#
0;
#3870000
1#
1;
1=!
0>!
10!
0A
0@
0Q
1B
1A
1U
0C
0B
1C
#3880000
0#
0;
#3890000
1#
1;
1B!
0-!
1>!
00!
1^
1Q
1@
0U
0A
1B
0C
#3900000
0#
0;
#3910000
1#
1;
1:!
0;!
0<!
0=!
0>!
10!
1D
1C
0B
1A
0@
0D
#3920000
0#
0;
#3930000
1#
1;
1/!
1>!
00!
1@
#3940000
0#
0;
#3950000
1#
1;
1=!
0>!
10!
0A
0@
1O
1A
#3960000
0#
0;
#3970000
1#
1;
0/!
1.!
1>!
00!
0O
1@
0A
#3980000
0#
0;
#3990000
1#
1;
1<!
0=!
0>!
10!
1B
1A
0@
0B
#4000000
0#
0;
#4010000
1#
1;
1/!
1>!
00!
1@
#4020000
0#
0;
#4030000
1#
1;
1=!
0>!
10!
0A
0@
1P
1O
1B
1A
0B
#4040000
0#
0;
#4050000
1#
1;
0/!
1-!
0.!
1>!
00!
0P
0O
1@
0A
1B
#4060000
0#
0;
#4070000
1#
1;
1;!
0<!
0=!
0>!
10!
0C
0B
1A
0@
0Q
1D
1C
1U
0D
#4080000
0#
0;
#4090000
1#
1;
0A!
1@!
0B!
0-!
1>!
00!
0^
1Q
1@
0U
#4100000
0#
0;
#4110000
1#
1;
1=!
0>!
10!
0A
0@
1A
#4120000
0#
0;
#4130000
1#
1;
1/!
1>!
00!
0F
1@
0A
#4140000
0#
0;
#4150000
1#
1;
1<!
0=!
0>!
10!
1F
1B
1A
0@
1O
0C
0B
1D
1C
0D
#4160000
0#
0;
#4170000
1#
1;
0/!
1.!
1>!
00!
0O
1@
#4180000
0#
0;
#4190000
1#
1;
1=!
0>!
10!
0A
0@
1B
1A
0C
0B
1D
1C
0D
#4200000
0#
0;
#4210000
1#
1;
1/!
1>!
00!
1@
0A
1B
0C
1D
#4220000
0#
0;
#4230000
1#
1;
19!
0:!
0;!
0<!
0=!
0>!
10!
0D
1C
0B
1A
0@
1P
1O
#4240000
0#
0;
