mux41a/simulation/qsim/mux41a.msim.vcd
$comment
	File created using the following command:
		vcd file mux41a.msim.vcd -direction
$end
$date
	Fri Feb 18 15:46:48 2022
$end
$version
	ModelSim Version 2020.1
$end
$timescale
	1ps
$end

$scope module mux41a_vlg_vec_tst $end
$var reg 1 ! a $end
$var reg 1 " b $end
$var reg 1 # c $end
$var reg 1 $ d $end
$var reg 2 % s [1:0] $end
$var wire 1 & x $end

$scope module i1 $end
$var wire 1 ' gnd $end
$var wire 1 ( vcc $end
$var wire 1 ) unknown $end
$var tri1 1 * devclrn $end
$var tri1 1 + devpor $end
$var tri1 1 , devoe $end
$var wire 1 - c~combout $end
$var wire 1 . b~combout $end
$var wire 1 / a~combout $end
$var wire 1 0 Mux0~0_combout $end
$var wire 1 1 d~combout $end
$var wire 1 2 Mux0~1_combout $end
$var wire 1 3 s~combout [1] $end
$var wire 1 4 s~combout [0] $end
$upscope $end
$upscope $end
$enddefinitions $end
#0
$dumpvars
0!
0"
0#
0$
b0 %
0&
0'
1(
x)
1*
1+
1,
0-
0.
0/
00
01
02
04
03
$end
#500
1!
1/
10
12
1&
#1000
0!
0/
00
02
0&
#1500
1!
1/
10
12
1&
#2000
0!
0/
00
02
0&
#2500
1!
1/
10
12
1&
#3000
0!
0/
00
02
0&
#3500
1!
1/
10
12
1&
#4000
0!
0/
00
02
0&
#4500
1!
1/
10
12
1&
#5000
1"
0!
1.
0/
00
02
0&
#5500
1!
1/
10
12
1&
#6000
0!
0/
00
02
0&
#6500
1!
1/
10
12
1&
#7000
0!
0/
00
02
0&
#7500
1!
1/
10
12
1&
#8000
0!
0/
00
02
0&
#8500
1!
1/
10
12
1&
#9000
0!
0/
00
02
0&
#9500
1!
1/
10
12
1&
#10000
0"
0!
0.
0/
00
02
0&
#10500
1!
1/
10
12
1&
#11000
0!
0/
00
02
0&
#11500
1!
1/
10
12
1&
#12000
0!
0/
00
02
0&
#12500
1!
1/
10
12
1&
#13000
0!
0/
00
02
0&
#13500
1!
1/
10
12
1&
#14000
0!
0/
00
02
0&
#14500
1!
1/
10
12
1&
#15000
1#
1"
0!
1-
1.
0/
00
02
0&
#15500
1!
1/
10
12
1&
#16000
0!
0/
00
02
0&
#16500
1!
1/
10
12
1&
#17000
0!
0/
00
02
0&
#17500
1!
1/
10
12
1&
#18000
0!
0/
00
02
0&
#18500
1!
1/
10
12
1&
#19000
0!
0/
00
02
0&
#19500
1!
1/
10
12
1&
#20000
0"
0!
0.
0/
00
02
0&
#20500
1!
1/
10
12
1&
#21000
0!
0/
00
02
0&
#21500
1!
1/
10
12
1&
#22000
0!
0/
00
02
0&
#22500
1!
1/
10
12
1&
#23000
0!
0/
00
02
0&
#23500
1!
1/
10
12
1&
#24000
0!
0/
00
02
0&
#24500
1!
1/
10
12
1&
#25000
1"
0!
1.
0/
00
02
0&
#25500
1!
1/
10
12
1&
#26000
0!
0/
00
02
0&
#26500
1!
1/
10
12
1&
#27000
0!
0/
00
02
0&
#27500
1!
1/
10
12
1&
#28000
0!
0/
00
02
0&
#28500
1!
1/
10
12
1&
#29000
0!
0/
00
02
0&
#29500
1!
1/
10
12
1&
#30000
1$
0#
0"
0!
11
0-
0.
0/
00
02
0&
#30500
1!
1/
10
12
1&
#31000
0!
0/
00
02
0&
#31500
1!
1/
10
12
1&
#32000
0!
0/
00
02
0&
#32500
1!
1/
10
12
1&
#33000
0!
0/
00
02
0&
#33500
1!
1/
10
12
1&
#34000
0!
0/
00
02
0&
#34500
1!
1/
10
12
1&
#35000
1"
0!
1.
0/
00
02
0&
#35500
1!
1/
10
12
1&
#36000
0!
0/
00
02
0&
#36500
1!
1/
10
12
1&
#37000
0!
0/
00
02
0&
#37500
1!
1/
10
12
1&
#38000
0!
0/
00
02
0&
#38500
1!
1/
10
12
1&
#39000
0!
0/
00
02
0&
#39500
1!
1/
10
12
1&
#40000
0"
0!
0.
0/
00
02
0&
#40500
1!
1/
10
12
1&
#41000
0!
0/
00
02
0&
#41500
1!
1/
10
12
1&
#42000
0!
0/
00
02
0&
#42500
1!
1/
10
12
1&
#43000
0!
0/
00
02
0&
#43500
1!
1/
10
12
1&
#44000
0!
0/
00
02
0&
#44500
1!
1/
10
12
1&
#45000
1#
1"
0!
1-
1.
0/
00
02
0&
#45500
1!
1/
10
12
1&
#46000
0!
0/
00
02
0&
#46500
1!
1/
10
12
1&
#47000
0!
0/
00
02
0&
#47500
1!
1/
10
12
1&
#48000
0!
0/
00
02
0&
#48500
1!
1/
10
12
1&
#49000
0!
0/
00
02
0&
#49500
1!
1/
10
12
1&
#50000
0"
0!
0.
0/
00
02
0&
#50500
1!
1/
10
12
1&
#51000
0!
0/
00
02
0&
#51500
1!
1/
10
12
1&
#52000
0!
0/
00
02
0&
#52500
1!
1/
10
12
1&
#53000
0!
0/
00
02
0&
#53500
1!
1/
10
12
1&
#54000
0!
0/
00
02
0&
#54500
1!
1/
10
12
1&
#55000
1"
0!
1.
0/
00
02
0&
#55500
1!
1/
10
12
1&
#56000
0!
0/
00
02
0&
#56500
1!
1/
10
12
1&
#57000
0!
0/
00
02
0&
#57500
1!
1/
10
12
1&
#58000
0!
0/
00
02
0&
#58500
1!
1/
10
12
1&
#59000
0!
0/
00
02
0&
#59500
1!
1/
10
12
1&
#60000
0$
0#
0"
0!
01
0-
0.
0/
00
02
0&
#60500
1!
1/
10
12
1&
#61000
0!
0/
00
02
0&
#61500
1!
1/
10
12
1&
#62000
0!
0/
00
02
0&
#62500
1!
1/
10
12
1&
#63000
0!
0/
00
02
0&
#63500
1!
1/
10
12
1&
#64000
0!
0/
00
02
0&
#64500
1!
1/
10
12
1&
#65000
1"
0!
1.
0/
00
02
0&
#65500
1!
1/
10
12
1&
#66000
0!
0/
00
02
0&
#66500
1!
1/
10
12
1&
#67000
0!
0/
00
02
0&
#67500
1!
1/
10
12
1&
#68000
0!
0/
00
02
0&
#68500
1!
1/
10
12
1&
#69000
0!
0/
00
02
0&
#69500
1!
1/
10
12
1&
#70000
0"
0!
0.
0/
00
02
0&
#70500
1!
1/
10
12
1&
#71000
0!
0/
00
02
0&
#71500
1!
1/
10
12
1&
#72000
0!
0/
00
02
0&
#72500
1!
1/
10
12
1&
#73000
0!
0/
00
02
0&
#73500
1!
1/
10
12
1&
#74000
0!
0/
00
02
0&
#74500
1!
1/
10
12
1&
#75000
1#
1"
0!
1-
1.
0/
00
02
0&
#75500
1!
1/
10
12
1&
#76000
0!
0/
00
02
0&
#76500
1!
1/
10
12
1&
#77000
0!
0/
00
02
0&
#77500
1!
1/
10
12
1&
#78000
0!
0/
00
02
0&
#78500
1!
1/
10
12
1&
#79000
0!
0/
00
02
0&
#79500
1!
1/
10
12
1&
#80000
0"
0!
0.
0/
00
02
0&
#80500
1!
1/
10
12
1&
#81000
0!
0/
00
02
0&
#81500
1!
1/
10
12
1&
#82000
0!
0/
00
02
0&
#82500
1!
1/
10
12
1&
#83000
0!
0/
00
02
0&
#83500
1!
1/
10
12
1&
#84000
0!
0/
00
02
0&
#84500
1!
1/
10
12
1&
#85000
1"
0!
1.
0/
00
02
0&
#85500
1!
1/
10
12
1&
#86000
0!
0/
00
02
0&
#86500
1!
1/
10
12
1&
#87000
0!
0/
00
02
0&
#87500
1!
1/
10
12
1&
#88000
0!
0/
00
02
0&
#88500
1!
1/
10
12
1&
#89000
0!
0/
00
02
0&
#89500
1!
1/
10
12
1&
#90000
1$
0#
0"
0!
11
0-
0.
0/
00
02
0&
#90500
1!
1/
10
12
1&
#91000
0!
0/
00
02
0&
#91500
1!
1/
10
12
1&
#92000
0!
0/
00
02
0&
#92500
1!
1/
10
12
1&
#93000
0!
0/
00
02
0&
#93500
1!
1/
10
12
1&
#94000
0!
0/
00
02
0&
#94500
1!
1/
10
12
1&
#95000
1"
0!
1.
0/
00
02
0&
#95500
1!
1/
10
12
1&
#96000
0!
0/
00
02
0&
#96500
1!
1/
10
12
1&
#97000
0!
0/
00
02
0&
#97500
1!
1/
10
12
1&
#98000
0!
0/
00
02
0&
#98500
1!
1/
10
12
1&
#99000
0!
0/
00
02
0&
#99500
1!
1/
10
12
1&
#100000
0"
0!
0.
0/
00
02
0&
#100500
1!
1/
10
12
1&
#101000
0!
0/
00
02
0&
#101500
1!
1/
10
12
1&
#102000
0!
0/
00
02
0&
#102500
1!
1/
10
12
1&
#103000
0!
0/
00
02
0&
#103500
1!
1/
10
12
1&
#104000
0!
0/
00
02
0&
#104500
1!
1/
10
12
1&
#105000
1#
1"
0!
1-
1.
0/
00
02
0&
#105500
1!
1/
10
12
1&
#106000
0!
0/
00
02
0&
#106500
1!
1/
10
12
1&
#107000
0!
0/
00
02
0&
#107500
1!
1/
10
12
1&
#108000
0!
0/
00
02
0&
#108500
1!
1/
10
12
1&
#109000
0!
0/
00
02
0&
#109500
1!
1/
10
12
1&
#110000
0"
0!
0.
0/
00
02
0&
#110500
1!
1/
10
12
1&
#111000
0!
0/
00
02
0&
#111500
1!
1/
10
12
1&
#112000
0!
0/
00
02
0&
#112500
1!
1/
10
12
1&
#113000
0!
0/
00
02
0&
#113500
1!
1/
10
12
1&
#114000
0!
0/
00
02
0&
#114500
1!
1/
10
12
1&
#115000
1"
0!
1.
0/
00
02
0&
#115500
1!
1/
10
12
1&
#116000
0!
0/
00
02
0&
#116500
1!
1/
10
12
1&
#117000
0!
0/
00
02
0&
#117500
1!
1/
10
12
1&
#118000
0!
0/
00
02
0&
#118500
1!
1/
10
12
1&
#119000
0!
0/
00
02
0&
#119500
1!
1/
10
12
1&
#120000
0$
0#
0"
0!
01
0-
0.
0/
00
02
0&
#120500
1!
1/
10
12
1&
#121000
0!
0/
00
02
0&
#121500
1!
1/
10
12
1&
#122000
0!
0/
00
02
0&
#122500
1!
1/
10
12
1&
#123000
0!
0/
00
02
0&
#123500
1!
1/
10
12
1&
#124000
0!
0/
00
02
0&
#124500
1!
1/
10
12
1&
#125000
1"
0!
1.
0/
00
02
0&
#125500
1!
1/
10
12
1&
#126000
0!
0/
00
02
0&
#126500
1!
1/
10
12
1&
#127000
0!
0/
00
02
0&
#127500
1!
1/
10
12
1&
#128000
0!
0/
00
02
0&
#128500
1!
1/
10
12
1&
#129000
0!
0/
00
02
0&
#129500
1!
1/
10
12
1&
#130000
0"
0!
0.
0/
00
02
0&
#130500
1!
1/
10
12
1&
#131000
0!
0/
00
02
0&
#131500
1!
1/
10
12
1&
#132000
0!
0/
00
02
0&
#132500
1!
1/
10
12
1&
#133000
0!
0/
00
02
0&
#133500
1!
1/
10
12
1&
#134000
0!
0/
00
02
0&
#134500
1!
1/
10
12
1&
#135000
1#
1"
0!
1-
1.
0/
00
02
0&
#135500
1!
1/
10
12
1&
#136000
0!
0/
00
02
0&
#136500
1!
1/
10
12
1&
#137000
0!
0/
00
02
0&
#137500
1!
1/
10
12
1&
#138000
0!
0/
00
02
0&
#138500
1!
1/
10
12
1&
#139000
0!
0/
00
02
0&
#139500
1!
1/
10
12
1&
#140000
0"
0!
0.
0/
00
02
0&
#140500
1!
1/
10
12
1&
#141000
0!
0/
00
02
0&
#141500
1!
1/
10
12
1&
#142000
0!
0/
00
02
0&
#142500
1!
1/
10
12
1&
#143000
0!
0/
00
02
0&
#143500
1!
1/
10
12
1&
#144000
0!
0/
00
02
0&
#144500
1!
1/
10
12
1&
#145000
1"
0!
1.
0/
00
02
0&
#145500
1!
1/
10
12
1&
#146000
0!
0/
00
02
0&
#146500
1!
1/
10
12
1&
#147000
0!
0/
00
02
0&
#147500
1!
1/
10
12
1&
#148000
0!
0/
00
02
0&
#148500
1!
1/
10
12
1&
#149000
0!
0/
00
02
0&
#149500
1!
1/
10
12
1&
#150000
1$
0#
0"
0!
11
0-
0.
0/
00
02
0&
#150500
1!
1/
10
12
1&
#151000
0!
0/
00
02
0&
#151500
1!
1/
10
12
1&
#152000
0!
0/
00
02
0&
#152500
1!
1/
10
12
1&
#153000
0!
0/
00
02
0&
#153500
1!
1/
10
12
1&
#154000
0!
0/
00
02
0&
#154500
1!
1/
10
12
1&
#155000
1"
0!
1.
0/
00
02
0&
#155500
1!
1/
10
12
1&
#156000
0!
0/
00
02
0&
#156500
1!
1/
10
12
1&
#157000
0!
0/
00
02
0&
#157500
1!
1/
10
12
1&
#158000
0!
0/
00
02
0&
#158500
1!
1/
10
12
1&
#159000
0!
0/
00
02
0&
#159500
1!
1/
10
12
1&
#160000
0"
0!
0.
0/
00
02
0&
#160500
1!
1/
10
12
1&
#161000
0!
0/
00
02
0&
#161500
1!
1/
10
12
1&
#162000
0!
0/
00
02
0&
#162500
1!
1/
10
12
1&
#163000
0!
0/
00
02
0&
#163500
1!
1/
10
12
1&
#164000
0!
0/
00
02
0&
#164500
1!
1/
10
12
1&
#165000
1#
1"
0!
1-
1.
0/
00
02
0&
#165500
1!
1/
10
12
1&
#166000
0!
0/
00
02
0&
#166500
1!
1/
10
12
1&
#167000
0!
0/
00
02
0&
#167500
1!
1/
10
12
1&
#168000
0!
0/
00
02
0&
#168500
1!
1/
10
12
1&
#169000
0!
0/
00
02
0&
#169500
1!
1/
10
12
1&
#170000
0"
0!
0.
0/
00
02
0&
#170500
1!
1/
10
12
1&
#171000
0!
0/
00
02
0&
#171500
1!
1/
10
12
1&
#172000
0!
0/
00
02
0&
#172500
1!
1/
10
12
1&
#173000
0!
0/
00
02
0&
#173500
1!
1/
10
12
1&
#174000
0!
0/
00
02
0&
#174500
1!
1/
10
12
1&
#175000
1"
0!
1.
0/
00
02
0&
#175500
1!
1/
10
12
1&
#176000
0!
0/
00
02
0&
#176500
1!
1/
10
12
1&
#177000
0!
0/
00
02
0&
#177500
1!
1/
10
12
1&
#178000
0!
0/
00
02
0&
#178500
1!
1/
10
12
1&
#179000
0!
0/
00
02
0&
#179500
1!
1/
10
12
1&
#180000
0$
0#
0"
0!
01
0-
0.
0/
00
02
0&
#180500
1!
1/
10
12
1&
#181000
0!
0/
00
02
0&
#181500
1!
1/
10
12
1&
#182000
0!
0/
00
02
0&
#182500
1!
1/
10
12
1&
#183000
0!
0/
00
02
0&
#183500
1!
1/
10
12
1&
#184000
0!
0/
00
02
0&
#184500
1!
1/
10
12
1&
#185000
1"
0!
1.
0/
00
02
0&
#185500
1!
1/
10
12
1&
#186000
0!
0/
00
02
0&
#186500
1!
1/
10
12
1&
#187000
0!
0/
00
02
0&
#187500
1!
1/
10
12
1&
#188000
0!
0/
00
02
0&
#188500
1!
1/
10
12
1&
#189000
0!
0/
00
02
0&
#189500
1!
1/
10
12
1&
#190000
0"
0!
0.
0/
00
02
0&
#190500
1!
1/
10
12
1&
#191000
0!
0/
00
02
0&
#191500
1!
1/
10
12
1&
#192000
0!
0/
00
02
0&
#192500
1!
1/
10
12
1&
#193000
0!
0/
00
02
0&
#193500
1!
1/
10
12
1&
#194000
0!
0/
00
02
0&
#194500
1!
1/
10
12
1&
#195000
1#
1"
0!
1-
1.
0/
00
02
0&
#195500
1!
1/
10
12
1&
#196000
0!
0/
00
02
0&
#196500
1!
1/
10
12
1&
#197000
0!
0/
00
02
0&
#197500
1!
1/
10
12
1&
#198000
0!
0/
00
02
0&
#198500
1!
1/
10
12
1&
#199000
0!
0/
00
02
0&
#199500
1!
1/
10
12
1&
#200000
b1 %
0"
0!
14
0.
0/
00
02
0&
#200500
1!
1/
#201000
0!
0/
#201500
1!
1/
#202000
0!
0/
#202500
1!
1/
#203000
0!
0/
#203500
1!
1/
#204000
0!
0/
#204500
1!
1/
#205000
1"
0!
1.
0/
10
12
1&
#205500
1!
1/
#206000
0!
0/
#206500
1!
1/
#207000
0!
0/
#207500
1!
1/
#208000
0!
0/
#208500
1!
1/
#209000
0!
0/
#209500
1!
1/
#210000
1$
0#
0"
0!
11
0-
0.
0/
00
02
0&
#210500
1!
1/
#211000
0!
0/
#211500
1!
1/
#212000
0!
0/
#212500
1!
1/
#213000
0!
0/
#213500
1!
1/
#214000
0!
0/
#214500
1!
1/
#215000
1"
0!
1.
0/
10
12
1&
#215500
1!
1/
#216000
0!
0/
#216500
1!
1/
#217000
0!
0/
#217500
1!
1/
#218000
0!
0/
#218500
1!
1/
#219000
0!
0/
#219500
1!
1/
#220000
0"
0!
0.
0/
00
02
0&
#220500
1!
1/
#221000
0!
0/
#221500
1!
1/
#222000
0!
0/
#222500
1!
1/
#223000
0!
0/
#223500
1!
1/
#224000
0!
0/
#224500
1!
1/
#225000
1#
1"
0!
1-
1.
0/
10
12
1&
#225500
1!
1/
#226000
0!
0/
#226500
1!
1/
#227000
0!
0/
#227500
1!
1/
#228000
0!
0/
#228500
1!
1/
#229000
0!
0/
#229500
1!
1/
#230000
0"
0!
0.
0/
00
02
0&
#230500
1!
1/
#231000
0!
0/
#231500
1!
1/
#232000
0!
0/
#232500
1!
1/
#233000
0!
0/
#233500
1!
1/
#234000
0!
0/
#234500
1!
1/
#235000
1"
0!
1.
0/
10
12
1&
#235500
1!
1/
#236000
0!
0/
#236500
1!
1/
#237000
0!
0/
#237500
1!
1/
#238000
0!
0/
#238500
1!
1/
#239000
0!
0/
#239500
1!
1/
#240000
0$
0#
0"
0!
01
0-
0.
0/
00
02
0&
#240500
1!
1/
#241000
0!
0/
#241500
1!
1/
#242000
0!
0/
#242500
1!
1/
#243000
0!
0/
#243500
1!
1/
#244000
0!
0/
#244500
1!
1/
#245000
1"
0!
1.
0/
10
12
1&
#245500
1!
1/
#246000
0!
0/
#246500
1!
1/
#247000
0!
0/
#247500
1!
1/
#248000
0!
0/
#248500
1!
1/
#249000
0!
0/
#249500
1!
1/
#250000
0"
0!
0.
0/
00
02
0&
#250500
1!
1/
#251000
0!
0/
#251500
1!
1/
#252000
0!
0/
#252500
1!
1/
#253000
0!
0/
#253500
1!
1/
#254000
0!
0/
#254500
1!
1/
#255000
1#
1"
0!
1-
1.
0/
10
12
1&
#255500
1!
1/
#256000
0!
0/
#256500
1!
1/
#257000
0!
0/
#257500
1!
1/
#258000
0!
0/
#258500
1!
1/
#259000
0!
0/
#259500
1!
1/
#260000
0"
0!
0.
0/
00
02
0&
#260500
1!
1/
#261000
0!
0/
#261500
1!
1/
#262000
0!
0/
#262500
1!
1/
#263000
0!
0/
#263500
1!
1/
#264000
0!
0/
#264500
1!
1/
#265000
1"
0!
1.
0/
10
12
1&
#265500
1!
1/
#266000
0!
0/
#266500
1!
1/
#267000
0!
0/
#267500
1!
1/
#268000
0!
0/
#268500
1!
1/
#269000
0!
0/
#269500
1!
1/
#270000
1$
0#
0"
0!
11
0-
0.
0/
00
02
0&
#270500
1!
1/
#271000
0!
0/
#271500
1!
1/
#272000
0!
0/
#272500
1!
1/
#273000
0!
0/
#273500
1!
1/
#274000
0!
0/
#274500
1!
1/
#275000
1"
0!
1.
0/
10
12
1&
#275500
1!
1/
#276000
0!
0/
#276500
1!
1/
#277000
0!
0/
#277500
1!
1/
#278000
0!
0/
#278500
1!
1/
#279000
0!
0/
#279500
1!
1/
#280000
0"
0!
0.
0/
00
02
0&
#280500
1!
1/
#281000
0!
0/
#281500
1!
1/
#282000
0!
0/
#282500
1!
1/
#283000
0!
0/
#283500
1!
1/
#284000
0!
0/
#284500
1!
1/
#285000
1#
1"
0!
1-
1.
0/
10
12
1&
#285500
1!
1/
#286000
0!
0/
#286500
1!
1/
#287000
0!
0/
#287500
1!
1/
#288000
0!
0/
#288500
1!
1/
#289000
0!
0/
#289500
1!
1/
#290000
0"
0!
0.
0/
00
02
0&
#290500
1!
1/
#291000
0!
0/
#291500
1!
1/
#292000
0!
0/
#292500
1!
1/
#293000
0!
0/
#293500
1!
1/
#294000
0!
0/
#294500
1!
1/
#295000
1"
0!
1.
0/
10
12
1&
#295500
1!
1/
#296000
0!
0/
#296500
1!
1/
#297000
0!
0/
#297500
1!
1/
#298000
0!
0/
#298500
1!
1/
#299000
0!
0/
#299500
1!
1/
#300000
0$
0#
0"
0!
01
0-
0.
0/
00
02
0&
#300500
1!
1/
#301000
0!
0/
#301500
1!
1/
#302000
0!
0/
#302500
1!
1/
#303000
0!
0/
#303500
1!
1/
#304000
0!
0/
#304500
1!
1/
#305000
1"
0!
1.
0/
10
12
1&
#305500
1!
1/
#306000
0!
0/
#306500
1!
1/
#307000
0!
0/
#307500
1!
1/
#308000
0!
0/
#308500
1!
1/
#309000
0!
0/
#309500
1!
1/
#310000
0"
0!
0.
0/
00
02
0&
#310500
1!
1/
#311000
0!
0/
#311500
1!
1/
#312000
0!
0/
#312500
1!
1/
#313000
0!
0/
#313500
1!
1/
#314000
0!
0/
#314500
1!
1/
#315000
1#
1"
0!
1-
1.
0/
10
12
1&
#315500
1!
1/
#316000
0!
0/
#316500
1!
1/
#317000
0!
0/
#317500
1!
1/
#318000
0!
0/
#318500
1!
1/
#319000
0!
0/
#319500
1!
1/
#320000
0"
0!
0.
0/
00
02
0&
#320500
1!
1/
#321000
0!
0/
#321500
1!
1/
#322000
0!
0/
#322500
1!
1/
#323000
0!
0/
#323500
1!
1/
#324000
0!
0/
#324500
1!
1/
#325000
1"
0!
1.
0/
10
12
1&
#325500
1!
1/
#326000
0!
0/
#326500
1!
1/
#327000
0!
0/
#327500
1!
1/
#328000
0!
0/
#328500
1!
1/
#329000
0!
0/
#329500
1!
1/
#330000
1$
0#
0"
0!
11
0-
0.
0/
00
02
0&
#330500
1!
1/
#331000
0!
0/
#331500
1!
1/
#332000
0!
0/
#332500
1!
1/
#333000
0!
0/
#333500
1!
1/
#334000
0!
0/
#334500
1!
1/
#335000
1"
0!
1.
0/
10
12
1&
#335500
1!
1/
#336000
0!
0/
#336500
1!
1/
#337000
0!
0/
#337500
1!
1/
#338000
0!
0/
#338500
1!
1/
#339000
0!
0/
#339500
1!
1/
#340000
0"
0!
0.
0/
00
02
0&
#340500
1!
1/
#341000
0!
0/
#341500
1!
1/
#342000
0!
0/
#342500
1!
1/
#343000
0!
0/
#343500
1!
1/
#344000
0!
0/
#344500
1!
1/
#345000
1#
1"
0!
1-
1.
0/
10
12
1&
#345500
1!
1/
#346000
0!
0/
#346500
1!
1/
#347000
0!
0/
#347500
1!
1/
#348000
0!
0/
#348500
1!
1/
#349000
0!
0/
#349500
1!
1/
#350000
0"
0!
0.
0/
00
02
0&
#350500
1!
1/
#351000
0!
0/
#351500
1!
1/
#352000
0!
0/
#352500
1!
1/
#353000
0!
0/
#353500
1!
1/
#354000
0!
0/
#354500
1!
1/
#355000
1"
0!
1.
0/
10
12
1&
#355500
1!
1/
#356000
0!
0/
#356500
1!
1/
#357000
0!
0/
#357500
1!
1/
#358000
0!
0/
#358500
1!
1/
#359000
0!
0/
#359500
1!
1/
#360000
0$
0#
0"
0!
01
0-
0.
0/
00
02
0&
#360500
1!
1/
#361000
0!
0/
#361500
1!
1/
#362000
0!
0/
#362500
1!
1/
#363000
0!
0/
#363500
1!
1/
#364000
0!
0/
#364500
1!
1/
#365000
1"
0!
1.
0/
10
12
1&
#365500
1!
1/
#366000
0!
0/
#366500
1!
1/
#367000
0!
0/
#367500
1!
1/
#368000
0!
0/
#368500
1!
1/
#369000
0!
0/
#369500
1!
1/
#370000
0"
0!
0.
0/
00
02
0&
#370500
1!
1/
#371000
0!
0/
#371500
1!
1/
#372000
0!
0/
#372500
1!
1/
#373000
0!
0/
#373500
1!
1/
#374000
0!
0/
#374500
1!
1/
#375000
1#
1"
0!
1-
1.
0/
10
12
1&
#375500
1!
1/
#376000
0!
0/
#376500
1!
1/
#377000
0!
0/
#377500
1!
1/
#378000
0!
0/
#378500
1!
1/
#379000
0!
0/
#379500
1!
1/
#380000
0"
0!
0.
0/
00
02
0&
#380500
1!
1/
#381000
0!
0/
#381500
1!
1/
#382000
0!
0/
#382500
1!
1/
#383000
0!
0/
#383500
1!
1/
#384000
0!
0/
#384500
1!
1/
#385000
1"
0!
1.
0/
10
12
1&
#385500
1!
1/
#386000
0!
0/
#386500
1!
1/
#387000
0!
0/
#387500
1!
1/
#388000
0!
0/
#388500
1!
1/
#389000
0!
0/
#389500
1!
1/
#390000
1$
0#
0"
0!
11
0-
0.
0/
00
02
0&
#390500
1!
1/
#391000
0!
0/
#391500
1!
1/
#392000
0!
0/
#392500
1!
1/
#393000
0!
0/
#393500
1!
1/
#394000
0!
0/
#394500
1!
1/
#395000
1"
0!
1.
0/
10
12
1&
#395500
1!
1/
#396000
0!
0/
#396500
1!
1/
#397000
0!
0/
#397500
1!
1/
#398000
0!
0/
#398500
1!
1/
#399000
0!
0/
#399500
1!
1/
#400000
b11 %
b10 %
0"
0!
04
13
0.
0/
00
02
0&
#400500
1!
1/
#401000
0!
0/
#401500
1!
1/
#402000
0!
0/
#402500
1!
1/
#403000
0!
0/
#403500
1!
1/
#404000
0!
0/
#404500
1!
1/
#405000
1#
1"
0!
1-
1.
0/
12
1&
#405500
1!
1/
#406000
0!
0/
#406500
1!
1/
#407000
0!
0/
#407500
1!
1/
#408000
0!
0/
#408500
1!
1/
#409000
0!
0/
#409500
1!
1/
#410000
0"
0!
0.
0/
#410500
1!
1/
#411000
0!
0/
#411500
1!
1/
#412000
0!
0/
#412500
1!
1/
#413000
0!
0/
#413500
1!
1/
#414000
0!
0/
#414500
1!
1/
#415000
1"
0!
1.
0/
#415500
1!
1/
#416000
0!
0/
#416500
1!
1/
#417000
0!
0/
#417500
1!
1/
#418000
0!
0/
#418500
1!
1/
#419000
0!
0/
#419500
1!
1/
#420000
0$
0#
0"
0!
01
0-
0.
0/
02
0&
#420500
1!
1/
#421000
0!
0/
#421500
1!
1/
#422000
0!
0/
#422500
1!
1/
#423000
0!
0/
#423500
1!
1/
#424000
0!
0/
#424500
1!
1/
#425000
1"
0!
1.
0/
#425500
1!
1/
#426000
0!
0/
#426500
1!
1/
#427000
0!
0/
#427500
1!
1/
#428000
0!
0/
#428500
1!
1/
#429000
0!
0/
#429500
1!
1/
#430000
0"
0!
0.
0/
#430500
1!
1/
#431000
0!
0/
#431500
1!
1/
#432000
0!
0/
#432500
1!
1/
#433000
0!
0/
#433500
1!
1/
#434000
0!
0/
#434500
1!
1/
#435000
1#
1"
0!
1-
1.
0/
12
1&
#435500
1!
1/
#436000
0!
0/
#436500
1!
1/
#437000
0!
0/
#437500
1!
1/
#438000
0!
0/
#438500
1!
1/
#439000
0!
0/
#439500
1!
1/
#440000
0"
0!
0.
0/
#440500
1!
1/
#441000
0!
0/
#441500
1!
1/
#442000
0!
0/
#442500
1!
1/
#443000
0!
0/
#443500
1!
1/
#444000
0!
0/
#444500
1!
1/
#445000
1"
0!
1.
0/
#445500
1!
1/
#446000
0!
0/
#446500
1!
1/
#447000
0!
0/
#447500
1!
1/
#448000
0!
0/
#448500
1!
1/
#449000
0!
0/
#449500
1!
1/
#450000
1$
0#
0"
0!
11
0-
0.
0/
02
0&
#450500
1!
1/
#451000
0!
0/
#451500
1!
1/
#452000
0!
0/
#452500
1!
1/
#453000
0!
0/
#453500
1!
1/
#454000
0!
0/
#454500
1!
1/
#455000
1"
0!
1.
0/
#455500
1!
1/
#456000
0!
0/
#456500
1!
1/
#457000
0!
0/
#457500
1!
1/
#458000
0!
0/
#458500
1!
1/
#459000
0!
0/
#459500
1!
1/
#460000
0"
0!
0.
0/
#460500
1!
1/
#461000
0!
0/
#461500
1!
1/
#462000
0!
0/
#462500
1!
1/
#463000
0!
0/
#463500
1!
1/
#464000
0!
0/
#464500
1!
1/
#465000
1#
1"
0!
1-
1.
0/
12
1&
#465500
1!
1/
#466000
0!
0/
#466500
1!
1/
#467000
0!
0/
#467500
1!
1/
#468000
0!
0/
#468500
1!
1/
#469000
0!
0/
#469500
1!
1/
#470000
0"
0!
0.
0/
#470500
1!
1/
#471000
0!
0/
#471500
1!
1/
#472000
0!
0/
#472500
1!
1/
#473000
0!
0/
#473500
1!
1/
#474000
0!
0/
#474500
1!
1/
#475000
1"
0!
1.
0/
#475500
1!
1/
#476000
0!
0/
#476500
1!
1/
#477000
0!
0/
#477500
1!
1/
#478000
0!
0/
#478500
1!
1/
#479000
0!
0/
#479500
1!
1/
#480000
0$
0#
0"
0!
01
0-
0.
0/
02
0&
#480500
1!
1/
#481000
0!
0/
#481500
1!
1/
#482000
0!
0/
#482500
1!
1/
#483000
0!
0/
#483500
1!
1/
#484000
0!
0/
#484500
1!
1/
#485000
1"
0!
1.
0/
#485500
1!
1/
#486000
0!
0/
#486500
1!
1/
#487000
0!
0/
#487500
1!
1/
#488000
0!
0/
#488500
1!
1/
#489000
0!
0/
#489500
1!
1/
#490000
0"
0!
0.
0/
#490500
1!
1/
#491000
0!
0/
#491500
1!
1/
#492000
0!
0/
#492500
1!
1/
#493000
0!
0/
#493500
1!
1/
#494000
0!
0/
#494500
1!
1/
#495000
1#
1"
0!
1-
1.
0/
12
1&
#495500
1!
1/
#496000
0!
0/
#496500
1!
1/
#497000
0!
0/
#497500
1!
1/
#498000
0!
0/
#498500
1!
1/
#499000
0!
0/
#499500
1!
1/
#500000
0"
0!
0.
0/
#500500
1!
1/
#501000
0!
0/
#501500
1!
1/
#502000
0!
0/
#502500
1!
1/
#503000
0!
0/
#503500
1!
1/
#504000
0!
0/
#504500
1!
1/
#505000
1"
0!
1.
0/
#505500
1!
1/
#506000
0!
0/
#506500
1!
1/
#507000
0!
0/
#507500
1!
1/
#508000
0!
0/
#508500
1!
1/
#509000
0!
0/
#509500
1!
1/
#510000
1$
0#
0"
0!
11
0-
0.
0/
02
0&
#510500
1!
1/
#511000
0!
0/
#511500
1!
1/
#512000
0!
0/
#512500
1!
1/
#513000
0!
0/
#513500
1!
1/
#514000
0!
0/
#514500
1!
1/
#515000
1"
0!
1.
0/
#515500
1!
1/
#516000
0!
0/
#516500
1!
1/
#517000
0!
0/
#517500
1!
1/
#518000
0!
0/
#518500
1!
1/
#519000
0!
0/
#519500
1!
1/
