Practica_4/simulation/qsim/Practica_4.msim.vcd
$comment
	File created using the following command:
		vcd file Practica_4.msim.vcd -direction
$end
$date
	Sat Apr 02 21:05:13 2022
$end
$version
	ModelSim Version 2020.1
$end
$timescale
	1ps
$end

$scope module Practica_4_vlg_vec_tst $end
$var reg 1 ! clk $end
$var reg 1 " rst $end
$var wire 1 # sal $end

$scope module i1 $end
$var wire 1 $ gnd $end
$var wire 1 % vcc $end
$var wire 1 & unknown $end
$var tri1 1 ' devclrn $end
$var tri1 1 ( devpor $end
$var tri1 1 ) devoe $end
$var wire 1 * clk~combout $end
$var wire 1 + rst~combout $end
$var wire 1 , Add0~80_combout $end
$var wire 1 - Add0~82 $end
$var wire 1 . Add0~75_combout $end
$var wire 1 / Add0~77 $end
$var wire 1 0 Add0~0_combout $end
$var wire 1 1 Add0~2 $end
$var wire 1 2 Add0~70_combout $end
$var wire 1 3 Add0~72 $end
$var wire 1 4 Add0~65_combout $end
$var wire 1 5 Add0~67 $end
$var wire 1 6 Add0~60_combout $end
$var wire 1 7 Add0~62 $end
$var wire 1 8 Add0~125_combout $end
$var wire 1 9 Add0~127 $end
$var wire 1 : Add0~5_combout $end
$var wire 1 ; Add0~7 $end
$var wire 1 < Add0~10_combout $end
$var wire 1 = Add0~12 $end
$var wire 1 > Add0~15_combout $end
$var wire 1 ? Add0~17 $end
$var wire 1 @ Add0~20_combout $end
$var wire 1 A Add0~22 $end
$var wire 1 B Add0~120_combout $end
$var wire 1 C Add0~122 $end
$var wire 1 D Add0~55_combout $end
$var wire 1 E Add0~57 $end
$var wire 1 F Add0~50_combout $end
$var wire 1 G Add0~52 $end
$var wire 1 H Add0~45_combout $end
$var wire 1 I Add0~47 $end
$var wire 1 J Add0~115_combout $end
$var wire 1 K Add0~117 $end
$var wire 1 L Add0~110_combout $end
$var wire 1 M Add0~112 $end
$var wire 1 N Add0~105_combout $end
$var wire 1 O Add0~107 $end
$var wire 1 P Add0~100_combout $end
$var wire 1 Q Add0~102 $end
$var wire 1 R Add0~40_combout $end
$var wire 1 S Add0~42 $end
$var wire 1 T Add0~35_combout $end
$var wire 1 U Add0~37 $end
$var wire 1 V Add0~30_combout $end
$var wire 1 W Add0~32 $end
$var wire 1 X Add0~25_combout $end
$var wire 1 Y Add0~27 $end
$var wire 1 Z Add0~95_combout $end
$var wire 1 [ Add0~97 $end
$var wire 1 \ Add0~90_combout $end
$var wire 1 ] Add0~92 $end
$var wire 1 ^ Add0~85_combout $end
$var wire 1 _ Equal1~6_combout $end
$var wire 1 ` Equal1~7_combout $end
$var wire 1 a Equal1~8_combout $end
$var wire 1 b Equal1~9_combout $end
$var wire 1 c Equal1~0_combout $end
$var wire 1 d Equal1~1_combout $end
$var wire 1 e Equal1~2_combout $end
$var wire 1 f Equal1~3_combout $end
$var wire 1 g Equal1~4_combout $end
$var wire 1 h Equal1~5_combout $end
$var wire 1 i clk2~0_combout $end
$var wire 1 j clk2~1_combout $end
$var wire 1 k clk2~2_combout $end
$var wire 1 l clk2~3_combout $end
$var wire 1 m clk2~regout $end
$var wire 1 n contador [25] $end
$var wire 1 o contador [24] $end
$var wire 1 p contador [23] $end
$var wire 1 q contador [22] $end
$var wire 1 r contador [21] $end
$var wire 1 s contador [20] $end
$var wire 1 t contador [19] $end
$var wire 1 u contador [18] $end
$var wire 1 v contador [17] $end
$var wire 1 w contador [16] $end
$var wire 1 x contador [15] $end
$var wire 1 y contador [14] $end
$var wire 1 z contador [13] $end
$var wire 1 { contador [12] $end
$var wire 1 | contador [11] $end
$var wire 1 } contador [10] $end
$var wire 1 ~ contador [9] $end
$var wire 1 !! contador [8] $end
$var wire 1 "! contador [7] $end
$var wire 1 #! contador [6] $end
$var wire 1 $! contador [5] $end
$var wire 1 %! contador [4] $end
$var wire 1 &! contador [3] $end
$var wire 1 '! contador [2] $end
$var wire 1 (! contador [1] $end
$var wire 1 )! contador [0] $end
$upscope $end
$upscope $end
$enddefinitions $end
#0
$dumpvars
0!
0"
0#
0$
1%
x&
1'
1(
1)
0*
0+
0,
1-
0.
0/
10
01
12
13
14
05
16
17
08
09
0:
1;
0<
0=
0>
1?
0@
0A
1B
1C
1D
0E
1F
1G
1H
0I
0J
1K
1L
0M
0N
1O
1P
0Q
1R
1S
1T
0U
1V
1W
1X
0Y
0Z
1[
1\
0]
0^
0_
0`
0a
0b
1c
1d
1e
1f
1g
0h
1i
1j
1k
0l
0m
0)!
0(!
0'!
0&!
0%!
0$!
0#!
0"!
0!!
0~
0}
0|
0{
0z
0y
0x
0w
0v
0u
0t
0s
0r
0q
0p
0o
0n
$end
#500000
1!
1*
1'!
1(!
1)!
11
00
1/
1.
0-
1,
03
02
01
10
0.
15
04
13
12
07
06
05
14
18
17
16
08
#1000000
0!
0*
#1500000
1!
1*
0)!
1-
0,
1.
#2000000
0!
0*
#2500000
1!
1*
0(!
1)!
0/
0.
0-
1,
11
00
1/
1.
03
02
01
10
15
04
13
12
07
06
05
14
18
17
16
08
#3000000
0!
0*
#3500000
1!
1*
0)!
1h
1-
0,
1l
0/
0.
11
00
03
02
15
04
07
06
18
#4000000
0!
0*
#4500000
1!
1*
1m
1#!
1$!
1%!
1&!
0'!
1(!
1)!
0k
19
08
0f
17
16
05
14
13
12
0h
01
10
1/
1.
0-
1,
1#
0l
1:
0g
09
18
06
04
02
00
0.
0:
#5000000
0!
0*
#5500000
1!
1*
0)!
1-
0,
1.
#6000000
0!
0*
#6500000
1!
1*
0(!
1)!
0/
0.
0-
1,
10
1/
1.
00
#7000000
0!
0*
#7500000
1!
1*
0)!
1-
0,
0/
0.
10
#8000000
0!
0*
#8500000
1!
1*
1'!
1(!
1)!
11
00
1/
1.
0-
1,
12
01
10
0.
02
#9000000
0!
0*
#9500000
1!
1*
0)!
1-
0,
1.
#10000000
0!
0*
#10500000
1!
1*
0(!
1)!
0/
0.
0-
1,
11
00
1/
1.
12
01
10
02
#11000000
0!
0*
#11500000
1!
1*
0)!
1-
0,
0/
0.
11
00
12
#12000000
0!
0*
#12500000
1!
1*
0&!
0'!
1(!
1)!
03
02
01
10
1/
1.
0-
1,
14
13
12
00
0.
04
#13000000
0!
0*
#13500000
1!
1*
0)!
1-
0,
1.
#14000000
0!
0*
#14500000
1!
1*
0(!
1)!
0/
0.
0-
1,
10
1/
1.
00
#15000000
0!
0*
#15500000
1!
1*
0)!
1-
0,
0/
0.
10
#16000000
0!
0*
#16500000
1!
1*
1'!
1(!
1)!
11
00
1/
1.
0-
1,
03
02
01
10
0.
14
13
12
04
#17000000
0!
0*
#17500000
1!
1*
0)!
1-
0,
1.
#18000000
0!
0*
#18500000
1!
1*
0(!
1)!
0/
0.
0-
1,
11
00
1/
1.
03
02
01
10
14
13
12
04
#19000000
0!
0*
#19500000
1!
1*
0)!
1-
0,
0/
0.
11
00
03
02
14
#20000000
0!
0*
#20500000
1!
1*
0%!
1&!
0'!
1(!
1)!
15
04
13
12
01
10
1/
1.
0-
1,
16
05
14
02
00
0.
06
#21000000
0!
0*
#21500000
1!
1*
0)!
1-
0,
1.
#22000000
0!
0*
#22500000
1!
1*
0(!
1)!
0/
0.
0-
1,
10
1/
1.
00
#23000000
0!
0*
#23500000
1!
1*
0)!
1-
0,
0/
0.
10
#24000000
0!
0*
#24500000
1!
1*
1'!
1(!
1)!
11
00
1/
1.
0-
1,
12
01
10
0.
02
#25000000
0!
0*
#25500000
1!
1*
0)!
1-
0,
1.
#26000000
0!
0*
#26500000
1!
1*
0(!
1)!
0/
0.
0-
1,
11
00
1/
1.
12
01
10
02
#27000000
0!
0*
#27500000
1!
1*
0)!
1-
0,
0/
0.
11
00
12
#28000000
0!
0*
#28500000
1!
1*
0&!
0'!
1(!
1)!
03
02
01
10
1/
1.
0-
1,
15
04
13
12
00
0.
16
05
14
06
#29000000
0!
0*
#29500000
1!
1*
0)!
1-
0,
1.
#30000000
0!
0*
#30500000
1!
1*
0(!
1)!
0/
0.
0-
1,
10
1/
1.
00
#31000000
0!
0*
#31500000
1!
1*
0)!
1-
0,
0/
0.
10
#32000000
0!
0*
#32500000
1!
1*
1'!
1(!
1)!
11
00
1/
1.
0-
1,
03
02
01
10
0.
15
04
13
12
16
05
14
06
#33000000
0!
0*
#33500000
1!
1*
0)!
1-
0,
1.
#34000000
0!
0*
#34500000
1!
1*
0(!
1)!
0/
0.
0-
1,
11
00
1/
1.
03
02
01
10
15
04
13
12
16
05
14
06
#35000000
0!
0*
#35500000
1!
1*
0)!
1-
0,
0/
0.
11
00
03
02
15
04
16
#36000000
0!
0*
#36500000
1!
1*
0$!
1%!
1&!
0'!
1(!
1)!
07
06
05
14
13
12
01
10
1/
1.
0-
1,
19
08
17
16
04
02
00
0.
1:
09
18
0:
#37000000
0!
0*
#37500000
1!
1*
0)!
1-
0,
1.
#38000000
0!
0*
#38500000
1!
1*
0(!
1)!
0/
0.
0-
1,
10
1/
1.
00
#39000000
0!
0*
#39500000
1!
1*
0)!
1-
0,
0/
0.
10
#40000000
0!
0*
#40500000
1!
1*
1'!
1(!
1)!
11
00
1/
1.
0-
1,
12
01
10
0.
02
#41000000
0!
0*
#41500000
1!
1*
0)!
1-
0,
1.
#42000000
0!
0*
#42500000
1!
1*
0(!
1)!
0/
0.
0-
1,
11
00
1/
1.
12
01
10
02
#43000000
0!
0*
#43500000
1!
1*
0)!
1-
0,
0/
0.
11
00
12
#44000000
0!
0*
#44500000
1!
1*
0&!
0'!
1(!
1)!
03
02
01
10
1/
1.
0-
1,
14
13
12
00
0.
04
#45000000
0!
0*
#45500000
1!
1*
0)!
1-
0,
1.
#46000000
0!
0*
#46500000
1!
1*
0(!
1)!
0/
0.
0-
1,
10
1/
1.
00
#47000000
0!
0*
#47500000
1!
1*
0)!
1-
0,
0/
0.
10
#48000000
0!
0*
#48500000
1!
1*
1'!
1(!
1)!
11
00
1/
1.
0-
1,
03
02
01
10
0.
14
13
12
04
#49000000
0!
0*
#49500000
1!
1*
0)!
1-
0,
1.
#50000000
0!
0*
#50500000
1!
1*
0(!
1)!
0/
0.
0-
1,
11
00
1/
1.
03
02
01
10
14
13
12
04
#51000000
0!
0*
#51500000
1!
1*
0)!
1-
0,
0/
0.
11
00
03
02
14
#52000000
0!
0*
#52500000
1!
1*
0%!
1&!
0'!
1(!
1)!
15
04
13
12
01
10
1/
1.
0-
1,
07
06
05
14
02
00
0.
19
08
17
16
1:
09
18
0:
#53000000
0!
0*
#53500000
1!
1*
0)!
1-
0,
1.
#54000000
0!
0*
#54500000
1!
1*
0(!
1)!
0/
0.
0-
1,
10
1/
1.
00
#55000000
0!
0*
#55500000
1!
1*
0)!
1-
0,
0/
0.
10
#56000000
0!
0*
#56500000
1!
1*
1'!
1(!
1)!
11
00
1/
1.
0-
1,
12
01
10
0.
02
#57000000
0!
0*
#57500000
1!
1*
0)!
1-
0,
1.
#58000000
0!
0*
#58500000
1!
1*
0(!
1)!
0/
0.
0-
1,
11
00
1/
1.
12
01
10
02
#59000000
0!
0*
#59500000
1!
1*
0)!
1-
0,
0/
0.
11
00
12
#60000000
0!
0*
#60500000
1!
1*
0&!
0'!
1(!
1)!
1f
03
02
01
10
1/
1.
0-
1,
1g
15
04
13
12
00
0.
07
06
05
14
19
08
17
16
1:
09
18
0:
#61000000
0!
0*
#61500000
1!
1*
0)!
1-
0,
1.
#62000000
0!
0*
#62500000
1!
1*
0(!
1)!
0/
0.
0-
1,
10
1/
1.
00
#63000000
0!
0*
#63500000
1!
1*
0)!
1-
0,
0/
0.
10
#64000000
0!
0*
#64500000
1!
1*
1'!
1(!
1)!
11
00
1/
1.
0-
1,
03
02
01
10
0.
15
04
13
12
07
06
05
14
19
08
17
16
1:
09
18
0:
#65000000
0!
0*
#65500000
1!
1*
0)!
1-
0,
1.
#66000000
0!
0*
#66500000
1!
1*
0(!
1)!
0/
0.
0-
1,
11
00
1/
1.
03
02
01
10
15
04
13
12
07
06
05
14
19
08
17
16
1:
09
18
0:
#67000000
0!
0*
#67500000
1!
1*
0)!
1h
1-
0,
0/
0.
11
00
03
02
15
04
07
06
19
08
1:
#68000000
0!
0*
#68500000
1!
1*
1"!
0#!
1$!
1%!
1&!
0'!
1(!
1)!
0c
0;
0:
1k
09
18
0f
17
16
05
14
13
12
0h
01
10
1/
1.
0-
1,
0g
1<
1;
1:
08
06
04
02
00
0.
0<
#69000000
0!
0*
#69500000
1!
1*
0)!
1-
0,
1.
#70000000
0!
0*
#70500000
1!
1*
0(!
1)!
0/
0.
0-
1,
10
1/
1.
00
#71000000
0!
0*
#71500000
1!
1*
0)!
1-
0,
0/
0.
10
#72000000
0!
0*
#72500000
1!
1*
1'!
1(!
1)!
11
00
1/
1.
0-
1,
12
01
10
0.
02
#73000000
0!
0*
#73500000
1!
1*
0)!
1-
0,
1.
#74000000
0!
0*
#74500000
1!
1*
0(!
1)!
0/
0.
0-
1,
11
00
1/
1.
12
01
10
02
#75000000
0!
0*
#75500000
1!
1*
0)!
1-
0,
0/
0.
11
00
12
#76000000
0!
0*
#76500000
1!
1*
0&!
0'!
1(!
1)!
03
02
01
10
1/
1.
0-
1,
14
13
12
00
0.
04
#77000000
0!
0*
#77500000
1!
1*
0)!
1-
0,
1.
#78000000
0!
0*
#78500000
1!
1*
0(!
1)!
0/
0.
0-
1,
10
1/
1.
00
#79000000
0!
0*
#79500000
1!
1*
0)!
1-
0,
0/
0.
10
#80000000
0!
0*
#80500000
1!
1*
1'!
1(!
1)!
11
00
1/
1.
0-
1,
03
02
01
10
0.
14
13
12
04
#81000000
0!
0*
#81500000
1!
1*
0)!
1-
0,
1.
#82000000
0!
0*
#82500000
1!
1*
0(!
1)!
0/
0.
0-
1,
11
00
1/
1.
03
02
01
10
14
13
12
04
#83000000
0!
0*
#83500000
1!
1*
0)!
1-
0,
0/
0.
11
00
03
02
14
#84000000
0!
0*
#84500000
1!
1*
0%!
1&!
0'!
1(!
1)!
15
04
13
12
01
10
1/
1.
0-
1,
16
05
14
02
00
0.
06
#85000000
0!
0*
#85500000
1!
1*
0)!
1-
0,
1.
#86000000
0!
0*
#86500000
1!
1*
0(!
1)!
0/
0.
0-
1,
10
1/
1.
00
#87000000
0!
0*
#87500000
1!
1*
0)!
1-
0,
0/
0.
10
#88000000
0!
0*
#88500000
1!
1*
1'!
1(!
1)!
11
00
1/
1.
0-
1,
12
01
10
0.
02
#89000000
0!
0*
#89500000
1!
1*
0)!
1-
0,
1.
#90000000
0!
0*
#90500000
1!
1*
0(!
1)!
0/
0.
0-
1,
11
00
1/
1.
12
01
10
02
#91000000
0!
0*
#91500000
1!
1*
0)!
1-
0,
0/
0.
11
00
12
#92000000
0!
0*
#92500000
1!
1*
0&!
0'!
1(!
1)!
03
02
01
10
1/
1.
0-
1,
15
04
13
12
00
0.
16
05
14
06
#93000000
0!
0*
#93500000
1!
1*
0)!
1-
0,
1.
#94000000
0!
0*
#94500000
1!
1*
0(!
1)!
0/
0.
0-
1,
10
1/
1.
00
#95000000
0!
0*
#95500000
1!
1*
0)!
1-
0,
0/
0.
10
#96000000
0!
0*
#96500000
1!
1*
1'!
1(!
1)!
11
00
1/
1.
0-
1,
03
02
01
10
0.
15
04
13
12
16
05
14
06
#97000000
0!
0*
#97500000
1!
1*
0)!
1-
0,
1.
#98000000
0!
0*
#98500000
1!
1*
0(!
1)!
0/
0.
0-
1,
11
00
1/
1.
03
02
01
10
15
04
13
12
16
05
14
06
#99000000
0!
0*
#99500000
1!
1*
0)!
1-
0,
0/
0.
11
00
03
02
15
04
16
