reloj2/simulation/qsim/reloj2.msim.vcd
$comment
	File created using the following command:
		vcd file reloj2.msim.vcd -direction
$end
$date
	Fri Mar 11 18:46:08 2022
$end
$version
	ModelSim Version 2020.1
$end
$timescale
	1ps
$end

$scope module reloj2_vlg_vec_tst $end
$var reg 1 ! clk $end
$var reg 1 " rst $end
$var wire 1 # hd [3] $end
$var wire 1 $ hd [2] $end
$var wire 1 % hd [1] $end
$var wire 1 & hd [0] $end
$var wire 1 ' hu [3] $end
$var wire 1 ( hu [2] $end
$var wire 1 ) hu [1] $end
$var wire 1 * hu [0] $end
$var wire 1 + md [3] $end
$var wire 1 , md [2] $end
$var wire 1 - md [1] $end
$var wire 1 . md [0] $end
$var wire 1 / mu [3] $end
$var wire 1 0 mu [2] $end
$var wire 1 1 mu [1] $end
$var wire 1 2 mu [0] $end

$scope module i1 $end
$var wire 1 3 gnd $end
$var wire 1 4 vcc $end
$var wire 1 5 unknown $end
$var tri1 1 6 devclrn $end
$var tri1 1 7 devpor $end
$var tri1 1 8 devoe $end
$var wire 1 9 clk~combout $end
$var wire 1 : rst~combout $end
$var wire 1 ; segundos[0]~3 $end
$var wire 1 < segundos[1]~5 $end
$var wire 1 = segundos[2]~1 $end
$var wire 1 > segundos[3]~7 $end
$var wire 1 ? segundos[4]~9 $end
$var wire 1 @ always0~2_combout $end
$var wire 1 A Equal1~0_combout $end
$var wire 1 B Equal1~1_combout $end
$var wire 1 C mu[1]~reg0_regout $end
$var wire 1 D Add1~0_combout $end
$var wire 1 E mu[2]~reg0_regout $end
$var wire 1 F Add1~1_combout $end
$var wire 1 G mu[3]~reg0_regout $end
$var wire 1 H Equal0~0_combout $end
$var wire 1 I always1~0_combout $end
$var wire 1 J mu[0]~reg0_regout $end
$var wire 1 K always2~1_combout $end
$var wire 1 L Equal1~2_combout $end
$var wire 1 M always2~2_combout $end
$var wire 1 N md[1]~reg0_regout $end
$var wire 1 O Add2~0_combout $end
$var wire 1 P md[2]~reg0_regout $end
$var wire 1 Q Add2~1_combout $end
$var wire 1 R md[3]~reg0_regout $end
$var wire 1 S Equal2~0_combout $end
$var wire 1 T always2~0_combout $end
$var wire 1 U md[0]~reg0_regout $end
$var wire 1 V always4~0_combout $end
$var wire 1 W hu[1]~reg0_regout $end
$var wire 1 X hu~2_combout $end
$var wire 1 Y always4~1_combout $end
$var wire 1 Z always4~2_combout $end
$var wire 1 [ hd~1_combout $end
$var wire 1 \ always4~4_combout $end
$var wire 1 ] hd[1]~reg0_regout $end
$var wire 1 ^ Add4~0_combout $end
$var wire 1 _ hd~2_combout $end
$var wire 1 ` hd[2]~reg0_regout $end
$var wire 1 a Add4~1_combout $end
$var wire 1 b hd[3]~reg0_regout $end
$var wire 1 c always4~3_combout $end
$var wire 1 d hd~0_combout $end
$var wire 1 e hd[0]~reg0_regout $end
$var wire 1 f Equal8~0_combout $end
$var wire 1 g hu~4_combout $end
$var wire 1 h hu[2]~reg0_regout $end
$var wire 1 i Add3~0_combout $end
$var wire 1 j hu~3_combout $end
$var wire 1 k hu[3]~reg0_regout $end
$var wire 1 l Equal4~0_combout $end
$var wire 1 m always3~0_combout $end
$var wire 1 n hu[0]~reg0_regout $end
$var wire 1 o segundos [5] $end
$var wire 1 p segundos [4] $end
$var wire 1 q segundos [3] $end
$var wire 1 r segundos [2] $end
$var wire 1 s segundos [1] $end
$var wire 1 t segundos [0] $end
$upscope $end
$upscope $end
$enddefinitions $end
#0
$dumpvars
0!
0"
0&
1%
0$
0#
1*
1)
0(
0'
0.
0-
1,
0+
12
11
10
0/
03
14
x5
16
17
18
09
0:
0;
1<
0=
1>
0?
0@
1A
1B
0C
1D
0E
1F
0G
0H
0I
0J
0K
1L
0M
0N
0O
0P
0Q
0R
1S
0T
0U
0V
0W
0X
1Y
0Z
1[
0\
0]
0^
0_
0`
0a
0b
0c
0d
0e
1f
1g
0h
0i
0j
0k
0l
0m
0n
0t
0s
0r
0q
0p
0o
$end
#500
1!
19
1t
1;
#1000
0!
09
#1500
1!
19
1s
0t
0<
0;
1<
#2000
0!
09
#2500
1!
19
1t
1;
0<
#3000
0!
09
#3500
1!
19
1r
0s
0t
1=
1<
0;
0=
#4000
0!
09
#4500
1!
19
1t
1;
#5000
0!
09
#5500
1!
19
1s
0t
0<
0;
1=
1<
0=
#6000
0!
09
#6500
1!
19
1t
1;
0<
1=
#7000
0!
09
#7500
1!
19
1q
0r
0s
0t
0>
0=
1<
0;
1>
#8000
0!
09
#8500
1!
19
1t
1;
#9000
0!
09
#9500
1!
19
1s
0t
0<
0;
1<
#10000
0!
09
#10500
1!
19
1t
0A
1;
0<
#11000
0!
09
#11500
1!
19
1r
0s
0t
1A
1=
1<
0;
0>
0=
1>
#12000
0!
09
#12500
1!
19
1t
1;
#13000
0!
09
#13500
1!
19
1s
0t
0<
0;
1=
1<
0>
0=
1>
#14000
0!
09
#14500
1!
19
1t
1;
0<
1=
0>
#15000
0!
09
#15500
1!
19
1p
0q
0r
0s
0t
1?
1>
0=
1<
0;
0?
#16000
0!
09
#16500
1!
19
1t
1;
#17000
0!
09
#17500
1!
19
1s
0t
0<
0;
1<
#18000
0!
09
#18500
1!
19
1t
1;
0<
#19000
0!
09
#19500
1!
19
1r
0s
0t
1=
1<
0;
0=
#20000
0!
09
#20500
1!
19
1t
1;
#21000
0!
09
#21500
1!
19
1s
0t
0<
0;
1=
1<
0=
#22000
0!
09
#22500
1!
19
1t
1;
0<
1=
#23000
0!
09
#23500
1!
19
1q
0r
0s
0t
0>
0=
1<
0;
1?
1>
0?
#24000
0!
09
#24500
1!
19
1t
1;
#25000
0!
09
#25500
1!
19
1s
0t
0<
0;
1<
#26000
0!
09
#26500
1!
19
1t
0A
1;
0<
#27000
0!
09
#27500
1!
19
1r
0s
0t
1A
1=
1<
0;
0>
0=
1?
1>
0?
#28000
0!
09
#28500
1!
19
1t
1;
#29000
0!
09
#29500
1!
19
1s
0t
0<
0;
1=
1<
0>
0=
1?
1>
0?
#30000
0!
09
#30500
1!
19
1t
1;
0<
1=
0>
1?
#31000
0!
09
#31500
1!
19
1o
0p
0q
0r
0s
0t
0?
1>
0=
1<
0;
#32000
0!
09
#32500
1!
19
1t
1;
#33000
0!
09
#33500
1!
19
1s
0t
0<
0;
1<
#34000
0!
09
#34500
1!
19
1t
1;
0<
#35000
0!
09
#35500
1!
19
1r
0s
0t
1=
1<
0;
0=
#36000
0!
09
#36500
1!
19
1t
1;
#37000
0!
09
#37500
1!
19
1s
0t
0<
0;
1=
1<
0=
#38000
0!
09
#38500
1!
19
1t
1;
0<
1=
#39000
0!
09
#39500
1!
19
1q
0r
0s
0t
0>
0=
1<
0;
1>
#40000
0!
09
#40500
1!
19
1t
1;
#41000
0!
09
#41500
1!
19
1s
0t
0<
0;
1<
#42000
0!
09
#42500
1!
19
1t
0A
1;
0<
#43000
0!
09
#43500
1!
19
1r
0s
0t
1A
1=
1<
0;
0>
0=
1>
#44000
0!
09
#44500
1!
19
1t
1;
#45000
0!
09
#45500
1!
19
1s
0t
0<
0;
1=
1<
0>
0=
1>
#46000
0!
09
#46500
1!
19
1t
1;
0<
1=
0>
#47000
0!
09
#47500
1!
19
1p
0q
0r
0s
0t
0L
1?
1>
0=
1<
0;
0?
#48000
0!
09
#48500
1!
19
1t
1;
#49000
0!
09
#49500
1!
19
1s
0t
0<
0;
1<
#50000
0!
09
#50500
1!
19
1t
1;
0<
#51000
0!
09
#51500
1!
19
1r
0s
0t
1=
1<
0;
0=
#52000
0!
09
#52500
1!
19
1t
1;
#53000
0!
09
#53500
1!
19
1s
0t
0<
0;
1=
1<
0=
#54000
0!
09
#54500
1!
19
1t
1;
0<
1=
#55000
0!
09
#55500
1!
19
1q
0r
0s
0t
0>
0=
1<
0;
1?
1>
0?
#56000
0!
09
#56500
1!
19
1t
1;
#57000
0!
09
#57500
1!
19
1s
0t
0<
0;
1<
#58000
0!
09
#58500
1!
19
1t
0A
1;
0B
1@
0<
#59000
0!
09
#59500
1!
19
1J
1G
1E
1C
0o
0p
0q
0s
0t
0F
0D
1H
1L
1B
0@
1A
1<
0;
1/
01
00
02
#60000
0!
09
#60500
1!
19
1t
1;
#61000
0!
09
#61500
1!
19
1s
0t
0<
0;
1<
#62000
0!
09
#62500
1!
19
1t
1;
0<
#63000
0!
09
#63500
1!
19
1r
0s
0t
1=
1<
0;
0=
#64000
0!
09
#64500
1!
19
1t
1;
#65000
0!
09
#65500
1!
19
1s
0t
0<
0;
1=
1<
0=
#66000
0!
09
#66500
1!
19
1t
1;
0<
1=
#67000
0!
09
#67500
1!
19
1q
0r
0s
0t
0>
0=
1<
0;
1>
#68000
0!
09
#68500
1!
19
1t
1;
#69000
0!
09
#69500
1!
19
1s
0t
0<
0;
1<
#70000
0!
09
#70500
1!
19
1t
0A
1;
0<
#71000
0!
09
#71500
1!
19
1r
0s
0t
1A
1=
1<
0;
0>
0=
1>
#72000
0!
09
#72500
1!
19
1t
1;
#73000
0!
09
#73500
1!
19
1s
0t
0<
0;
1=
1<
0>
0=
1>
#74000
0!
09
#74500
1!
19
1t
1;
0<
1=
0>
#75000
0!
09
#75500
1!
19
1p
0q
0r
0s
0t
1?
1>
0=
1<
0;
0?
#76000
0!
09
#76500
1!
19
1t
1;
#77000
0!
09
#77500
1!
19
1s
0t
0<
0;
1<
#78000
0!
09
#78500
1!
19
1t
1;
0<
#79000
0!
09
#79500
1!
19
1r
0s
0t
1=
1<
0;
0=
#80000
0!
09
#80500
1!
19
1t
1;
#81000
0!
09
#81500
1!
19
1s
0t
0<
0;
1=
1<
0=
#82000
0!
09
#82500
1!
19
1t
1;
0<
1=
#83000
0!
09
#83500
1!
19
1q
0r
0s
0t
0>
0=
1<
0;
1?
1>
0?
#84000
0!
09
#84500
1!
19
1t
1;
#85000
0!
09
#85500
1!
19
1s
0t
0<
0;
1<
#86000
0!
09
#86500
1!
19
1t
0A
1;
0<
#87000
0!
09
#87500
1!
19
1r
0s
0t
1A
1=
1<
0;
0>
0=
1?
1>
0?
#88000
0!
09
#88500
1!
19
1t
1;
#89000
0!
09
#89500
1!
19
1s
0t
0<
0;
1=
1<
0>
0=
1?
1>
0?
#90000
0!
09
#90500
1!
19
1t
1;
0<
1=
0>
1?
#91000
0!
09
#91500
1!
19
1o
0p
0q
0r
0s
0t
0?
1>
0=
1<
0;
#92000
0!
09
#92500
1!
19
1t
1;
#93000
0!
09
#93500
1!
19
1s
0t
0<
0;
1<
#94000
0!
09
#94500
1!
19
1t
1;
0<
#95000
0!
09
#95500
1!
19
1r
0s
0t
1=
1<
0;
0=
#96000
0!
09
#96500
1!
19
1t
1;
#97000
0!
09
#97500
1!
19
1s
0t
0<
0;
1=
1<
0=
#98000
0!
09
#98500
1!
19
1t
1;
0<
1=
#99000
0!
09
#99500
1!
19
1q
0r
0s
0t
0>
0=
1<
0;
1>
#100000
0!
09
#100500
1!
19
1t
1;
#101000
0!
09
#101500
1!
19
1s
0t
0<
0;
1<
#102000
0!
09
#102500
1!
19
1t
0A
1;
0<
#103000
0!
09
#103500
1!
19
1r
0s
0t
1A
1=
1<
0;
0>
0=
1>
#104000
0!
09
#104500
1!
19
1t
1;
#105000
0!
09
#105500
1!
19
1s
0t
0<
0;
1=
1<
0>
0=
1>
#106000
0!
09
#106500
1!
19
1t
1;
0<
1=
0>
#107000
0!
09
#107500
1!
19
1p
0q
0r
0s
0t
0L
1?
1>
0=
1<
0;
0?
#108000
0!
09
#108500
1!
19
1t
1;
#109000
0!
09
#109500
1!
19
1s
0t
0<
0;
1<
#110000
0!
09
#110500
1!
19
1t
1;
0<
#111000
0!
09
#111500
1!
19
1r
0s
0t
1=
1<
0;
0=
#112000
0!
09
#112500
1!
19
1t
1;
#113000
0!
09
#113500
1!
19
1s
0t
0<
0;
1=
1<
0=
#114000
0!
09
#114500
1!
19
1t
1;
0<
1=
#115000
0!
09
#115500
1!
19
1q
0r
0s
0t
0>
0=
1<
0;
1?
1>
0?
#116000
0!
09
#116500
1!
19
1t
1;
#117000
0!
09
#117500
1!
19
1s
0t
0<
0;
1<
#118000
0!
09
#118500
1!
19
1t
0A
1;
0B
1@
0<
#119000
0!
09
#119500
1!
19
0J
0o
0p
0q
0s
0t
1K
1L
1B
0@
1A
1<
0;
12
#120000
0!
09
#120500
1!
19
1t
1;
#121000
0!
09
#121500
1!
19
1s
0t
0<
0;
1<
#122000
0!
09
#122500
1!
19
1t
1;
0<
#123000
0!
09
#123500
1!
19
1r
0s
0t
1=
1<
0;
0=
#124000
0!
09
#124500
1!
19
1t
1;
#125000
0!
09
#125500
1!
19
1s
0t
0<
0;
1=
1<
0=
#126000
0!
09
#126500
1!
19
1t
1;
0<
1=
#127000
0!
09
#127500
1!
19
1q
0r
0s
0t
0>
0=
1<
0;
1>
#128000
0!
09
#128500
1!
19
1t
1;
#129000
0!
09
#129500
1!
19
1s
0t
0<
0;
1<
#130000
0!
09
#130500
1!
19
1t
0A
1;
0<
#131000
0!
09
#131500
1!
19
1r
0s
0t
1A
1=
1<
0;
0>
0=
1>
#132000
0!
09
#132500
1!
19
1t
1;
#133000
0!
09
#133500
1!
19
1s
0t
0<
0;
1=
1<
0>
0=
1>
#134000
0!
09
#134500
1!
19
1t
1;
0<
1=
0>
#135000
0!
09
#135500
1!
19
1p
0q
0r
0s
0t
1?
1>
0=
1<
0;
0?
#136000
0!
09
#136500
1!
19
1t
1;
#137000
0!
09
#137500
1!
19
1s
0t
0<
0;
1<
#138000
0!
09
#138500
1!
19
1t
1;
0<
#139000
0!
09
#139500
1!
19
1r
0s
0t
1=
1<
0;
0=
#140000
0!
09
#140500
1!
19
1t
1;
#141000
0!
09
#141500
1!
19
1s
0t
0<
0;
1=
1<
0=
#142000
0!
09
#142500
1!
19
1t
1;
0<
1=
#143000
0!
09
#143500
1!
19
1q
0r
0s
0t
0>
0=
1<
0;
1?
1>
0?
#144000
0!
09
#144500
1!
19
1t
1;
#145000
0!
09
#145500
1!
19
1s
0t
0<
0;
1<
#146000
0!
09
#146500
1!
19
1t
0A
1;
0<
#147000
0!
09
#147500
1!
19
1r
0s
0t
1A
1=
1<
0;
0>
0=
1?
1>
0?
#148000
0!
09
#148500
1!
19
1t
1;
#149000
0!
09
#149500
1!
19
1s
0t
0<
0;
1=
1<
0>
0=
1?
1>
0?
#150000
0!
09
#150500
1!
19
1t
1;
0<
1=
0>
1?
#151000
0!
09
#151500
1!
19
1o
0p
0q
0r
0s
0t
0?
1>
0=
1<
0;
#152000
0!
09
#152500
1!
19
1t
1;
#153000
0!
09
#153500
1!
19
1s
0t
0<
0;
1<
#154000
0!
09
#154500
1!
19
1t
1;
0<
#155000
0!
09
#155500
1!
19
1r
0s
0t
1=
1<
0;
0=
#156000
0!
09
#156500
1!
19
1t
1;
#157000
0!
09
#157500
1!
19
1s
0t
0<
0;
1=
1<
0=
#158000
0!
09
#158500
1!
19
1t
1;
0<
1=
#159000
0!
09
#159500
1!
19
1q
0r
0s
0t
0>
0=
1<
0;
1>
#160000
0!
09
#160500
1!
19
1t
1;
#161000
0!
09
#161500
1!
19
1s
0t
0<
0;
1<
#162000
0!
09
#162500
1!
19
1t
0A
1;
0<
#163000
0!
09
#163500
1!
19
1r
0s
0t
1A
1=
1<
0;
0>
0=
1>
#164000
0!
09
#164500
1!
19
1t
1;
#165000
0!
09
#165500
1!
19
1s
0t
0<
0;
1=
1<
0>
0=
1>
#166000
0!
09
#166500
1!
19
1t
1;
0<
1=
0>
#167000
0!
09
#167500
1!
19
1p
0q
0r
0s
0t
0L
1?
1>
0=
1<
0;
0?
#168000
0!
09
#168500
1!
19
1t
1;
#169000
0!
09
#169500
1!
19
1s
0t
0<
0;
1<
#170000
0!
09
#170500
1!
19
1t
1;
0<
#171000
0!
09
#171500
1!
19
1r
0s
0t
1=
1<
0;
0=
#172000
0!
09
#172500
1!
19
1t
1;
#173000
0!
09
#173500
1!
19
1s
0t
0<
0;
1=
1<
0=
#174000
0!
09
#174500
1!
19
1t
1;
0<
1=
#175000
0!
09
#175500
1!
19
1q
0r
0s
0t
0>
0=
1<
0;
1?
1>
0?
#176000
0!
09
#176500
1!
19
1t
1;
#177000
0!
09
#177500
1!
19
1s
0t
0<
0;
1<
#178000
0!
09
#178500
1!
19
1t
0A
1;
1M
0B
1@
0<
#179000
0!
09
#179500
1!
19
1U
1J
0C
0o
0p
0q
0s
0t
1V
0K
1I
1L
1B
0@
1A
1<
0;
1.
11
02
1\
1X
0M
0V
0\
0X
#180000
0!
09
#180500
1!
19
0G
1C
1t
0H
0I
1;
0/
01
#181000
0!
09
#181500
1!
19
1s
0t
0<
0;
1<
#182000
0!
09
#182500
1!
19
1t
1;
0<
#183000
0!
09
#183500
1!
19
1r
0s
0t
1=
1<
0;
0=
#184000
0!
09
#184500
1!
19
1t
1;
#185000
0!
09
#185500
1!
19
1s
0t
0<
0;
1=
1<
0=
#186000
0!
09
#186500
1!
19
1t
1;
0<
1=
#187000
0!
09
#187500
1!
19
1q
0r
0s
0t
0>
0=
1<
0;
1>
#188000
0!
09
#188500
1!
19
1t
1;
#189000
0!
09
#189500
1!
19
1s
0t
0<
0;
1<
#190000
0!
09
#190500
1!
19
1t
0A
1;
0<
#191000
0!
09
#191500
1!
19
1r
0s
0t
1A
1=
1<
0;
0>
0=
1>
#192000
0!
09
#192500
1!
19
1t
1;
#193000
0!
09
#193500
1!
19
1s
0t
0<
0;
1=
1<
0>
0=
1>
#194000
0!
09
#194500
1!
19
1t
1;
0<
1=
0>
#195000
0!
09
#195500
1!
19
1p
0q
0r
0s
0t
1?
1>
0=
1<
0;
0?
#196000
0!
09
#196500
1!
19
1t
1;
#197000
0!
09
#197500
1!
19
1s
0t
0<
0;
1<
#198000
0!
09
#198500
1!
19
1t
1;
0<
#199000
0!
09
#199500
1!
19
1r
0s
0t
1=
1<
0;
0=
#200000
0!
09
#200500
1!
19
1t
1;
#201000
0!
09
#201500
1!
19
1s
0t
0<
0;
1=
1<
0=
#202000
0!
09
#202500
1!
19
1t
1;
0<
1=
#203000
0!
09
#203500
1!
19
1q
0r
0s
0t
0>
0=
1<
0;
1?
1>
0?
#204000
0!
09
#204500
1!
19
1t
1;
#205000
0!
09
#205500
1!
19
1s
0t
0<
0;
1<
#206000
0!
09
#206500
1!
19
1t
0A
1;
0<
#207000
0!
09
#207500
1!
19
1r
0s
0t
1A
1=
1<
0;
0>
0=
1?
1>
0?
#208000
0!
09
#208500
1!
19
1t
1;
#209000
0!
09
#209500
1!
19
1s
0t
0<
0;
1=
1<
0>
0=
1?
1>
0?
#210000
0!
09
#210500
1!
19
1t
1;
0<
1=
0>
1?
#211000
0!
09
#211500
1!
19
1o
0p
0q
0r
0s
0t
0?
1>
0=
1<
0;
#212000
0!
09
#212500
1!
19
1t
1;
#213000
0!
09
#213500
1!
19
1s
0t
0<
0;
1<
#214000
0!
09
#214500
1!
19
1t
1;
0<
#215000
0!
09
#215500
1!
19
1r
0s
0t
1=
1<
0;
0=
#216000
0!
09
#216500
1!
19
1t
1;
#217000
0!
09
#217500
1!
19
1s
0t
0<
0;
1=
1<
0=
#218000
0!
09
#218500
1!
19
1t
1;
0<
1=
#219000
0!
09
#219500
1!
19
1q
0r
0s
0t
0>
0=
1<
0;
1>
#220000
0!
09
#220500
1!
19
1t
1;
#221000
0!
09
#221500
1!
19
1s
0t
0<
0;
1<
#222000
0!
09
#222500
1!
19
1t
0A
1;
0<
#223000
0!
09
#223500
1!
19
1r
0s
0t
1A
1=
1<
0;
0>
0=
1>
#224000
0!
09
#224500
1!
19
1t
1;
#225000
0!
09
#225500
1!
19
1s
0t
0<
0;
1=
1<
0>
0=
1>
#226000
0!
09
#226500
1!
19
1t
1;
0<
1=
0>
#227000
0!
09
#227500
1!
19
1p
0q
0r
0s
0t
0L
1?
1>
0=
1<
0;
0?
#228000
0!
09
#228500
1!
19
1t
1;
#229000
0!
09
#229500
1!
19
1s
0t
0<
0;
1<
#230000
0!
09
#230500
1!
19
1t
1;
0<
#231000
0!
09
#231500
1!
19
1r
0s
0t
1=
1<
0;
0=
#232000
0!
09
#232500
1!
19
1t
1;
#233000
0!
09
#233500
1!
19
1s
0t
0<
0;
1=
1<
0=
#234000
0!
09
#234500
1!
19
1t
1;
0<
1=
#235000
0!
09
#235500
1!
19
1q
0r
0s
0t
0>
0=
1<
0;
1?
1>
0?
#236000
0!
09
#236500
1!
19
1t
1;
#237000
0!
09
#237500
1!
19
1s
0t
0<
0;
1<
#238000
0!
09
#238500
1!
19
1t
0A
1;
0B
1@
0<
#239000
0!
09
#239500
1!
19
0J
0o
0p
0q
0s
0t
1K
1L
1B
0@
1A
1<
0;
12
#240000
0!
09
#240500
1!
19
1t
1;
#241000
0!
09
#241500
1!
19
1s
0t
0<
0;
1<
#242000
0!
09
#242500
1!
19
1t
1;
0<
#243000
0!
09
#243500
1!
19
1r
0s
0t
1=
1<
0;
0=
#244000
0!
09
#244500
1!
19
1t
1;
#245000
0!
09
#245500
1!
19
1s
0t
0<
0;
1=
1<
0=
#246000
0!
09
#246500
1!
19
1t
1;
0<
1=
#247000
0!
09
#247500
1!
19
1q
0r
0s
0t
0>
0=
1<
0;
1>
#248000
0!
09
#248500
1!
19
1t
1;
#249000
0!
09
#249500
1!
19
1s
0t
0<
0;
1<
#250000
0!
09
#250500
1!
19
1t
0A
1;
0<
#251000
0!
09
#251500
1!
19
1r
0s
0t
1A
1=
1<
0;
0>
0=
1>
#252000
0!
09
#252500
1!
19
1t
1;
#253000
0!
09
#253500
1!
19
1s
0t
0<
0;
1=
1<
0>
0=
1>
#254000
0!
09
#254500
1!
19
1t
1;
0<
1=
0>
#255000
0!
09
#255500
1!
19
1p
0q
0r
0s
0t
1?
1>
0=
1<
0;
0?
#256000
0!
09
#256500
1!
19
1t
1;
#257000
0!
09
#257500
1!
19
1s
0t
0<
0;
1<
#258000
0!
09
#258500
1!
19
1t
1;
0<
#259000
0!
09
#259500
1!
19
1r
0s
0t
1=
1<
0;
0=
#260000
0!
09
#260500
1!
19
1t
1;
#261000
0!
09
#261500
1!
19
1s
0t
0<
0;
1=
1<
0=
#262000
0!
09
#262500
1!
19
1t
1;
0<
1=
#263000
0!
09
#263500
1!
19
1q
0r
0s
0t
0>
0=
1<
0;
1?
1>
0?
#264000
0!
09
#264500
1!
19
1t
1;
#265000
0!
09
#265500
1!
19
1s
0t
0<
0;
1<
#266000
0!
09
#266500
1!
19
1t
0A
1;
0<
#267000
0!
09
#267500
1!
19
1r
0s
0t
1A
1=
1<
0;
0>
0=
1?
1>
0?
#268000
0!
09
#268500
1!
19
1t
1;
#269000
0!
09
#269500
1!
19
1s
0t
0<
0;
1=
1<
0>
0=
1?
1>
0?
#270000
0!
09
#270500
1!
19
1t
1;
0<
1=
0>
1?
#271000
0!
09
#271500
1!
19
1o
0p
0q
0r
0s
0t
0?
1>
0=
1<
0;
#272000
0!
09
#272500
1!
19
1t
1;
#273000
0!
09
#273500
1!
19
1s
0t
0<
0;
1<
#274000
0!
09
#274500
1!
19
1t
1;
0<
#275000
0!
09
#275500
1!
19
1r
0s
0t
1=
1<
0;
0=
#276000
0!
09
#276500
1!
19
1t
1;
#277000
0!
09
#277500
1!
19
1s
0t
0<
0;
1=
1<
0=
#278000
0!
09
#278500
1!
19
1t
1;
0<
1=
#279000
0!
09
#279500
1!
19
1q
0r
0s
0t
0>
0=
1<
0;
1>
#280000
0!
09
#280500
1!
19
1t
1;
#281000
0!
09
#281500
1!
19
1s
0t
0<
0;
1<
#282000
0!
09
#282500
1!
19
1t
0A
1;
0<
#283000
0!
09
#283500
1!
19
1r
0s
0t
1A
1=
1<
0;
0>
0=
1>
#284000
0!
09
#284500
1!
19
1t
1;
#285000
0!
09
#285500
1!
19
1s
0t
0<
0;
1=
1<
0>
0=
1>
#286000
0!
09
#286500
1!
19
1t
1;
0<
1=
0>
#287000
0!
09
#287500
1!
19
1p
0q
0r
0s
0t
0L
1?
1>
0=
1<
0;
0?
#288000
0!
09
#288500
1!
19
1t
1;
#289000
0!
09
#289500
1!
19
1s
0t
0<
0;
1<
#290000
0!
09
#290500
1!
19
1t
1;
0<
#291000
0!
09
#291500
1!
19
1r
0s
0t
1=
1<
0;
0=
#292000
0!
09
#292500
1!
19
1t
1;
#293000
0!
09
#293500
1!
19
1s
0t
0<
0;
1=
1<
0=
#294000
0!
09
#294500
1!
19
1t
1;
0<
1=
#295000
0!
09
#295500
1!
19
1q
0r
0s
0t
0>
0=
1<
0;
1?
1>
0?
#296000
0!
09
#296500
1!
19
1t
1;
#297000
0!
09
#297500
1!
19
1s
0t
0<
0;
1<
#298000
0!
09
#298500
1!
19
1t
0A
1;
0B
1@
0<
#299000
0!
09
#299500
1!
19
1J
0C
0o
0p
0q
0s
0t
0K
1L
1B
0@
1A
1<
0;
11
02
#300000
0!
09
#300500
1!
19
1t
1;
#301000
0!
09
#301500
1!
19
1s
0t
0<
0;
1<
#302000
0!
09
#302500
1!
19
1t
1;
0<
#303000
0!
09
#303500
1!
19
1r
0s
0t
1=
1<
0;
0=
#304000
0!
09
#304500
1!
19
1t
1;
#305000
0!
09
#305500
1!
19
1s
0t
0<
0;
1=
1<
0=
#306000
0!
09
#306500
1!
19
1t
1;
0<
1=
#307000
0!
09
#307500
1!
19
1q
0r
0s
0t
0>
0=
1<
0;
1>
#308000
0!
09
#308500
1!
19
1t
1;
#309000
0!
09
#309500
1!
19
1s
0t
0<
0;
1<
#310000
0!
09
#310500
1!
19
1t
0A
1;
0<
#311000
0!
09
#311500
1!
19
1r
0s
0t
1A
1=
1<
0;
0>
0=
1>
#312000
0!
09
#312500
1!
19
1t
1;
#313000
0!
09
#313500
1!
19
1s
0t
0<
0;
1=
1<
0>
0=
1>
#314000
0!
09
#314500
1!
19
1t
1;
0<
1=
0>
#315000
0!
09
#315500
1!
19
1p
0q
0r
0s
0t
1?
1>
0=
1<
0;
0?
#316000
0!
09
#316500
1!
19
1t
1;
#317000
0!
09
#317500
1!
19
1s
0t
0<
0;
1<
#318000
0!
09
#318500
1!
19
1t
1;
0<
#319000
0!
09
#319500
1!
19
1r
0s
0t
1=
1<
0;
0=
#320000
0!
09
#320500
1!
19
1t
1;
#321000
0!
09
#321500
1!
19
1s
0t
0<
0;
1=
1<
0=
#322000
0!
09
#322500
1!
19
1t
1;
0<
1=
#323000
0!
09
#323500
1!
19
1q
0r
0s
0t
0>
0=
1<
0;
1?
1>
0?
#324000
0!
09
#324500
1!
19
1t
1;
#325000
0!
09
#325500
1!
19
1s
0t
0<
0;
1<
#326000
0!
09
#326500
1!
19
1t
0A
1;
0<
#327000
0!
09
#327500
1!
19
1r
0s
0t
1A
1=
1<
0;
0>
0=
1?
1>
0?
#328000
0!
09
#328500
1!
19
1t
1;
#329000
0!
09
#329500
1!
19
1s
0t
0<
0;
1=
1<
0>
0=
1?
1>
0?
#330000
0!
09
#330500
1!
19
1t
1;
0<
1=
0>
1?
#331000
0!
09
#331500
1!
19
1o
0p
0q
0r
0s
0t
0?
1>
0=
1<
0;
#332000
0!
09
#332500
1!
19
1t
1;
#333000
0!
09
#333500
1!
19
1s
0t
0<
0;
1<
#334000
0!
09
#334500
1!
19
1t
1;
0<
#335000
0!
09
#335500
1!
19
1r
0s
0t
1=
1<
0;
0=
#336000
0!
09
#336500
1!
19
1t
1;
#337000
0!
09
#337500
1!
19
1s
0t
0<
0;
1=
1<
0=
#338000
0!
09
#338500
1!
19
1t
1;
0<
1=
#339000
0!
09
#339500
1!
19
1q
0r
0s
0t
0>
0=
1<
0;
1>
#340000
0!
09
#340500
1!
19
1t
1;
#341000
0!
09
#341500
1!
19
1s
0t
0<
0;
1<
#342000
0!
09
#342500
1!
19
1t
0A
1;
0<
#343000
0!
09
#343500
1!
19
1r
0s
0t
1A
1=
1<
0;
0>
0=
1>
#344000
0!
09
#344500
1!
19
1t
1;
#345000
0!
09
#345500
1!
19
1s
0t
0<
0;
1=
1<
0>
0=
1>
#346000
0!
09
#346500
1!
19
1t
1;
0<
1=
0>
#347000
0!
09
#347500
1!
19
1p
0q
0r
0s
0t
0L
1?
1>
0=
1<
0;
0?
#348000
0!
09
#348500
1!
19
1t
1;
#349000
0!
09
#349500
1!
19
1s
0t
0<
0;
1<
#350000
0!
09
#350500
1!
19
1t
1;
0<
#351000
0!
09
#351500
1!
19
1r
0s
0t
1=
1<
0;
0=
#352000
0!
09
#352500
1!
19
1t
1;
#353000
0!
09
#353500
1!
19
1s
0t
0<
0;
1=
1<
0=
#354000
0!
09
#354500
1!
19
1t
1;
0<
1=
#355000
0!
09
#355500
1!
19
1q
0r
0s
0t
0>
0=
1<
0;
1?
1>
0?
#356000
0!
09
#356500
1!
19
1t
1;
#357000
0!
09
#357500
1!
19
1s
0t
0<
0;
1<
#358000
0!
09
#358500
1!
19
1t
0A
1;
0B
1@
0<
#359000
0!
09
#359500
1!
19
0J
0o
0p
0q
0s
0t
1D
1L
1B
0@
1A
1<
0;
12
#360000
0!
09
#360500
1!
19
1t
1;
#361000
0!
09
#361500
1!
19
1s
0t
0<
0;
1<
#362000
0!
09
#362500
1!
19
1t
1;
0<
#363000
0!
09
#363500
1!
19
1r
0s
0t
1=
1<
0;
0=
#364000
0!
09
#364500
1!
19
1t
1;
#365000
0!
09
#365500
1!
19
1s
0t
0<
0;
1=
1<
0=
#366000
0!
09
#366500
1!
19
1t
1;
0<
1=
#367000
0!
09
#367500
1!
19
1q
0r
0s
0t
0>
0=
1<
0;
1>
#368000
0!
09
#368500
1!
19
1t
1;
#369000
0!
09
#369500
1!
19
1s
0t
0<
0;
1<
#370000
0!
09
#370500
1!
19
1t
0A
1;
0<
#371000
0!
09
