mux81f/mux81j/simulation/qsim/mux81j.msim.vcd
$comment
	File created using the following command:
		vcd file mux81j.msim.vcd -direction
$end
$date
	Fri Feb 11 16:17:45 2022
$end
$version
	ModelSim Version 2020.1
$end
$timescale
	1ps
$end

$scope module mux81j_vlg_vec_tst $end
$var reg 8 ! i [7:0] $end
$var reg 3 " s [2:0] $end
$var wire 1 # x $end

$scope module i1 $end
$var wire 1 $ gnd $end
$var wire 1 % vcc $end
$var wire 1 & unknown $end
$var tri1 1 ' devclrn $end
$var tri1 1 ( devpor $end
$var tri1 1 ) devoe $end
$var wire 1 * u4|x~0_combout $end
$var wire 1 + u4|x~1_combout $end
$var wire 1 , u4|x~2_combout $end
$var wire 1 - u4|x~3_combout $end
$var wire 1 . u4|x~4_combout $end
$var wire 1 / i~combout [7] $end
$var wire 1 0 i~combout [6] $end
$var wire 1 1 i~combout [5] $end
$var wire 1 2 i~combout [4] $end
$var wire 1 3 i~combout [3] $end
$var wire 1 4 i~combout [2] $end
$var wire 1 5 i~combout [1] $end
$var wire 1 6 i~combout [0] $end
$var wire 1 7 s~combout [2] $end
$var wire 1 8 s~combout [1] $end
$var wire 1 9 s~combout [0] $end
$upscope $end
$upscope $end
$enddefinitions $end
#0
$dumpvars
b0 !
b0 "
0#
0$
1%
x&
1'
1(
1)
0*
0+
0,
0-
0.
06
05
04
03
02
01
00
0/
09
08
07
$end
#2500
b10000000 !
1/
#5000
b11000000 !
b1000000 !
10
0/
#7500
b11000000 !
1/
#10000
b11100000 !
b10100000 !
b100000 !
11
00
0/
#12500
b10100000 !
1/
#15000
b11100000 !
b1100000 !
10
0/
#17500
b11100000 !
1/
#20000
b11110000 !
b11010000 !
b10010000 !
b10000 !
12
01
00
0/
1*
1+
#22500
b10010000 !
1/
#25000
b11010000 !
b1010000 !
10
0/
#27500
b11010000 !
1/
#30000
b11110000 !
b10110000 !
b110000 !
11
00
0/
#32500
b10110000 !
1/
#35000
b11110000 !
b1110000 !
10
0/
#37500
b11110000 !
1/
#40000
b11111000 !
b11101000 !
b11001000 !
b10001000 !
b1000 !
13
02
01
00
0/
0*
0+
#42500
b10001000 !
1/
#45000
b11001000 !
b1001000 !
10
0/
#47500
b11001000 !
1/
#50000
b11101000 !
b10101000 !
b101000 !
11
00
0/
#52500
b10101000 !
1/
#55000
b11101000 !
b1101000 !
10
0/
#57500
b11101000 !
1/
#60000
b11111000 !
b11011000 !
b10011000 !
b11000 !
12
01
00
0/
1*
1+
#62500
b10011000 !
1/
#65000
b11011000 !
b1011000 !
10
0/
#67500
b11011000 !
1/
#70000
b11111000 !
b10111000 !
b111000 !
11
00
0/
#72500
b10111000 !
1/
#75000
b11111000 !
b1111000 !
10
0/
#77500
b11111000 !
1/
#80000
b11111100 !
b11110100 !
b11100100 !
b11000100 !
b10000100 !
b100 !
14
03
02
01
00
0/
0*
0+
#82500
b10000100 !
1/
#85000
b11000100 !
b1000100 !
10
0/
#87500
b11000100 !
1/
#90000
b11100100 !
b10100100 !
b100100 !
11
00
0/
#92500
b10100100 !
1/
#95000
b11100100 !
b1100100 !
10
0/
#97500
b11100100 !
1/
#100000
b11110100 !
b11010100 !
b10010100 !
b10100 !
12
01
00
0/
1*
1+
#102500
b10010100 !
1/
#105000
b11010100 !
b1010100 !
10
0/
#107500
b11010100 !
1/
#110000
b11110100 !
b10110100 !
b110100 !
11
00
0/
#112500
b10110100 !
1/
#115000
b11110100 !
b1110100 !
10
0/
#117500
b11110100 !
1/
#120000
b11111100 !
b11101100 !
b11001100 !
b10001100 !
b1100 !
13
02
01
00
0/
0*
0+
#122500
b10001100 !
1/
#125000
b11001100 !
b1001100 !
10
0/
#127500
b11001100 !
1/
#130000
b11101100 !
b10101100 !
b101100 !
11
00
0/
#132500
b10101100 !
1/
#135000
b11101100 !
b1101100 !
10
0/
#137500
b11101100 !
1/
#140000
b11111100 !
b11011100 !
b10011100 !
b11100 !
12
01
00
0/
1*
1+
#142500
b10011100 !
1/
#145000
b11011100 !
b1011100 !
10
0/
#147500
b11011100 !
1/
#150000
b11111100 !
b10111100 !
b111100 !
11
00
0/
#152500
b10111100 !
1/
#155000
b11111100 !
b1111100 !
10
0/
#157500
b11111100 !
1/
#160000
b11111110 !
b1 "
b11111010 !
b11110010 !
b11100010 !
b11000010 !
b10000010 !
b10 !
19
15
04
03
02
01
00
0/
1,
0+
0*
1-
1.
1#
#162500
b10000010 !
1/
#165000
b11000010 !
b1000010 !
10
0/
#167500
b11000010 !
1/
#170000
b11100010 !
b10100010 !
b100010 !
11
00
0/
1+
#172500
b10100010 !
1/
#175000
b11100010 !
b1100010 !
10
0/
#177500
b11100010 !
1/
#180000
b11110010 !
b11010010 !
b10010010 !
b10010 !
12
01
00
0/
0+
#182500
b10010010 !
1/
#185000
b11010010 !
b1010010 !
10
0/
#187500
b11010010 !
1/
#190000
b11110010 !
b10110010 !
b110010 !
11
00
0/
1+
#192500
b10110010 !
1/
#195000
b11110010 !
b1110010 !
10
0/
#197500
b11110010 !
1/
#200000
b11111010 !
b11101010 !
b11001010 !
b10001010 !
b1010 !
13
02
01
00
0/
0+
#202500
b10001010 !
1/
#205000
b11001010 !
b1001010 !
10
0/
#207500
b11001010 !
1/
#210000
b11101010 !
b10101010 !
b101010 !
11
00
0/
1+
#212500
b10101010 !
1/
#215000
b11101010 !
b1101010 !
10
0/
#217500
b11101010 !
1/
#220000
b11111010 !
b11011010 !
b10011010 !
b11010 !
12
01
00
0/
0+
#222500
b10011010 !
1/
#225000
b11011010 !
b1011010 !
10
0/
#227500
b11011010 !
1/
#230000
b11111010 !
b10111010 !
b111010 !
11
00
0/
1+
#232500
b10111010 !
1/
#235000
b11111010 !
b1111010 !
10
0/
#237500
b11111010 !
1/
#240000
b11111110 !
b11110110 !
b11100110 !
b11000110 !
b10000110 !
b110 !
14
03
02
01
00
0/
0+
#242500
b10000110 !
1/
#245000
b11000110 !
b1000110 !
10
0/
#247500
b11000110 !
1/
#250000
b11100110 !
b10100110 !
b100110 !
11
00
0/
1+
#252500
b10100110 !
1/
#255000
b11100110 !
b1100110 !
10
0/
#257500
b11100110 !
1/
#260000
b11110110 !
b11010110 !
b10010110 !
b10110 !
12
01
00
0/
0+
#262500
b10010110 !
1/
#265000
b11010110 !
b1010110 !
10
0/
#267500
b11010110 !
1/
#270000
b11110110 !
b10110110 !
b110110 !
11
00
0/
1+
#272500
b10110110 !
1/
#275000
b11110110 !
b1110110 !
10
0/
#277500
b11110110 !
1/
#280000
b11111110 !
b11101110 !
b11001110 !
b10001110 !
b1110 !
13
02
01
00
0/
0+
#282500
b10001110 !
1/
#285000
b11001110 !
b1001110 !
10
0/
#287500
b11001110 !
1/
#290000
b11101110 !
b10101110 !
b101110 !
11
00
0/
1+
#292500
b10101110 !
1/
#295000
b11101110 !
b1101110 !
10
0/
#297500
b11101110 !
1/
#300000
b11111110 !
b11011110 !
b10011110 !
b11110 !
12
01
00
0/
0+
#302500
b10011110 !
1/
#305000
b11011110 !
b1011110 !
10
0/
#307500
b11011110 !
1/
#310000
b11111110 !
b10111110 !
b111110 !
11
00
0/
1+
#312500
b10111110 !
1/
#315000
b11111110 !
b1111110 !
10
0/
#317500
b11111110 !
1/
#320000
b11111111 !
b11 "
b11111101 !
b10 "
b11111001 !
b11110001 !
b11100001 !
b11000001 !
b10000001 !
b1 !
09
18
16
05
04
03
02
01
00
0/
0,
0+
0-
0.
0#
#322500
b10000001 !
1/
#325000
b11000001 !
b1000001 !
10
0/
1*
1+
#327500
b11000001 !
1/
#330000
b11100001 !
b10100001 !
b100001 !
11
00
0/
0*
0+
#332500
b10100001 !
1/
#335000
b11100001 !
b1100001 !
10
0/
1*
1+
#337500
b11100001 !
1/
#340000
b11110001 !
b11010001 !
b10010001 !
b10001 !
12
01
00
0/
0*
0+
#342500
b10010001 !
1/
#345000
b11010001 !
b1010001 !
10
0/
1*
1+
#347500
b11010001 !
1/
#350000
b11110001 !
b10110001 !
b110001 !
11
00
0/
0*
0+
#352500
b10110001 !
1/
#355000
b11110001 !
b1110001 !
10
0/
1*
1+
#357500
b11110001 !
1/
#360000
b11111001 !
b11101001 !
b11001001 !
b10001001 !
b1001 !
13
02
01
00
0/
0*
0+
#362500
b10001001 !
1/
#365000
b11001001 !
b1001001 !
10
0/
1*
1+
#367500
b11001001 !
1/
#370000
b11101001 !
b10101001 !
b101001 !
11
00
0/
0*
0+
#372500
b10101001 !
1/
#375000
b11101001 !
b1101001 !
10
0/
1*
1+
#377500
b11101001 !
1/
#380000
b11111001 !
b11011001 !
b10011001 !
b11001 !
12
01
00
0/
0*
0+
#382500
b10011001 !
1/
#385000
b11011001 !
b1011001 !
10
0/
1*
1+
#387500
b11011001 !
1/
#390000
b11111001 !
b10111001 !
b111001 !
11
00
0/
0*
0+
#392500
b10111001 !
1/
#395000
b11111001 !
b1111001 !
10
0/
1*
1+
#397500
b11111001 !
1/
#400000
b11111101 !
b11110101 !
b11100101 !
b11000101 !
b10000101 !
b101 !
14
03
02
01
00
0/
1-
0*
1.
0+
1#
#402500
b10000101 !
1/
#405000
b11000101 !
b1000101 !
10
0/
1*
1+
#407500
b11000101 !
1/
#410000
b11100101 !
b10100101 !
b100101 !
11
00
0/
0*
0+
#412500
b10100101 !
1/
#415000
b11100101 !
b1100101 !
10
0/
1*
1+
#417500
b11100101 !
1/
#420000
b11110101 !
b11010101 !
b10010101 !
b10101 !
12
01
00
0/
0*
0+
#422500
b10010101 !
1/
#425000
b11010101 !
b1010101 !
10
0/
1*
1+
#427500
b11010101 !
1/
#430000
b11110101 !
b10110101 !
b110101 !
11
00
0/
0*
0+
#432500
b10110101 !
1/
#435000
b11110101 !
b1110101 !
10
0/
1*
1+
#437500
b11110101 !
1/
#440000
b11111101 !
b11101101 !
b11001101 !
b10001101 !
b1101 !
13
02
01
00
0/
0*
0+
#442500
b10001101 !
1/
#445000
b11001101 !
b1001101 !
10
0/
1*
1+
#447500
b11001101 !
1/
#450000
b11101101 !
b10101101 !
b101101 !
11
00
0/
0*
0+
#452500
b10101101 !
1/
#455000
b11101101 !
b1101101 !
10
0/
1*
1+
#457500
b11101101 !
1/
#460000
b11111101 !
b11011101 !
b10011101 !
b11101 !
12
01
00
0/
0*
0+
#462500
b10011101 !
1/
#465000
b11011101 !
b1011101 !
10
0/
1*
1+
#467500
b11011101 !
1/
#470000
b11111101 !
b10111101 !
b111101 !
11
00
0/
0*
0+
#472500
b10111101 !
1/
#475000
b11111101 !
b1111101 !
10
0/
1*
1+
#477500
b11111101 !
1/
#480000
b11111111 !
b11 "
b11111011 !
b11110011 !
b11100011 !
b11000011 !
b10000011 !
b11 !
19
15
04
03
02
01
00
0/
1,
0+
0-
0.
0#
#482500
b10000011 !
1/
1+
#485000
b11000011 !
b1000011 !
10
0/
0+
#487500
b11000011 !
1/
1+
#490000
b11100011 !
b10100011 !
b100011 !
11
00
0/
0+
#492500
b10100011 !
1/
1+
#495000
b11100011 !
b1100011 !
10
0/
0+
#497500
b11100011 !
1/
1+
#500000
b11110011 !
b11010011 !
b10010011 !
b10011 !
12
01
00
0/
0+
#502500
b10010011 !
1/
1+
#505000
b11010011 !
b1010011 !
10
0/
0+
#507500
b11010011 !
1/
1+
#510000
b11110011 !
b10110011 !
b110011 !
11
00
0/
0+
#512500
b10110011 !
1/
1+
#515000
b11110011 !
b1110011 !
10
0/
0+
#517500
b11110011 !
1/
1+
#520000
b11111011 !
b11101011 !
b11001011 !
b10001011 !
b1011 !
13
02
01
00
0/
1-
0+
1.
1#
#522500
b10001011 !
1/
1+
#525000
b11001011 !
b1001011 !
10
0/
0+
#527500
b11001011 !
1/
1+
#530000
b11101011 !
b10101011 !
b101011 !
11
00
0/
0+
#532500
b10101011 !
1/
1+
#535000
b11101011 !
b1101011 !
10
0/
0+
#537500
b11101011 !
1/
1+
#540000
b11111011 !
b11011011 !
b10011011 !
b11011 !
12
01
00
0/
0+
#542500
b10011011 !
1/
1+
#545000
b11011011 !
b1011011 !
10
0/
0+
#547500
b11011011 !
1/
1+
#550000
b11111011 !
b10111011 !
b111011 !
11
00
0/
0+
#552500
b10111011 !
1/
1+
#555000
b11111011 !
b1111011 !
10
0/
0+
#557500
b11111011 !
1/
1+
#560000
b11111111 !
b11110111 !
b11100111 !
b11000111 !
b10000111 !
b111 !
14
03
02
01
00
0/
0-
0+
0.
0#
#562500
b10000111 !
1/
1+
#565000
b11000111 !
b1000111 !
10
0/
0+
#567500
b11000111 !
1/
1+
#570000
b11100111 !
b10100111 !
b100111 !
11
00
0/
0+
#572500
b10100111 !
1/
1+
#575000
b11100111 !
b1100111 !
10
0/
0+
#577500
b11100111 !
1/
1+
#580000
b11110111 !
b11010111 !
b10010111 !
b10111 !
12
01
00
0/
0+
#582500
b10010111 !
1/
1+
#585000
b11010111 !
b1010111 !
10
0/
0+
#587500
b11010111 !
1/
1+
#590000
b11110111 !
b10110111 !
b110111 !
11
00
0/
0+
#592500
b10110111 !
1/
1+
#595000
b11110111 !
b1110111 !
10
0/
0+
#597500
b11110111 !
1/
1+
#600000
b11111111 !
b11101111 !
b11001111 !
b10001111 !
b1111 !
13
02
01
00
0/
1-
0+
1.
1#
#602500
b10001111 !
1/
1+
#605000
b11001111 !
b1001111 !
10
0/
0+
#607500
b11001111 !
1/
1+
#610000
b11101111 !
b10101111 !
b101111 !
11
00
0/
0+
#612500
b10101111 !
1/
1+
#615000
b11101111 !
b1101111 !
10
0/
0+
#617500
b11101111 !
1/
1+
#620000
b11111111 !
b11011111 !
b10011111 !
b11111 !
12
01
00
0/
0+
#622500
b10011111 !
1/
1+
#625000
b11011111 !
b1011111 !
10
0/
0+
#627500
b11011111 !
1/
1+
#630000
b11111111 !
b10111111 !
b111111 !
11
00
0/
0+
#632500
b10111111 !
1/
1+
#635000
b11111111 !
b1111111 !
10
0/
0+
#637500
b11111111 !
1/
1+
#640000
b111 "
b11111110 !
b101 "
b11111100 !
b100 "
b11111000 !
b11110000 !
b11100000 !
b11000000 !
b10000000 !
b0 !
06
05
04
03
02
01
00
0/
09
08
17
0,
0*
0-
0+
0.
0#
#642500
b10000000 !
1/
#645000
b11000000 !
b1000000 !
10
0/
#647500
b11000000 !
1/
#650000
b11100000 !
b10100000 !
b100000 !
11
00
0/
#652500
b10100000 !
1/
#655000
b11100000 !
b1100000 !
10
0/
#657500
b11100000 !
1/
#660000
b11110000 !
b11010000 !
b10010000 !
b10000 !
12
01
00
0/
1*
1+
1.
1#
#662500
b10010000 !
1/
#665000
b11010000 !
b1010000 !
10
0/
#667500
b11010000 !
1/
#670000
b11110000 !
b10110000 !
b110000 !
11
00
0/
#672500
b10110000 !
1/
#675000
b11110000 !
b1110000 !
10
0/
#677500
b11110000 !
1/
#680000
b11111000 !
b11101000 !
b11001000 !
b10001000 !
b1000 !
13
02
01
00
0/
0*
0+
0.
0#
#682500
b10001000 !
1/
#685000
b11001000 !
b1001000 !
10
0/
#687500
b11001000 !
1/
#690000
b11101000 !
b10101000 !
b101000 !
11
00
0/
#692500
b10101000 !
1/
#695000
b11101000 !
b1101000 !
10
0/
#697500
b11101000 !
1/
#700000
b11111000 !
b11011000 !
b10011000 !
b11000 !
12
01
00
0/
1*
1+
1.
1#
#702500
b10011000 !
1/
#705000
b11011000 !
b1011000 !
10
0/
#707500
b11011000 !
1/
#710000
b11111000 !
b10111000 !
b111000 !
11
00
0/
#712500
b10111000 !
1/
#715000
b11111000 !
b1111000 !
10
0/
#717500
b11111000 !
1/
#720000
b11111100 !
b11110100 !
b11100100 !
b11000100 !
b10000100 !
b100 !
14
03
02
01
00
0/
0*
0+
0.
0#
#722500
b10000100 !
1/
#725000
b11000100 !
b1000100 !
10
0/
#727500
b11000100 !
1/
#730000
b11100100 !
b10100100 !
b100100 !
11
00
0/
#732500
b10100100 !
1/
#735000
b11100100 !
b1100100 !
10
0/
#737500
b11100100 !
1/
#740000
b11110100 !
b11010100 !
b10010100 !
b10100 !
12
01
00
0/
1*
1+
1.
1#
#742500
b10010100 !
1/
#745000
b11010100 !
b1010100 !
10
0/
#747500
b11010100 !
1/
#750000
b11110100 !
b10110100 !
b110100 !
11
00
0/
#752500
b10110100 !
1/
#755000
b11110100 !
b1110100 !
10
0/
#757500
b11110100 !
1/
#760000
b11111100 !
b11101100 !
b11001100 !
b10001100 !
b1100 !
13
02
01
00
0/
0*
0+
0.
0#
#762500
b10001100 !
1/
#765000
b11001100 !
b1001100 !
10
0/
#767500
b11001100 !
1/
#770000
b11101100 !
b10101100 !
b101100 !
11
00
0/
#772500
b10101100 !
1/
#775000
b11101100 !
b1101100 !
10
0/
#777500
b11101100 !
1/
#780000
b11111100 !
b11011100 !
b10011100 !
b11100 !
12
01
00
0/
1*
1+
1.
1#
#782500
b10011100 !
1/
#785000
b11011100 !
b1011100 !
10
0/
#787500
b11011100 !
1/
#790000
b11111100 !
b10111100 !
b111100 !
11
00
0/
#792500
b10111100 !
1/
#795000
b11111100 !
b1111100 !
10
0/
#797500
b11111100 !
1/
#800000
b11111110 !
b101 "
b11111010 !
b11110010 !
b11100010 !
b11000010 !
b10000010 !
b10 !
19
15
04
03
02
01
00
0/
1,
0+
0*
1-
0.
0#
#802500
b10000010 !
1/
#805000
b11000010 !
b1000010 !
10
0/
#807500
b11000010 !
1/
#810000
b11100010 !
b10100010 !
b100010 !
11
00
0/
1+
1.
1#
#812500
b10100010 !
1/
#815000
b11100010 !
b1100010 !
10
0/
#817500
b11100010 !
1/
#820000
b11110010 !
b11010010 !
b10010010 !
b10010 !
12
01
00
0/
0+
0.
0#
#822500
b10010010 !
1/
#825000
b11010010 !
b1010010 !
10
0/
#827500
b11010010 !
1/
#830000
b11110010 !
b10110010 !
b110010 !
11
00
0/
1+
1.
1#
#832500
b10110010 !
1/
#835000
b11110010 !
b1110010 !
10
0/
#837500
b11110010 !
1/
#840000
b11111010 !
b11101010 !
b11001010 !
b10001010 !
b1010 !
13
02
01
00
0/
0+
0.
0#
#842500
b10001010 !
1/
#845000
b11001010 !
b1001010 !
10
0/
#847500
b11001010 !
1/
#850000
b11101010 !
b10101010 !
b101010 !
11
00
0/
1+
1.
1#
#852500
b10101010 !
1/
#855000
b11101010 !
b1101010 !
10
0/
#857500
b11101010 !
1/
#860000
b11111010 !
b11011010 !
b10011010 !
b11010 !
12
01
00
0/
0+
0.
0#
#862500
b10011010 !
1/
#865000
b11011010 !
b1011010 !
10
0/
#867500
b11011010 !
1/
#870000
b11111010 !
b10111010 !
b111010 !
11
00
0/
1+
1.
1#
#872500
b10111010 !
1/
#875000
b11111010 !
b1111010 !
10
0/
#877500
b11111010 !
1/
#880000
b11111110 !
b11110110 !
b11100110 !
b11000110 !
b10000110 !
b110 !
14
03
02
01
00
0/
0+
0.
0#
#882500
b10000110 !
1/
#885000
b11000110 !
b1000110 !
10
0/
#887500
b11000110 !
1/
#890000
b11100110 !
b10100110 !
b100110 !
11
00
0/
1+
1.
1#
#892500
b10100110 !
1/
#895000
b11100110 !
b1100110 !
10
0/
#897500
b11100110 !
1/
#900000
b11110110 !
b11010110 !
b10010110 !
b10110 !
12
01
00
0/
0+
0.
0#
#902500
b10010110 !
1/
#905000
b11010110 !
b1010110 !
10
0/
#907500
b11010110 !
1/
#910000
b11110110 !
b10110110 !
b110110 !
11
00
0/
1+
1.
1#
#912500
b10110110 !
1/
#915000
b11110110 !
b1110110 !
10
0/
#917500
b11110110 !
1/
#920000
b11111110 !
b11101110 !
b11001110 !
b10001110 !
b1110 !
13
02
01
00
0/
0+
0.
0#
#922500
b10001110 !
1/
#925000
b11001110 !
b1001110 !
10
0/
#927500
b11001110 !
1/
#930000
b11101110 !
b10101110 !
b101110 !
11
00
0/
1+
1.
1#
#932500
b10101110 !
1/
#935000
b11101110 !
b1101110 !
10
0/
#937500
b11101110 !
1/
#940000
b11111110 !
b11011110 !
b10011110 !
b11110 !
12
01
00
0/
0+
0.
0#
#942500
b10011110 !
1/
#945000
b11011110 !
b1011110 !
10
0/
#947500
b11011110 !
1/
#950000
b11111110 !
b10111110 !
b111110 !
11
00
0/
1+
1.
1#
#952500
b10111110 !
1/
#955000
b11111110 !
b1111110 !
10
0/
#957500
b11111110 !
1/
#960000
b11111111 !
b111 "
b11111101 !
b110 "
b11111001 !
b11110001 !
b11100001 !
b11000001 !
b10000001 !
b1 !
09
18
16
05
04
03
02
01
00
0/
0,
0+
0-
0.
0#
#962500
b10000001 !
1/
#965000
b11000001 !
b1000001 !
10
0/
1*
1+
1.
1#
#967500
b11000001 !
1/
#970000
b11100001 !
b10100001 !
b100001 !
11
00
0/
0*
0+
0.
0#
#972500
b10100001 !
1/
#975000
b11100001 !
b1100001 !
10
0/
1*
1+
1.
1#
#977500
b11100001 !
1/
#980000
b11110001 !
b11010001 !
b10010001 !
b10001 !
12
01
00
0/
0*
0+
0.
0#
#982500
b10010001 !
1/
#985000
b11010001 !
b1010001 !
10
0/
1*
1+
1.
1#
#987500
b11010001 !
1/
#990000
b11110001 !
b10110001 !
b110001 !
11
00
0/
0*
0+
0.
0#
#992500
b10110001 !
1/
#995000
b11110001 !
b1110001 !
10
0/
1*
1+
1.
1#
#997500
b11110001 !
1/
