mux81f/simulation/qsim/mux81f.msim.vcd
$comment
	File created using the following command:
		vcd file mux81f.msim.vcd -direction
$end
$date
	Fri Feb 11 16:57:26 2022
$end
$version
	ModelSim Version 2020.1
$end
$timescale
	1ps
$end

$scope module mux81f_vlg_vec_tst $end
$var reg 1 ! a $end
$var reg 1 " b $end
$var reg 1 # c $end
$var reg 1 $ d $end
$var reg 1 % e $end
$var reg 1 & f $end
$var reg 1 ' g $end
$var reg 1 ( h $end
$var reg 3 ) s [2:0] $end
$var wire 1 * o $end

$scope module i1 $end
$var wire 1 + gnd $end
$var wire 1 , vcc $end
$var wire 1 - unknown $end
$var tri1 1 . devclrn $end
$var tri1 1 / devpor $end
$var tri1 1 0 devoe $end
$var wire 1 1 f~combout $end
$var wire 1 2 g~combout $end
$var wire 1 3 e~combout $end
$var wire 1 4 o~0_combout $end
$var wire 1 5 h~combout $end
$var wire 1 6 o~1_combout $end
$var wire 1 7 c~combout $end
$var wire 1 8 b~combout $end
$var wire 1 9 a~combout $end
$var wire 1 : o~2_combout $end
$var wire 1 ; d~combout $end
$var wire 1 < o~3_combout $end
$var wire 1 = o~4_combout $end
$var wire 1 > s~combout [2] $end
$var wire 1 ? s~combout [1] $end
$var wire 1 @ s~combout [0] $end
$upscope $end
$upscope $end
$enddefinitions $end
#0
$dumpvars
0!
0"
0#
0$
0%
0&
0'
0(
b0 )
0*
0+
1,
x-
1.
1/
10
01
02
03
04
05
06
07
08
09
0:
0;
0<
0=
0@
0?
0>
$end
#2500
1!
19
1:
1<
1=
1*
#5000
1"
0!
18
09
0:
0<
0=
0*
#7500
1!
19
1:
1<
1=
1*
#10000
1#
0"
0!
17
08
09
0:
0<
0=
0*
#12500
1!
19
1:
1<
1=
1*
#15000
1"
0!
18
09
0:
0<
0=
0*
#17500
1!
19
1:
1<
1=
1*
#20000
1$
0#
0"
0!
1;
07
08
09
0:
0<
0=
0*
#22500
1!
19
1:
1<
1=
1*
#25000
1"
0!
18
09
0:
0<
0=
0*
#27500
1!
19
1:
1<
1=
1*
#30000
1#
0"
0!
17
08
09
0:
0<
0=
0*
#32500
1!
19
1:
1<
1=
1*
#35000
1"
0!
18
09
0:
0<
0=
0*
#37500
1!
19
1:
1<
1=
1*
#40000
1%
0$
0#
0"
0!
13
0;
07
08
09
14
0:
16
0<
0=
0*
#42500
1!
19
1:
1<
1=
1*
#45000
1"
0!
18
09
0:
0<
0=
0*
#47500
1!
19
1:
1<
1=
1*
#50000
1#
0"
0!
17
08
09
0:
0<
0=
0*
#52500
1!
19
1:
1<
1=
1*
#55000
1"
0!
18
09
0:
0<
0=
0*
#57500
1!
19
1:
1<
1=
1*
#60000
1$
0#
0"
0!
1;
07
08
09
0:
0<
0=
0*
#62500
1!
19
1:
1<
1=
1*
#65000
1"
0!
18
09
0:
0<
0=
0*
#67500
1!
19
1:
1<
1=
1*
#70000
1#
0"
0!
17
08
09
0:
0<
0=
0*
#72500
1!
19
1:
1<
1=
1*
#75000
1"
0!
18
09
0:
0<
0=
0*
#77500
1!
19
1:
1<
1=
1*
#80000
1&
0%
0$
0#
0"
0!
11
03
0;
07
08
09
04
0:
06
0<
0=
0*
#82500
1!
19
1:
1<
1=
1*
#85000
1"
0!
18
09
0:
0<
0=
0*
#87500
1!
19
1:
1<
1=
1*
#90000
1#
0"
0!
17
08
09
0:
0<
0=
0*
#92500
1!
19
1:
1<
1=
1*
#95000
1"
0!
18
09
0:
0<
0=
0*
#97500
1!
19
1:
1<
1=
1*
#100000
1$
0#
0"
0!
1;
07
08
09
0:
0<
0=
0*
#102500
1!
19
1:
1<
1=
1*
#105000
1"
0!
18
09
0:
0<
0=
0*
#107500
1!
19
1:
1<
1=
1*
#110000
1#
0"
0!
17
08
09
0:
0<
0=
0*
#112500
1!
19
1:
1<
1=
1*
#115000
1"
0!
18
09
0:
0<
0=
0*
#117500
1!
19
1:
1<
1=
1*
#120000
1%
0$
0#
0"
0!
13
0;
07
08
09
14
0:
16
0<
0=
0*
#122500
1!
19
1:
1<
1=
1*
#125000
1"
0!
18
09
0:
0<
0=
0*
#127500
1!
19
1:
1<
1=
1*
#130000
1#
0"
0!
17
08
09
0:
0<
0=
0*
#132500
1!
19
1:
1<
1=
1*
#135000
1"
0!
18
09
0:
0<
0=
0*
#137500
1!
19
1:
1<
1=
1*
#140000
1$
0#
0"
0!
1;
07
08
09
0:
0<
0=
0*
#142500
1!
19
1:
1<
1=
1*
#145000
1"
0!
18
09
0:
0<
0=
0*
#147500
1!
19
1:
1<
1=
1*
#150000
1#
0"
0!
17
08
09
0:
0<
0=
0*
#152500
1!
19
1:
1<
1=
1*
#155000
1"
0!
18
09
0:
0<
0=
0*
#157500
1!
19
1:
1<
1=
1*
#160000
1'
b1 )
0&
0%
0$
0#
0"
0!
12
1@
01
03
0;
07
08
09
04
0:
06
0<
0=
0*
#162500
1!
19
1:
1<
#165000
1"
0!
18
09
0:
0<
#167500
1!
19
1:
1<
#170000
1#
0"
0!
17
08
09
0:
0<
#172500
1!
19
1:
1<
#175000
1"
0!
18
09
0:
0<
#177500
1!
19
1:
1<
#180000
1$
0#
0"
0!
1;
07
08
09
0:
0<
#182500
1!
19
1:
1<
#185000
1"
0!
18
09
0:
0<
#187500
1!
19
1:
1<
#190000
1#
0"
0!
17
08
09
0:
0<
#192500
1!
19
1:
1<
#195000
1"
0!
18
09
0:
0<
#197500
1!
19
1:
1<
#200000
1%
0$
0#
0"
0!
13
0;
07
08
09
14
0:
16
0<
1=
1*
#202500
1!
19
1:
1<
#205000
1"
0!
18
09
0:
0<
#207500
1!
19
1:
1<
#210000
1#
0"
0!
17
08
09
0:
0<
#212500
1!
19
1:
1<
#215000
1"
0!
18
09
0:
0<
#217500
1!
19
1:
1<
#220000
1$
0#
0"
0!
1;
07
08
09
0:
0<
#222500
1!
19
1:
1<
#225000
1"
0!
18
09
0:
0<
#227500
1!
19
1:
1<
#230000
1#
0"
0!
17
08
09
0:
0<
#232500
1!
19
1:
1<
#235000
1"
0!
18
09
0:
0<
#237500
1!
19
1:
1<
#240000
1&
0%
0$
0#
0"
0!
11
03
0;
07
08
09
04
0:
06
0<
0=
0*
#242500
1!
19
1:
1<
#245000
1"
0!
18
09
0:
0<
#247500
1!
19
1:
1<
#250000
1#
0"
0!
17
08
09
0:
0<
#252500
1!
19
1:
1<
#255000
1"
0!
18
09
0:
0<
#257500
1!
19
1:
1<
#260000
1$
0#
0"
0!
1;
07
08
09
0:
0<
#262500
1!
19
1:
1<
#265000
1"
0!
18
09
0:
0<
#267500
1!
19
1:
1<
#270000
1#
0"
0!
17
08
09
0:
0<
#272500
1!
19
1:
1<
#275000
1"
0!
18
09
0:
0<
#277500
1!
19
1:
1<
#280000
1%
0$
0#
0"
0!
13
0;
07
08
09
14
0:
16
0<
1=
1*
#282500
1!
19
1:
1<
#285000
1"
0!
18
09
0:
0<
#287500
1!
19
1:
1<
#290000
1#
0"
0!
17
08
09
0:
0<
#292500
1!
19
1:
1<
#295000
1"
0!
18
09
0:
0<
#297500
1!
19
1:
1<
#300000
1$
0#
0"
0!
1;
07
08
09
0:
0<
#302500
1!
19
1:
1<
#305000
1"
0!
18
09
0:
0<
#307500
1!
19
1:
1<
#310000
1#
0"
0!
17
08
09
0:
0<
#312500
1!
19
1:
1<
#315000
1"
0!
18
09
0:
0<
#317500
1!
19
1:
1<
#320000
1(
b11 )
0'
b10 )
0&
0%
0$
0#
0"
0!
15
0@
1?
02
01
03
0;
07
08
09
0<
0:
04
0=
06
0*
#322500
1!
19
#325000
1"
0!
18
09
#327500
1!
19
#330000
1#
0"
0!
17
08
09
1<
1=
1*
#332500
1!
19
#335000
1"
0!
18
09
#337500
1!
19
#340000
1$
0#
0"
0!
1;
07
08
09
0<
0=
0*
#342500
1!
19
#345000
1"
0!
18
09
#347500
1!
19
#350000
1#
0"
0!
17
08
09
1<
1=
1*
#352500
1!
19
#355000
1"
0!
18
09
#357500
1!
19
#360000
1%
0$
0#
0"
0!
13
0;
07
08
09
0<
0=
0*
#362500
1!
19
#365000
1"
0!
18
09
#367500
1!
19
#370000
1#
0"
0!
17
08
09
1<
1=
1*
#372500
1!
19
#375000
1"
0!
18
09
#377500
1!
19
#380000
1$
0#
0"
0!
1;
07
08
09
0<
0=
0*
#382500
1!
19
#385000
1"
0!
18
09
#387500
1!
19
#390000
1#
0"
0!
17
08
09
1<
1=
1*
#392500
1!
19
#395000
1"
0!
18
09
#397500
1!
19
#400000
1&
0%
0$
0#
0"
0!
11
03
0;
07
08
09
0<
0=
0*
#402500
1!
19
#405000
1"
0!
18
09
#407500
1!
19
#410000
1#
0"
0!
17
08
09
1<
1=
1*
#412500
1!
19
#415000
1"
0!
18
09
#417500
1!
19
#420000
1$
0#
0"
0!
1;
07
08
09
0<
0=
0*
#422500
1!
19
#425000
1"
0!
18
09
#427500
1!
19
#430000
1#
0"
0!
17
08
09
1<
1=
1*
#432500
1!
19
#435000
1"
0!
18
09
#437500
1!
19
#440000
1%
0$
0#
0"
0!
13
0;
07
08
09
0<
0=
0*
#442500
1!
19
#445000
1"
0!
18
09
#447500
1!
19
#450000
1#
0"
0!
17
08
09
1<
1=
1*
#452500
1!
19
#455000
1"
0!
18
09
#457500
1!
19
#460000
1$
0#
0"
0!
1;
07
08
09
0<
0=
0*
#462500
1!
19
#465000
1"
0!
18
09
#467500
1!
19
#470000
1#
0"
0!
17
08
09
1<
1=
1*
#472500
1!
19
#475000
1"
0!
18
09
#477500
1!
19
#480000
1'
b11 )
0&
0%
0$
0#
0"
0!
12
1@
01
03
0;
07
08
09
14
0=
0<
16
0*
1=
1*
#482500
1!
19
#485000
1"
0!
18
09
#487500
1!
19
#490000
1#
0"
0!
17
08
09
1<
#492500
1!
19
#495000
1"
0!
18
09
#497500
1!
19
#500000
1$
0#
0"
0!
1;
07
08
09
0<
#502500
1!
19
#505000
1"
0!
18
09
#507500
1!
19
#510000
1#
0"
0!
17
08
09
1<
#512500
1!
19
#515000
1"
0!
18
09
#517500
1!
19
#520000
1%
0$
0#
0"
0!
13
0;
07
08
09
0<
#522500
1!
19
#525000
1"
0!
18
09
#527500
1!
19
#530000
1#
0"
0!
17
08
09
1<
#532500
1!
19
#535000
1"
0!
18
09
#537500
1!
19
#540000
1$
0#
0"
0!
1;
07
08
09
0<
#542500
1!
19
#545000
1"
0!
18
09
#547500
1!
19
#550000
1#
0"
0!
17
08
09
1<
#552500
1!
19
#555000
1"
0!
18
09
#557500
1!
19
#560000
1&
0%
0$
0#
0"
0!
11
03
0;
07
08
09
0<
#562500
1!
19
#565000
1"
0!
18
09
#567500
1!
19
#570000
1#
0"
0!
17
08
09
1<
#572500
1!
19
#575000
1"
0!
18
09
#577500
1!
19
#580000
1$
0#
0"
0!
1;
07
08
09
0<
#582500
1!
19
#585000
1"
0!
18
09
#587500
1!
19
#590000
1#
0"
0!
17
08
09
1<
#592500
1!
19
#595000
1"
0!
18
09
#597500
1!
19
#600000
1%
0$
0#
0"
0!
13
0;
07
08
09
0<
#602500
1!
19
#605000
1"
0!
18
09
#607500
1!
19
#610000
1#
0"
0!
17
08
09
1<
#612500
1!
19
#615000
1"
0!
18
09
#617500
1!
19
#620000
1$
0#
0"
0!
1;
07
08
09
0<
#622500
1!
19
#625000
1"
0!
18
09
#627500
1!
19
#630000
1#
0"
0!
17
08
09
1<
#632500
1!
19
#635000
1"
0!
18
09
#637500
1!
19
#640000
b111 )
0(
b101 )
0'
b100 )
0&
0%
0$
0#
0"
0!
0@
0?
1>
05
02
01
03
0;
07
08
09
0<
04
06
0=
0*
#642500
1!
19
#645000
1"
0!
18
09
1:
1<
1=
1*
#647500
1!
19
#650000
1#
0"
0!
17
08
09
0:
0<
0=
0*
#652500
1!
19
#655000
1"
0!
18
09
1:
1<
1=
1*
#657500
1!
19
#660000
1$
0#
0"
0!
1;
07
08
09
0:
0<
0=
0*
#662500
1!
19
#665000
1"
0!
18
09
1:
1<
1=
1*
#667500
1!
19
#670000
1#
0"
0!
17
08
09
0:
0<
0=
0*
#672500
1!
19
#675000
1"
0!
18
09
1:
1<
1=
1*
#677500
1!
19
#680000
1%
0$
0#
0"
0!
13
0;
07
08
09
0:
0<
0=
0*
#682500
1!
19
#685000
1"
0!
18
09
1:
1<
1=
1*
#687500
1!
19
#690000
1#
0"
0!
17
08
09
0:
0<
0=
0*
#692500
1!
19
#695000
1"
0!
18
09
1:
1<
1=
1*
#697500
1!
19
#700000
1$
0#
0"
0!
1;
07
08
09
0:
0<
0=
0*
#702500
1!
19
#705000
1"
0!
18
09
1:
1<
1=
1*
#707500
1!
19
#710000
1#
0"
0!
17
08
09
0:
0<
0=
0*
#712500
1!
19
#715000
1"
0!
18
09
1:
1<
1=
1*
#717500
1!
19
#720000
1&
0%
0$
0#
0"
0!
11
03
0;
07
08
09
16
0:
0<
0=
0*
#722500
1!
19
#725000
1"
0!
18
09
1:
1<
1=
1*
#727500
1!
19
#730000
1#
0"
0!
17
08
09
0:
0<
0=
0*
#732500
1!
19
#735000
1"
0!
18
09
1:
1<
1=
1*
#737500
1!
19
#740000
1$
0#
0"
0!
1;
07
08
09
0:
0<
0=
0*
#742500
1!
19
#745000
1"
0!
18
09
1:
1<
1=
1*
#747500
1!
19
#750000
1#
0"
0!
17
08
09
0:
0<
0=
0*
#752500
1!
19
#755000
1"
0!
18
09
1:
1<
1=
1*
#757500
1!
19
#760000
1%
0$
0#
0"
0!
13
0;
07
08
09
0:
0<
0=
0*
#762500
1!
19
#765000
1"
0!
18
09
1:
1<
1=
1*
#767500
1!
19
#770000
1#
0"
0!
17
08
09
0:
0<
0=
0*
#772500
1!
19
#775000
1"
0!
18
09
1:
1<
1=
1*
#777500
1!
19
#780000
1$
0#
0"
0!
1;
07
08
09
0:
0<
0=
0*
#782500
1!
19
#785000
1"
0!
18
09
1:
1<
1=
1*
#787500
1!
19
#790000
1#
0"
0!
17
08
09
0:
0<
0=
0*
#792500
1!
19
#795000
1"
0!
18
09
1:
1<
1=
1*
#797500
1!
19
#800000
1'
b101 )
0&
0%
0$
0#
0"
0!
12
1@
01
03
0;
07
08
09
06
0:
0=
0<
0*
#802500
1!
19
#805000
1"
0!
18
09
1:
1<
#807500
1!
19
#810000
1#
0"
0!
17
08
09
0:
0<
#812500
1!
19
#815000
1"
0!
18
09
1:
1<
#817500
1!
19
#820000
1$
0#
0"
0!
1;
07
08
09
0:
0<
#822500
1!
19
#825000
1"
0!
18
09
1:
1<
#827500
1!
19
#830000
1#
0"
0!
17
08
09
0:
0<
#832500
1!
19
#835000
1"
0!
18
09
1:
1<
#837500
1!
19
#840000
1%
0$
0#
0"
0!
13
0;
07
08
09
0:
0<
#842500
1!
19
#845000
1"
0!
18
09
1:
1<
#847500
1!
19
#850000
1#
0"
0!
17
08
09
0:
0<
#852500
1!
19
#855000
1"
0!
18
09
1:
1<
#857500
1!
19
#860000
1$
0#
0"
0!
1;
07
08
09
0:
0<
#862500
1!
19
#865000
1"
0!
18
09
1:
1<
#867500
1!
19
#870000
1#
0"
0!
17
08
09
0:
0<
#872500
1!
19
#875000
1"
0!
18
09
1:
1<
#877500
1!
19
#880000
1&
0%
0$
0#
0"
0!
11
03
0;
07
08
09
16
0:
1=
0<
1*
#882500
1!
19
#885000
1"
0!
18
09
1:
1<
#887500
1!
19
#890000
1#
0"
0!
17
08
09
0:
0<
#892500
1!
19
#895000
1"
0!
18
09
1:
1<
#897500
1!
19
#900000
1$
0#
0"
0!
1;
07
08
09
0:
0<
#902500
1!
19
#905000
1"
0!
18
09
1:
1<
#907500
1!
19
#910000
1#
0"
0!
17
08
09
0:
0<
#912500
1!
19
#915000
1"
0!
18
09
1:
1<
#917500
1!
19
#920000
1%
0$
0#
0"
0!
13
0;
07
08
09
0:
0<
#922500
1!
19
#925000
1"
0!
18
09
1:
1<
#927500
1!
19
#930000
1#
0"
0!
17
08
09
0:
0<
#932500
1!
19
#935000
1"
0!
18
09
1:
1<
#937500
1!
19
#940000
1$
0#
0"
0!
1;
07
08
09
0:
0<
#942500
1!
19
#945000
1"
0!
18
09
1:
1<
#947500
1!
19
#950000
1#
0"
0!
17
08
09
0:
0<
#952500
1!
19
#955000
1"
0!
18
09
1:
1<
#957500
1!
19
#960000
1(
b111 )
0'
b110 )
0&
0%
0$
0#
0"
0!
15
0@
1?
02
01
03
0;
07
08
09
06
0<
14
0=
16
0*
#962500
1!
19
#965000
1"
0!
18
09
#967500
1!
19
#970000
1#
0"
0!
17
08
09
#972500
1!
19
#975000
1"
0!
18
09
#977500
1!
19
#980000
1$
0#
0"
0!
1;
07
08
09
1<
1=
1*
#982500
1!
19
#985000
1"
0!
18
09
#987500
1!
19
#990000
1#
0"
0!
17
08
09
#992500
1!
19
#995000
1"
0!
18
09
#997500
1!
19
