bloque_mul4b/simulation/qsim/bloque_mul4b.msim.vcd
$comment
	File created using the following command:
		vcd file bloque_mul4b.msim.vcd -direction
$end
$date
	Tue Feb 08 00:35:41 2022
$end
$version
	ModelSim Version 2020.1
$end
$timescale
	1ps
$end

$scope module bloque_mul4b_vlg_vec_tst $end
$var reg 1 ! Si $end
$var reg 3 " Sx [2:0] $end
$var reg 4 # X [3:0] $end
$var reg 1 $ Y $end
$var wire 1 % Co $end
$var wire 1 & So [3] $end
$var wire 1 ' So [2] $end
$var wire 1 ( So [1] $end
$var wire 1 ) So [0] $end

$scope module i1 $end
$var wire 1 * gnd $end
$var wire 1 + vcc $end
$var wire 1 , unknown $end
$var tri1 1 - devclrn $end
$var tri1 1 . devpor $end
$var tri1 1 / devoe $end
$var wire 1 0 Y~combout $end
$var wire 1 1 n0|n0|x0~combout $end
$var wire 1 2 n0|n0|x2~combout $end
$var wire 1 3 n1|n0|so~combout $end
$var wire 1 4 n1|n0|co~0_combout $end
$var wire 1 5 n2|n0|so~0_combout $end
$var wire 1 6 Si~combout $end
$var wire 1 7 n2|n0|co~0_combout $end
$var wire 1 8 n3|n0|so~0_combout $end
$var wire 1 9 n3|n0|co~0_combout $end
$var wire 1 : Sx~combout [2] $end
$var wire 1 ; Sx~combout [1] $end
$var wire 1 < Sx~combout [0] $end
$var wire 1 = X~combout [3] $end
$var wire 1 > X~combout [2] $end
$var wire 1 ? X~combout [1] $end
$var wire 1 @ X~combout [0] $end
$upscope $end
$upscope $end
$enddefinitions $end
#0
$dumpvars
0!
b1 "
b0 #
0$
0%
1)
0(
0'
0&
0*
1+
x,
1-
1.
1/
00
11
02
03
04
05
06
07
08
09
1<
0;
0:
0@
0?
0>
0=
$end
#25000
1$
10
#50000
b1 #
0$
1@
00
#75000
1$
10
12
01
13
0)
1(
#100000
b11 #
b10 #
0$
0@
1?
00
02
11
03
1)
0(
#125000
1$
10
13
1(
#150000
b11 #
0$
1@
00
03
0(
#175000
1$
10
13
12
01
14
03
1(
0)
15
0(
1'
#200000
b111 #
b101 #
b100 #
0$
0@
0?
1>
00
02
11
04
13
03
05
1)
1(
0(
0'
#225000
1$
10
15
1'
#250000
b101 #
0$
1@
00
05
0'
#275000
1$
10
15
12
01
13
1'
0)
1(
#300000
b111 #
b110 #
0$
0@
1?
00
02
11
05
03
1)
0'
0(
#325000
1$
10
15
13
1'
1(
#350000
b111 #
0$
1@
00
05
03
0'
0(
#375000
1$
10
15
13
12
01
14
03
1'
1(
0)
17
05
0(
18
0'
1&
#400000
b1111 #
b1011 #
b1001 #
b1000 #
0$
0@
0?
0>
1=
00
02
11
04
13
07
15
03
05
08
1)
1(
1'
0(
0'
0&
#425000
1$
10
18
1&
#450000
b1001 #
0$
1@
00
08
0&
#475000
1$
10
18
12
01
13
1&
0)
1(
#500000
b1011 #
b1010 #
0$
0@
1?
00
02
11
08
03
1)
0&
0(
#525000
1$
10
18
13
1&
1(
#550000
b1011 #
0$
1@
00
08
03
0&
0(
#575000
1$
10
18
13
12
01
14
03
1&
1(
0)
15
0(
1'
#600000
b1111 #
b1101 #
b1100 #
0$
0@
0?
1>
00
02
11
04
13
08
03
05
1)
1(
0&
0(
0'
#625000
1$
10
18
15
1&
1'
#650000
b1101 #
0$
1@
00
08
05
0&
0'
#675000
1$
10
18
15
12
01
13
1&
1'
0)
1(
#700000
b1111 #
b1110 #
0$
0@
1?
00
02
11
08
05
03
1)
0&
0'
0(
#725000
1$
10
18
15
13
1&
1'
1(
#750000
b1111 #
0$
1@
00
08
05
03
0&
0'
0(
#775000
1$
10
18
15
13
12
01
14
03
1&
1'
1(
0)
17
05
0(
19
08
0'
1%
0&
#800000
b111 #
b11 #
b1 #
b0 #
0$
0@
0?
0>
0=
00
02
11
04
13
07
15
09
18
03
05
08
1)
1(
1'
0%
1&
0(
0'
0&
#825000
1$
10
#850000
b1 #
0$
1@
00
#875000
1$
10
12
01
13
0)
1(
#900000
b11 #
b10 #
0$
0@
1?
00
02
11
03
1)
0(
#925000
1$
10
13
1(
#950000
b11 #
0$
1@
00
03
0(
#975000
1$
10
13
12
01
14
03
1(
0)
15
0(
1'
