crono9/simulation/qsim/crono9.msim.vcd
$comment
	File created using the following command:
		vcd file crono9.msim.vcd -direction
$end
$date
	Fri Mar 18 16:41:40 2022
$end
$version
	ModelSim Version 2020.1
$end
$timescale
	1ps
$end

$scope module crono9_vlg_vec_tst $end
$var reg 1 ! clk $end
$var reg 1 " ctrl $end
$var reg 1 # rst $end
$var wire 1 $ d [3] $end
$var wire 1 % d [2] $end
$var wire 1 & d [1] $end
$var wire 1 ' d [0] $end
$var wire 1 ( u [3] $end
$var wire 1 ) u [2] $end
$var wire 1 * u [1] $end
$var wire 1 + u [0] $end

$scope module i1 $end
$var wire 1 , gnd $end
$var wire 1 - vcc $end
$var wire 1 . unknown $end
$var tri1 1 / devclrn $end
$var tri1 1 0 devpor $end
$var tri1 1 1 devoe $end
$var wire 1 2 clk~combout $end
$var wire 1 3 rst~combout $end
$var wire 1 4 ctrl~combout $end
$var wire 1 5 maquina~regout $end
$var wire 1 6 u[0]~1_combout $end
$var wire 1 7 u[0]~reg0_regout $end
$var wire 1 8 u[0]~5_combout $end
$var wire 1 9 Add0~0_combout $end
$var wire 1 : u[2]~reg0_regout $end
$var wire 1 ; u[3]~reg0_regout $end
$var wire 1 < u[0]~2_combout $end
$var wire 1 = u[1]~reg0_regout $end
$var wire 1 > d[0]~3_combout $end
$var wire 1 ? d[0]~reg0_regout $end
$var wire 1 @ d[2]~reg0_regout $end
$var wire 1 A Add1~0_combout $end
$var wire 1 B d[3]~reg0_regout $end
$var wire 1 C d[0]~4_combout $end
$var wire 1 D d[0]~5_combout $end
$var wire 1 E d[1]~reg0_regout $end
$upscope $end
$upscope $end
$enddefinitions $end
#0
$dumpvars
0!
0"
0#
0'
0&
0%
0$
0+
0*
0)
0(
0,
1-
x.
1/
10
11
02
03
04
05
06
07
18
09
0:
0;
0<
0=
0>
0?
0@
0A
0B
1C
1D
0E
$end
#10000
1!
12
#20000
0!
02
#30000
1!
12
#40000
1"
0!
14
02
#50000
1!
12
15
16
#60000
0!
02
#70000
1!
12
17
05
06
1+
#80000
0"
0!
04
02
#90000
1!
12
#100000
0!
02
#110000
1!
12
#120000
0!
02
#130000
1"
1!
14
12
#140000
0!
02
#150000
0"
1!
04
12
15
16
#160000
0!
02
#170000
1!
12
1=
07
1*
0+
#180000
0!
02
#190000
1!
12
17
19
1+
#200000
0!
02
#210000
1!
12
0=
1:
07
09
0*
1)
0+
#220000
0!
02
#230000
1!
12
17
1+
#240000
1"
0!
14
02
#250000
1!
12
1=
07
05
06
1*
0+
#260000
0!
02
#270000
0"
1!
04
12
15
16
#280000
0!
02
#290000
1!
12
17
19
1+
#300000
0!
02
#310000
1!
12
0=
1;
0:
07
09
0*
1(
0)
0+
#320000
0!
02
#330000
1!
12
17
1<
1+
1>
08
#340000
0!
02
#350000
1"
1!
14
12
1?
0;
07
0<
1'
0(
0+
0>
18
#360000
0!
02
#370000
0"
1!
04
12
05
17
06
1+
#380000
0!
02
#390000
1!
12
#400000
0!
02
#410000
1!
12
#420000
0!
02
#430000
1!
12
#440000
0!
02
#450000
1!
12
#460000
0!
02
#470000
1!
12
#480000
1#
0!
13
02
0D
1>
08
16
#490000
1!
12
0?
07
0'
0+
#500000
0!
02
#510000
0#
1!
03
12
1D
0>
18
06
#520000
0!
02
#530000
1!
12
#540000
0!
02
#550000
1!
12
#560000
0!
02
#570000
1!
12
#580000
0!
02
#590000
1!
12
#600000
0!
02
#610000
1!
12
#620000
0!
02
#630000
1!
12
#640000
0!
02
#650000
1!
12
#660000
0!
02
#670000
1!
12
#680000
0!
02
#690000
1!
12
#700000
0!
02
#710000
1!
12
#720000
0!
02
#730000
1!
12
#740000
0!
02
#750000
1!
12
#760000
0!
02
#770000
1!
12
#780000
0!
02
#790000
1!
12
#800000
0!
02
#810000
1!
12
#820000
0!
02
#830000
1!
12
#840000
0!
02
#850000
1!
12
#860000
0!
02
#870000
1!
12
#880000
0!
02
#890000
1!
12
#900000
0!
02
#910000
1!
12
#920000
0!
02
#930000
1!
12
#940000
0!
02
#950000
1!
12
#960000
0!
02
#970000
1!
12
#980000
0!
02
#990000
1!
12
