crono59m/simulation/qsim/crono59m.msim.vcd
$comment
	File created using the following command:
		vcd file crono59m.msim.vcd -direction
$end
$date
	Fri Mar 18 18:13:31 2022
$end
$version
	ModelSim Version 2020.1
$end
$timescale
	1ps
$end

$scope module crono59m_vlg_vec_tst $end
$var reg 1 ! clk $end
$var reg 1 " ctrl $end
$var reg 1 # rst $end
$var wire 1 $ dm [3] $end
$var wire 1 % dm [2] $end
$var wire 1 & dm [1] $end
$var wire 1 ' dm [0] $end
$var wire 1 ( ds [3] $end
$var wire 1 ) ds [2] $end
$var wire 1 * ds [1] $end
$var wire 1 + ds [0] $end
$var wire 1 , um [3] $end
$var wire 1 - um [2] $end
$var wire 1 . um [1] $end
$var wire 1 / um [0] $end
$var wire 1 0 us [3] $end
$var wire 1 1 us [2] $end
$var wire 1 2 us [1] $end
$var wire 1 3 us [0] $end

$scope module i1 $end
$var wire 1 4 gnd $end
$var wire 1 5 vcc $end
$var wire 1 6 unknown $end
$var tri1 1 7 devclrn $end
$var tri1 1 8 devpor $end
$var tri1 1 9 devoe $end
$var wire 1 : clk~combout $end
$var wire 1 ; rst~combout $end
$var wire 1 < ctrl~combout $end
$var wire 1 = maquina~regout $end
$var wire 1 > us[0]~1_combout $end
$var wire 1 ? us[0]~reg0_regout $end
$var wire 1 @ us[1]~reg0_regout $end
$var wire 1 A Add0~0_combout $end
$var wire 1 B us[2]~reg0_regout $end
$var wire 1 C Add0~1_combout $end
$var wire 1 D us[3]~reg0_regout $end
$var wire 1 E Equal1~0_combout $end
$var wire 1 F ds[0]~1_combout $end
$var wire 1 G ds[0]~reg0_regout $end
$var wire 1 H ds[1]~reg0_regout $end
$var wire 1 I Add1~0_combout $end
$var wire 1 J ds[2]~reg0_regout $end
$var wire 1 K Add1~1_combout $end
$var wire 1 L ds[3]~reg0_regout $end
$var wire 1 M Equal0~0_combout $end
$var wire 1 N um[0]~1_combout $end
$var wire 1 O um[0]~reg0_regout $end
$var wire 1 P Add2~0_combout $end
$var wire 1 Q um[2]~reg0_regout $end
$var wire 1 R um~4_combout $end
$var wire 1 S um[3]~reg0_regout $end
$var wire 1 T Equal2~0_combout $end
$var wire 1 U um[1]~reg0_regout $end
$var wire 1 V always4~0_combout $end
$var wire 1 W always4~1_combout $end
$var wire 1 X dm[1]~reg0_regout $end
$var wire 1 Y dm~0_combout $end
$var wire 1 Z Add3~0_combout $end
$var wire 1 [ dm~3_combout $end
$var wire 1 \ dm[3]~reg0_regout $end
$var wire 1 ] Add3~1_combout $end
$var wire 1 ^ dm~4_combout $end
$var wire 1 _ always4~2_combout $end
$var wire 1 ` dm[2]~reg0_regout $end
$var wire 1 a Equal3~0_combout $end
$var wire 1 b dm~1_combout $end
$var wire 1 c dm~2_combout $end
$var wire 1 d dm[0]~reg0_regout $end
$upscope $end
$upscope $end
$enddefinitions $end
#0
$dumpvars
0!
0"
0#
1'
0&
1%
0$
0+
0*
0)
0(
1/
0.
0-
1,
03
02
01
00
04
15
x6
17
18
19
0:
0;
0<
0=
0>
0?
0@
0A
0B
0C
0D
1E
0F
0G
0H
0I
0J
0K
0L
1M
0N
0O
0P
0Q
0R
0S
0T
0U
0V
1W
0X
1Y
0Z
1[
0\
0]
0^
0_
0`
1a
0b
0c
0d
$end
#5000
1!
1:
#10000
1"
0!
1<
0:
#15000
1!
1:
1=
1>
#20000
0"
0!
0<
0:
#25000
1!
1:
1?
13
#30000
0!
0:
#35000
1!
1:
1@
0?
12
03
#40000
0!
0:
#45000
1!
1:
1?
1A
13
#50000
0!
0:
#55000
1!
1:
1B
0@
0?
0A
11
02
03
#60000
0!
0:
#65000
1!
1:
1?
13
#70000
0!
0:
#75000
1!
1:
1@
0?
12
03
#80000
0!
0:
#85000
1!
1:
1?
1C
1A
13
#90000
0!
0:
#95000
1!
1:
1D
0B
0@
0?
0C
0A
10
01
02
03
#100000
0!
0:
#105000
1!
1:
1?
0E
13
1F
#110000
0!
0:
#115000
1!
1:
1G
0D
0?
1E
1+
00
03
0F
#120000
0!
0:
#125000
1!
1:
1?
13
#130000
0!
0:
#135000
1!
1:
1@
0?
12
03
#140000
0!
0:
#145000
1!
1:
1?
1A
13
#150000
0!
0:
#155000
1!
1:
1B
0@
0?
0A
11
02
03
#160000
0!
0:
#165000
1!
1:
1?
13
#170000
0!
0:
#175000
1!
1:
1@
0?
12
03
#180000
0!
0:
#185000
1!
1:
1?
1C
1A
13
#190000
0!
0:
#195000
1!
1:
1D
0B
0@
0?
0C
0A
10
01
02
03
#200000
0!
0:
#205000
1!
1:
1?
0E
13
1F
#210000
0!
0:
#215000
1!
1:
1H
0G
0D
0?
1E
1*
0+
00
03
0F
#220000
0!
0:
#225000
1!
1:
1?
13
#230000
0!
0:
#235000
1!
1:
1@
0?
12
03
#240000
0!
0:
#245000
1!
1:
1?
1A
13
#250000
0!
0:
#255000
1!
1:
1B
0@
0?
0A
11
02
03
#260000
0!
0:
#265000
1!
1:
1?
13
#270000
0!
0:
#275000
1!
1:
1@
0?
12
03
#280000
0!
0:
#285000
1!
1:
1?
1C
1A
13
#290000
0!
0:
#295000
1!
1:
1D
0B
0@
0?
0C
0A
10
01
02
03
#300000
0!
0:
#305000
1!
1:
1?
0E
13
1F
#310000
0!
0:
#315000
1!
1:
1G
0D
0?
1I
1E
1+
00
03
0F
#320000
0!
0:
#325000
1!
1:
1?
13
#330000
0!
0:
#335000
1!
1:
1@
0?
12
03
#340000
0!
0:
#345000
1!
1:
1?
1A
13
#350000
0!
0:
#355000
1!
1:
1B
0@
0?
0A
11
02
03
#360000
0!
0:
#365000
1!
1:
1?
13
#370000
0!
0:
#375000
1!
1:
1@
0?
12
03
#380000
0!
0:
#385000
1!
1:
1?
1C
1A
13
#390000
0!
0:
#395000
1!
1:
1D
0B
0@
0?
0C
0A
10
01
02
03
#400000
0!
0:
#405000
1!
1:
1?
0E
13
1F
#410000
0!
0:
#415000
1!
1:
1J
0H
0G
0D
0?
0I
1E
1)
0*
0+
00
03
0F
#420000
0!
0:
#425000
1!
1:
1?
13
#430000
0!
0:
#435000
1!
1:
1@
0?
12
03
#440000
0!
0:
#445000
1!
1:
1?
1A
13
#450000
0!
0:
#455000
1!
1:
1B
0@
0?
0A
11
02
03
#460000
0!
0:
#465000
1!
1:
1?
13
#470000
0!
0:
#475000
1!
1:
1@
0?
12
03
#480000
0!
0:
#485000
1!
1:
1?
1C
1A
13
#490000
0!
0:
#495000
1!
1:
1D
0B
0@
0?
0C
0A
10
01
02
03
#500000
0!
0:
#505000
1!
1:
1?
0E
13
1F
#510000
0!
0:
#515000
1!
1:
1G
0D
0?
0M
1E
1+
00
03
0F
#520000
0!
0:
#525000
1!
1:
1?
13
#530000
0!
0:
#535000
1!
1:
1@
0?
12
03
#540000
0!
0:
#545000
1!
1:
1?
1A
13
#550000
0!
0:
#555000
1!
1:
1B
0@
0?
0A
11
02
03
#560000
0!
0:
#565000
1!
1:
1?
13
#570000
0!
0:
#575000
1!
1:
1@
0?
12
03
#580000
0!
0:
#585000
1!
1:
1?
1C
1A
13
#590000
0!
0:
#595000
1!
1:
1D
0B
0@
0?
0C
0A
10
01
02
03
#600000
0!
0:
#605000
1!
1:
1?
0E
13
1V
1N
1F
0Y
0W
0[
#610000
0!
0:
#615000
1!
1:
1d
1`
1S
1O
0J
0G
0D
0?
0a
1_
1W
1T
1M
1E
0)
0+
00
03
0/
0,
0%
0'
1b
0V
1R
0N
0F
0b
0_
1Y
0W
#620000
0!
0:
#625000
1!
1:
1?
13
#630000
0!
0:
#635000
1!
1:
1@
0?
12
03
#640000
0!
0:
#645000
1!
1:
1?
1A
13
#650000
0!
0:
#655000
1!
1:
1B
0@
0?
0A
11
02
03
#660000
0!
0:
#665000
1!
1:
1?
13
#670000
0!
0:
#675000
1!
1:
1@
0?
12
03
#680000
0!
0:
#685000
1!
1:
1?
1C
1A
13
#690000
0!
0:
#695000
1!
1:
1D
0B
0@
0?
0C
0A
10
01
02
03
#700000
1"
0!
1<
0:
#705000
1!
1:
1?
0=
0E
0>
13
#710000
0"
0!
0<
0:
#715000
1!
1:
#720000
0!
0:
#725000
1!
1:
#730000
0!
0:
#735000
1!
1:
#740000
1"
0!
1<
0:
#745000
1!
1:
1=
1F
1>
#750000
0"
0!
0<
0:
#755000
1!
1:
1G
0D
0?
1E
1+
00
03
0F
#760000
0!
0:
#765000
1!
1:
1?
13
#770000
0!
0:
#775000
1!
1:
1@
0?
12
03
#780000
1#
0!
1;
0:
0Y
0R
1N
1F
#785000
1!
1:
0G
0@
0=
0+
02
#790000
0#
0!
0;
0:
1Y
1R
0N
0F
0>
#795000
1!
1:
#800000
0!
0:
#805000
1!
1:
#810000
0!
0:
#815000
1!
1:
#820000
0!
0:
#825000
1!
1:
#830000
0!
0:
#835000
1!
1:
#840000
0!
0:
#845000
1!
1:
#850000
0!
0:
#855000
1!
1:
#860000
0!
0:
#865000
1!
1:
#870000
0!
0:
#875000
1!
1:
#880000
0!
0:
#885000
1!
1:
#890000
0!
0:
#895000
1!
1:
#900000
0!
0:
#905000
1!
1:
#910000
0!
0:
#915000
1!
1:
#920000
0!
0:
#925000
1!
1:
#930000
0!
0:
#935000
1!
1:
#940000
0!
0:
#945000
1!
1:
#950000
0!
0:
#955000
1!
1:
#960000
0!
0:
#965000
1!
1:
#970000
0!
0:
#975000
1!
1:
#980000
0!
0:
#985000
1!
1:
#990000
0!
0:
#995000
1!
1:
