mux81a/simulation/qsim/mux81a.msim.vcd
$comment
	File created using the following command:
		vcd file mux81a.msim.vcd -direction
$end
$date
	Sun Jan 30 22:22:51 2022
$end
$version
	ModelSim Version 2020.1
$end
$timescale
	1ps
$end

$scope module mux81a_vlg_vec_tst $end
$var reg 1 ! a $end
$var reg 1 " b $end
$var reg 1 # c $end
$var reg 1 $ d $end
$var reg 1 % e $end
$var reg 1 & f $end
$var reg 1 ' g $end
$var reg 1 ( h $end
$var reg 3 ) s [2:0] $end
$var wire 1 * o $end

$scope module i1 $end
$var wire 1 + gnd $end
$var wire 1 , vcc $end
$var wire 1 - unknown $end
$var tri1 1 . devclrn $end
$var tri1 1 / devpor $end
$var tri1 1 0 devoe $end
$var wire 1 1 f~combout $end
$var wire 1 2 g~combout $end
$var wire 1 3 e~combout $end
$var wire 1 4 x4~0_combout $end
$var wire 1 5 h~combout $end
$var wire 1 6 x4~1_combout $end
$var wire 1 7 c~combout $end
$var wire 1 8 b~combout $end
$var wire 1 9 a~combout $end
$var wire 1 : x4~2_combout $end
$var wire 1 ; d~combout $end
$var wire 1 < x4~3_combout $end
$var wire 1 = x4~4_combout $end
$var wire 1 > s~combout [2] $end
$var wire 1 ? s~combout [1] $end
$var wire 1 @ s~combout [0] $end
$upscope $end
$upscope $end
$enddefinitions $end
#0
$dumpvars
0!
0"
0#
0$
0%
0&
0'
0(
b0 )
0*
0+
1,
x-
1.
1/
10
01
02
03
04
05
06
07
08
09
0:
0;
0<
0=
0@
0?
0>
$end
#5000
1!
19
1:
1<
1=
1*
#10000
1"
0!
18
09
0:
0<
0=
0*
#15000
1#
1!
17
19
1:
1<
1=
1*
#20000
1$
0"
0!
1;
08
09
0:
0<
0=
0*
#25000
1%
1!
13
19
14
1:
16
1<
1=
1*
#30000
1&
0#
1"
0!
11
07
18
09
0:
0<
0=
0*
#35000
1'
1!
12
19
1:
1<
1=
1*
#40000
1(
0$
0"
0!
15
0;
08
09
0:
0<
0=
0*
#45000
1#
1!
17
19
1:
1<
1=
1*
#50000
0%
1"
0!
03
18
09
04
0:
06
0<
0=
0*
#55000
1!
19
1:
1<
1=
1*
#60000
0&
1$
0#
0"
0!
01
1;
07
08
09
0:
0<
0=
0*
#65000
1!
19
1:
1<
1=
1*
#70000
0'
1"
0!
02
18
09
0:
0<
0=
0*
#75000
1%
1#
1!
13
17
19
14
1:
16
1<
1=
1*
#80000
0(
0$
0"
0!
05
0;
08
09
0:
0<
0=
0*
#85000
1!
19
1:
1<
1=
1*
#90000
1&
0#
1"
0!
11
07
18
09
0:
0<
0=
0*
#95000
1!
19
1:
1<
1=
1*
#100000
b1 )
0%
1$
0"
0!
1@
03
1;
08
09
0:
06
04
0<
16
0=
0*
#105000
1'
1#
1!
12
17
19
#110000
1"
0!
18
09
1:
1<
1=
1*
#115000
1!
19
#120000
1(
0&
0$
0#
0"
0!
15
01
0;
07
08
09
06
0:
0<
0=
0*
#125000
1%
1!
13
19
#130000
1"
0!
18
09
1:
1<
1=
1*
#135000
1#
1!
17
19
#140000
0'
1$
0"
0!
02
1;
08
09
0:
0<
0=
0*
#145000
1!
19
#150000
1&
0%
0#
1"
0!
11
03
07
18
09
16
1:
1<
1=
1*
#155000
1!
19
#160000
0(
0$
0"
0!
05
0;
08
09
0:
0<
0=
0*
#165000
1#
1!
17
19
#170000
1"
0!
18
09
1:
1<
1=
1*
#175000
1'
1%
1!
12
13
19
#180000
0&
1$
0#
0"
0!
01
1;
07
08
09
06
0:
0<
0=
0*
#185000
1!
19
#190000
1"
0!
18
09
1:
1<
1=
1*
#195000
1#
1!
17
19
#200000
b11 )
b10 )
1(
0%
0$
0"
0!
0@
1?
15
03
0;
08
09
0:
14
0<
1<
16
0=
1=
0*
1*
#205000
1!
19
#210000
0'
1&
0#
1"
0!
02
11
07
18
09
04
0<
06
0=
0*
#215000
1!
19
#220000
1$
0"
0!
1;
08
09
#225000
1%
1#
1!
13
17
19
1<
1=
1*
#230000
1"
0!
18
09
#235000
1!
19
#240000
0(
0&
0$
0#
0"
0!
05
01
0;
07
08
09
0<
0=
0*
#245000
1'
1!
12
19
14
16
#250000
0%
1"
0!
03
18
09
#255000
1#
1!
17
19
1<
1=
1*
#260000
1$
0"
0!
1;
08
09
#265000
1!
19
#270000
1&
0#
1"
0!
11
07
18
09
0<
0=
0*
#275000
1%
1!
13
19
#280000
1(
0'
0$
0"
0!
15
02
0;
08
09
04
06
#285000
1#
1!
17
19
1<
1=
1*
#290000
1"
0!
18
09
#295000
1!
19
#300000
b11 )
0&
0%
1$
0#
0"
0!
1@
01
03
1;
07
08
09
1:
14
0<
1<
16
0=
1=
0*
1*
#305000
1!
19
#310000
1"
0!
18
09
#315000
1'
1#
1!
12
17
19
#320000
0(
0$
0"
0!
05
0;
08
09
06
0<
0=
0*
#325000
1%
1!
13
19
#330000
1&
0#
1"
0!
11
07
18
09
#335000
1!
19
#340000
1$
0"
0!
1;
08
09
1<
1=
1*
#345000
1#
1!
17
19
#350000
0'
0%
1"
0!
02
03
18
09
#355000
1!
19
#360000
1(
0&
0$
0#
0"
0!
15
01
0;
07
08
09
16
0<
0=
0*
#365000
1!
19
#370000
1"
0!
18
09
#375000
1%
1#
1!
13
17
19
#380000
1$
0"
0!
1;
08
09
1<
1=
1*
#385000
1'
1!
12
19
#390000
1&
0#
1"
0!
11
07
18
09
#395000
1!
19
#400000
b111 )
b101 )
b100 )
0(
0%
0$
0"
0!
0@
0?
1>
05
03
0;
08
09
0:
04
0<
06
0=
0*
#405000
1#
1!
17
19
1:
1<
#410000
1"
0!
18
09
0:
0<
#415000
1!
19
1:
1<
#420000
0'
0&
1$
0#
0"
0!
02
01
1;
07
08
09
0:
0<
#425000
1%
1!
13
19
14
1:
16
1<
1=
1*
#430000
1"
0!
18
09
0:
0<
#435000
1#
1!
17
19
1:
1<
#440000
1(
0$
0"
0!
15
0;
08
09
0:
0<
#445000
1!
19
1:
1<
#450000
1&
0%
0#
1"
0!
11
03
07
18
09
04
0:
06
0<
0=
0*
#455000
1'
1!
12
19
1:
1<
#460000
1$
0"
0!
1;
08
09
0:
0<
#465000
1#
1!
17
19
1:
1<
#470000
1"
0!
18
09
0:
0<
#475000
1%
1!
13
19
14
1:
16
1<
1=
1*
#480000
0(
0&
0$
0#
0"
0!
05
01
0;
07
08
09
0:
0<
#485000
1!
19
1:
1<
#490000
0'
1"
0!
02
18
09
0:
0<
#495000
1#
1!
17
19
1:
1<
#500000
b101 )
0%
1$
0"
0!
1@
03
1;
08
09
0:
06
04
0<
0=
0*
#505000
1!
19
#510000
1&
0#
1"
0!
11
07
18
09
16
1:
1=
1<
1*
#515000
1!
19
#520000
1(
0$
0"
0!
15
0;
08
09
0:
0<
#525000
1'
1%
1#
1!
12
13
17
19
#530000
1"
0!
18
09
1:
1<
#535000
1!
19
#540000
0&
1$
0#
0"
0!
01
1;
07
08
09
06
0:
0=
0<
0*
#545000
1!
19
#550000
0%
1"
0!
03
18
09
1:
1<
#555000
1#
1!
17
19
#560000
0(
0'
0$
0"
0!
05
02
0;
08
09
0:
0<
#565000
1!
19
#570000
1&
0#
1"
0!
11
07
18
09
16
1:
1=
1<
1*
#575000
1%
1!
13
19
#580000
1$
0"
0!
1;
08
09
0:
0<
#585000
1#
1!
17
19
#590000
1"
0!
18
09
1:
1<
#595000
1'
1!
12
19
#600000
b111 )
b110 )
1(
0&
0%
0$
0#
0"
0!
0@
1?
15
01
03
0;
07
08
09
0:
06
14
0<
0=
16
1=
0*
1*
#605000
1!
19
#610000
1"
0!
18
09
#615000
1#
1!
17
19
1<
#620000
1$
0"
0!
1;
08
09
#625000
1%
1!
13
19
#630000
0'
1&
0#
1"
0!
02
11
07
18
09
04
0<
06
0=
0*
#635000
1!
19
#640000
0(
0$
0"
0!
05
0;
08
09
#645000
1#
1!
17
19
1<
#650000
0%
1"
0!
03
18
09
#655000
1!
19
#660000
0&
1$
0#
0"
0!
01
1;
07
08
09
0<
#665000
1'
1!
12
19
14
16
1=
1*
#670000
1"
0!
18
09
#675000
1%
1#
1!
13
17
19
1<
#680000
1(
0$
0"
0!
15
0;
08
09
#685000
1!
19
#690000
1&
0#
1"
0!
11
07
18
09
0<
#695000
1!
19
#700000
b111 )
0'
0%
1$
0"
0!
1@
02
03
1;
08
09
1:
1<
#705000
1#
1!
17
19
#710000
1"
0!
18
09
#715000
1!
19
#720000
0(
0&
0$
0#
0"
0!
05
01
0;
07
08
09
06
0<
0=
0*
#725000
1%
1!
13
19
#730000
1"
0!
18
09
#735000
1'
1#
1!
12
17
19
#740000
1$
0"
0!
1;
08
09
1<
#745000
1!
19
#750000
1&
0%
0#
1"
0!
11
03
07
18
09
#755000
1!
19
#760000
1(
0$
0"
0!
15
0;
08
09
16
0<
1=
1*
#765000
1#
1!
17
19
#770000
0'
1"
0!
02
18
09
#775000
1%
1!
13
19
#780000
0&
1$
0#
0"
0!
01
1;
07
08
09
1<
#785000
1!
19
#790000
1"
0!
18
09
#795000
1#
1!
17
19
#800000
b11 )
b1 )
b0 )
0(
0%
0$
0"
0!
0@
0?
0>
05
03
0;
08
09
0:
04
0<
06
0=
0*
#805000
1'
1!
12
19
1:
1<
1=
1*
#810000
1&
0#
1"
0!
11
07
18
09
0:
0<
0=
0*
#815000
1!
19
1:
1<
1=
1*
#820000
1$
0"
0!
1;
08
09
0:
0<
0=
0*
#825000
1%
1#
1!
13
17
19
14
1:
16
1<
1=
1*
#830000
1"
0!
18
09
0:
0<
0=
0*
#835000
1!
19
1:
1<
1=
1*
#840000
1(
0'
0&
0$
0#
0"
0!
15
02
01
0;
07
08
09
0:
0<
0=
0*
#845000
1!
19
1:
1<
1=
1*
#850000
0%
1"
0!
03
18
09
04
0:
06
0<
0=
0*
#855000
1#
1!
17
19
1:
1<
1=
1*
#860000
1$
0"
0!
1;
08
09
0:
0<
0=
0*
#865000
1!
19
1:
1<
1=
1*
#870000
1&
0#
1"
0!
11
07
18
09
0:
0<
0=
0*
#875000
1'
1%
1!
12
13
19
14
1:
16
1<
1=
1*
#880000
0(
0$
0"
0!
05
0;
08
09
0:
0<
0=
0*
#885000
1#
1!
17
19
1:
1<
1=
1*
#890000
1"
0!
18
09
0:
0<
0=
0*
#895000
1!
19
1:
1<
1=
1*
#900000
b1 )
0&
0%
1$
0#
0"
0!
1@
01
03
1;
07
08
09
0:
06
04
0<
0=
0*
#905000
1!
19
#910000
0'
1"
0!
02
18
09
1:
1<
1=
1*
#915000
1#
1!
17
19
#920000
1(
0$
0"
0!
15
0;
08
09
0:
0<
0=
0*
#925000
1%
1!
13
19
#930000
1&
0#
1"
0!
11
07
18
09
16
1:
1<
1=
1*
#935000
1!
19
#940000
1$
0"
0!
1;
08
09
0:
0<
0=
0*
#945000
1'
1#
1!
12
17
19
#950000
0%
1"
0!
03
18
09
1:
1<
1=
1*
#955000
1!
19
#960000
0(
0&
0$
0#
0"
0!
05
01
0;
07
08
09
06
0:
0<
0=
0*
#965000
1!
19
#970000
1"
0!
18
09
1:
1<
1=
1*
#975000
1%
1#
1!
13
17
19
#980000
0'
1$
0"
0!
02
1;
08
09
0:
0<
0=
0*
#985000
1!
19
#990000
1&
0#
1"
0!
11
07
18
09
16
1:
1<
1=
1*
#995000
1!
19
