cont4b/simulation/qsim/cont4b.msim.vcd
$comment
	File created using the following command:
		vcd file cont4b.msim.vcd -direction
$end
$date
	Fri Feb 25 15:55:50 2022
$end
$version
	ModelSim Version 2020.1
$end
$timescale
	1ps
$end

$scope module cont4b_vlg_vec_tst $end
$var reg 1 ! clk $end
$var reg 1 " ctrl $end
$var reg 1 # rst $end
$var wire 1 $ sal [3] $end
$var wire 1 % sal [2] $end
$var wire 1 & sal [1] $end
$var wire 1 ' sal [0] $end

$scope module i1 $end
$var wire 1 ( gnd $end
$var wire 1 ) vcc $end
$var wire 1 * unknown $end
$var tri1 1 + devclrn $end
$var tri1 1 , devpor $end
$var tri1 1 - devoe $end
$var wire 1 . clk~combout $end
$var wire 1 / rst~combout $end
$var wire 1 0 sal[0]~reg0_regout $end
$var wire 1 1 ctrl~combout $end
$var wire 1 2 sal[1]~9_cout $end
$var wire 1 3 sal[1]~reg0_regout $end
$var wire 1 4 sal[1]~1 $end
$var wire 1 5 sal[2]~reg0_regout $end
$var wire 1 6 sal[2]~3 $end
$var wire 1 7 sal[3]~reg0_regout $end
$upscope $end
$upscope $end
$enddefinitions $end
#0
$dumpvars
0!
0"
1#
0'
0&
0%
0$
0(
1)
x*
1+
1,
1-
0.
1/
00
01
02
03
14
05
06
07
$end
#20000
1!
1.
#30000
0#
0/
#40000
0!
0.
#60000
1!
1.
10
12
1'
#80000
0!
0.
#100000
1!
1.
13
00
04
02
1&
0'
14
#120000
0!
0.
#140000
1!
1.
10
12
1'
04
#160000
0!
0.
#180000
1!
1.
15
03
00
16
14
02
1%
0&
0'
06
#200000
0!
0.
#220000
1!
1.
10
12
1'
#240000
0!
0.
#260000
1!
1.
13
00
04
02
1&
0'
16
14
06
#270000
1"
11
16
04
#280000
0!
0.
#300000
1!
1.
03
10
14
12
0&
1'
04
#320000
0!
0.
#340000
1!
1.
00
02
0'
14
#360000
0!
0.
#380000
1!
1.
05
13
10
06
04
12
0%
1&
1'
16
#400000
0!
0.
#420000
0"
1!
01
1.
06
00
02
0'
14
#440000
0!
0.
#460000
1!
1.
10
12
1'
04
#480000
0!
0.
#500000
1!
1.
15
03
00
16
14
02
1%
0&
0'
06
#520000
0!
0.
#540000
1!
1.
10
12
1'
#560000
0!
0.
#580000
1!
1.
13
00
04
02
1&
0'
16
14
06
#600000
0!
0.
#620000
1!
1.
10
12
1'
04
16
#640000
0!
0.
#660000
1!
1.
17
05
03
00
06
14
02
1$
0%
0&
0'
#680000
0!
0.
#700000
1!
1.
10
12
1'
#720000
0!
0.
#740000
1!
1.
13
00
04
02
1&
0'
14
#760000
0!
0.
#780000
1!
1.
10
12
1'
04
#800000
0!
0.
#820000
1!
1.
15
03
00
16
14
02
1%
0&
0'
06
#840000
0!
0.
#860000
1!
1.
10
12
1'
#880000
0!
0.
#900000
1!
1.
13
00
04
02
1&
0'
16
14
06
#920000
0!
0.
#940000
1!
1.
10
12
1'
04
16
#960000
0!
0.
#980000
1!
1.
07
05
03
00
06
14
02
0$
0%
0&
0'
