codalu/simulation/qsim/codalu.msim.vcd
$comment
	File created using the following command:
		vcd file codalu.msim.vcd -direction
$end
$date
	Fri Mar 11 17:16:43 2022
$end
$version
	ModelSim Version 2020.1
$end
$timescale
	1ps
$end

$scope module codalu_vlg_vec_tst $end
$var reg 1 ! clk $end
$var reg 1 " ctrl $end
$var reg 1 # rst $end
$var wire 1 $ sal [3] $end
$var wire 1 % sal [2] $end
$var wire 1 & sal [1] $end
$var wire 1 ' sal [0] $end

$scope module i1 $end
$var wire 1 ( gnd $end
$var wire 1 ) vcc $end
$var wire 1 * unknown $end
$var tri1 1 + devclrn $end
$var tri1 1 , devpor $end
$var tri1 1 - devoe $end
$var wire 1 . clk~combout $end
$var wire 1 / rst~combout $end
$var wire 1 0 ctrl~combout $end
$var wire 1 1 maquina.e4~regout $end
$var wire 1 2 maquina.e5~regout $end
$var wire 1 3 maquina.e6~regout $end
$var wire 1 4 maquina.e7~regout $end
$var wire 1 5 maquina.e8~regout $end
$var wire 1 6 maquina~22_combout $end
$var wire 1 7 maquina.e0~regout $end
$var wire 1 8 maquina.e1~regout $end
$var wire 1 9 maquina.e2~regout $end
$var wire 1 : maquina.e3~regout $end
$var wire 1 ; sal[0]~reg0_regout $end
$var wire 1 < sal[1]~reg0_regout $end
$var wire 1 = sal[2]~reg0_regout $end
$upscope $end
$upscope $end
$enddefinitions $end
#0
$dumpvars
0!
0"
0#
0'
0&
0%
0$
0(
1)
x*
1+
1,
1-
0.
0/
00
01
02
03
04
05
06
07
08
09
0:
0;
0<
0=
$end
#10000
1!
1.
1<
18
17
1&
#20000
0!
0.
#30000
1!
1.
0<
1;
19
08
0&
1'
#40000
0!
0.
#50000
1!
1.
1=
1:
09
1%
#60000
0!
0.
#70000
1!
1.
0;
0:
11
0'
#80000
0!
0.
#90000
1!
1.
0=
1<
1;
12
01
0%
1&
1'
#100000
0!
0.
#110000
1!
1.
0<
13
02
16
0&
#120000
0!
0.
#130000
1!
1.
14
03
#140000
0!
0.
#150000
1!
1.
1=
1<
0;
15
04
1%
1&
0'
#160000
0!
0.
#170000
1!
1.
0<
07
05
06
0&
#180000
0!
0.
#190000
1!
1.
0=
1<
18
17
0%
1&
#200000
1"
0!
10
0.
#210000
1!
1.
0<
1;
19
08
0&
1'
#220000
0!
0.
#230000
1!
1.
1=
09
11
1%
#240000
0!
0.
#250000
1!
1.
0=
1<
12
01
0%
1&
#260000
0!
0.
#270000
1!
1.
0<
13
02
16
0&
#280000
0!
0.
#290000
1!
1.
18
03
06
#300000
0!
0.
#310000
1!
1.
19
08
#320000
0!
0.
#330000
1!
1.
1=
09
11
1%
#340000
0!
0.
#350000
1!
1.
0=
1<
12
01
0%
1&
#360000
0!
0.
#370000
1!
1.
0<
13
02
16
0&
#380000
0!
0.
#390000
1!
1.
18
03
06
#400000
0"
0!
00
0.
#410000
1!
1.
19
08
#420000
0!
0.
#430000
1!
1.
1=
1:
09
1%
#440000
0!
0.
#450000
1!
1.
0;
0:
11
0'
#460000
0!
0.
#470000
1!
1.
0=
1<
1;
12
01
0%
1&
1'
#480000
0!
0.
#490000
1!
1.
0<
13
02
16
0&
#500000
0!
0.
#510000
1!
1.
14
03
#520000
0!
0.
#530000
1!
1.
1=
1<
0;
15
04
1%
1&
0'
#540000
0!
0.
#550000
1!
1.
0<
07
05
06
0&
#560000
0!
0.
#570000
1!
1.
0=
1<
18
17
0%
1&
#580000
0!
0.
#590000
1!
1.
0<
1;
19
08
0&
1'
#600000
1"
0!
10
0.
#610000
1!
1.
1=
09
11
1%
#620000
0!
0.
#630000
1!
1.
0=
1<
12
01
0%
1&
#640000
0!
0.
#650000
1!
1.
0<
13
02
16
0&
#660000
0!
0.
#670000
1!
1.
18
03
06
#680000
0!
0.
#690000
1!
1.
19
08
#700000
0!
0.
#710000
1!
1.
1=
09
11
1%
#720000
0!
0.
#730000
1!
1.
0=
1<
12
01
0%
1&
#740000
0!
0.
#750000
1!
1.
0<
13
02
16
0&
#760000
0!
0.
#770000
1!
1.
18
03
06
#780000
0!
0.
#790000
1!
1.
19
08
#800000
0"
0!
00
0.
#810000
1!
1.
1=
1:
09
1%
#820000
0!
0.
#830000
1!
1.
0;
0:
11
0'
#840000
0!
0.
#850000
1!
1.
0=
1<
1;
12
01
0%
1&
1'
#860000
0!
0.
#870000
1!
1.
0<
13
02
16
0&
#880000
0!
0.
#890000
1!
1.
14
03
#900000
0!
0.
#910000
1!
1.
1=
1<
0;
15
04
1%
1&
0'
#920000
0!
0.
#930000
1!
1.
0<
07
05
06
0&
#940000
0!
0.
#950000
1!
1.
0=
1<
18
17
0%
1&
#960000
0!
0.
#970000
1!
1.
0<
1;
19
08
0&
1'
#980000
0!
0.
#990000
1!
1.
1=
1:
09
1%
