cont99/simulation/qsim/cont99.msim.vcd
$comment
	File created using the following command:
		vcd file cont99.msim.vcd -direction
$end
$date
	Fri Mar 04 18:10:54 2022
$end
$version
	ModelSim Version 2020.1
$end
$timescale
	1ps
$end

$scope module cont99_vlg_vec_tst $end
$var reg 1 ! clk $end
$var reg 1 " ctrl $end
$var reg 1 # rst $end
$var wire 1 $ c [3] $end
$var wire 1 % c [2] $end
$var wire 1 & c [1] $end
$var wire 1 ' c [0] $end
$var wire 1 ( d [3] $end
$var wire 1 ) d [2] $end
$var wire 1 * d [1] $end
$var wire 1 + d [0] $end
$var wire 1 , u [3] $end
$var wire 1 - u [2] $end
$var wire 1 . u [1] $end
$var wire 1 / u [0] $end

$scope module i1 $end
$var wire 1 0 gnd $end
$var wire 1 1 vcc $end
$var wire 1 2 unknown $end
$var tri1 1 3 devclrn $end
$var tri1 1 4 devpor $end
$var tri1 1 5 devoe $end
$var wire 1 6 clk~combout $end
$var wire 1 7 rst~combout $end
$var wire 1 8 ctrl~combout $end
$var wire 1 9 x0|sal~3_combout $end
$var wire 1 : x0|sal~4_combout $end
$var wire 1 ; x0|sal~10_combout $end
$var wire 1 < x0|sal~11_combout $end
$var wire 1 = x0|Equal1~0_combout $end
$var wire 1 > x0|Equal0~0_combout $end
$var wire 1 ? x0|sal~15_combout $end
$var wire 1 @ clk2~regout $end
$var wire 1 A x1|sal~10_combout $end
$var wire 1 B x1|sal~11_combout $end
$var wire 1 C x1|sal~3_combout $end
$var wire 1 D x1|sal~4_combout $end
$var wire 1 E x1|sal~17_combout $end
$var wire 1 F x1|sal~18_combout $end
$var wire 1 G clk3~regout $end
$var wire 1 H x2|sal~3_combout $end
$var wire 1 I x2|sal~4_combout $end
$var wire 1 J x2|sal~10_combout $end
$var wire 1 K x2|sal~11_combout $end
$var wire 1 L x2|sal~17_combout $end
$var wire 1 M x2|sal~18_combout $end
$var wire 1 N x2|sal [3] $end
$var wire 1 O x2|sal [2] $end
$var wire 1 P x2|sal [1] $end
$var wire 1 Q x2|sal [0] $end
$var wire 1 R x1|sal [3] $end
$var wire 1 S x1|sal [2] $end
$var wire 1 T x1|sal [1] $end
$var wire 1 U x1|sal [0] $end
$var wire 1 V x0|sal [3] $end
$var wire 1 W x0|sal [2] $end
$var wire 1 X x0|sal [1] $end
$var wire 1 Y x0|sal [0] $end
$upscope $end
$upscope $end
$enddefinitions $end
#0
$dumpvars
0!
0"
0#
0'
0&
0%
0$
0+
0*
0)
0(
0/
0.
0-
0,
00
11
x2
13
14
15
06
07
08
09
0:
0;
0<
1=
0>
0?
0@
0A
0B
0C
0D
1E
1F
0G
0H
0I
0J
0K
1L
1M
0Q
0P
0O
0N
0U
0T
0S
0R
0Y
0X
0W
0V
$end
#5000
1!
16
1Y
1?
0=
1/
#10000
0!
06
#15000
1!
16
1X
0Y
1.
0/
#20000
0!
06
#25000
1!
16
1Y
0?
1:
19
1/
#30000
0!
06
#35000
1!
16
0X
1W
0Y
0.
1-
0/
#40000
0!
06
#45000
1!
16
1Y
1?
1<
1/
#50000
0!
06
#55000
1!
16
1X
0Y
0<
1.
0/
#60000
0!
06
#65000
1!
16
1Y
0?
1<
0:
09
1/
#70000
0!
06
#75000
1!
16
0X
0W
1V
0Y
1;
0.
0-
1,
0/
#80000
0!
06
#85000
1!
16
1Y
1?
1>
0;
1/
#90000
0!
06
#95000
1!
16
1@
0V
0Y
0>
1=
0<
0?
0,
0/
1U
0E
1+
#100000
0!
06
#105000
1!
16
0@
1Y
1?
0=
1/
#110000
0!
06
#115000
1!
16
1X
0Y
1.
0/
#120000
0!
06
#125000
1!
16
1Y
0?
1:
19
1/
#130000
0!
06
#135000
1!
16
0X
1W
0Y
0.
1-
0/
#140000
0!
06
#145000
1!
16
1Y
1?
1<
1/
#150000
0!
06
#155000
1!
16
1X
0Y
0<
1.
0/
#160000
0!
06
#165000
1!
16
1Y
0?
1<
0:
09
1/
#170000
0!
06
#175000
1!
16
0X
0W
1V
0Y
1;
0.
0-
1,
0/
#180000
0!
06
#185000
1!
16
1Y
1?
1>
0;
1/
#190000
0!
06
#195000
1!
16
1@
0V
0Y
0>
1=
0<
0?
0,
0/
1T
0U
0F
1*
0+
#200000
0!
06
#205000
1!
16
0@
1Y
1?
0=
1/
#210000
0!
06
#215000
1!
16
1X
0Y
1.
0/
#220000
0!
06
#225000
1!
16
1Y
0?
1:
19
1/
#230000
0!
06
#235000
1!
16
0X
1W
0Y
0.
1-
0/
#240000
0!
06
#245000
1!
16
1Y
1?
1<
1/
#250000
0!
06
#255000
1!
16
1X
0Y
0<
1.
0/
#260000
0!
06
#265000
1!
16
1Y
0?
1<
0:
09
1/
#270000
0!
06
#275000
1!
16
0X
0W
1V
0Y
1;
0.
0-
1,
0/
#280000
0!
06
#285000
1!
16
1Y
1?
1>
0;
1/
#290000
0!
06
#295000
1!
16
1@
0V
0Y
0>
1=
0<
0?
0,
0/
1U
1F
1E
1B
1A
1+
#300000
0!
06
#305000
1!
16
0@
1Y
1?
0=
1/
#310000
0!
06
#315000
1!
16
1X
0Y
1.
0/
#320000
0!
06
#325000
1!
16
1Y
0?
1:
19
1/
#330000
0!
06
#335000
1!
16
0X
1W
0Y
0.
1-
0/
#340000
0!
06
#345000
1!
16
1Y
1?
1<
1/
#350000
0!
06
#355000
1!
16
1X
0Y
0<
1.
0/
#360000
0!
06
#365000
1!
16
1Y
0?
1<
0:
09
1/
#370000
0!
06
#375000
1!
16
0X
0W
1V
0Y
1;
0.
0-
1,
0/
#380000
0!
06
#385000
1!
16
1Y
1?
1>
0;
1/
#390000
0!
06
#395000
1!
16
1@
0V
0Y
0>
1=
0<
0?
0,
0/
0T
1S
0U
0*
1)
0+
#400000
0!
06
#405000
1!
16
0@
1Y
1?
0=
1/
#410000
0!
06
#415000
1!
16
1X
0Y
1.
0/
#420000
0!
06
#425000
1!
16
1Y
0?
1:
19
1/
#430000
0!
06
#435000
1!
16
0X
1W
0Y
0.
1-
0/
#440000
0!
06
#445000
1!
16
1Y
1?
1<
1/
#450000
0!
06
#455000
1!
16
1X
0Y
0<
1.
0/
#460000
0!
06
#465000
1!
16
1Y
0?
1<
0:
09
1/
#470000
0!
06
#475000
1!
16
0X
0W
1V
0Y
1;
0.
0-
1,
0/
#480000
0!
06
#485000
1!
16
1Y
1?
1>
0;
1/
#490000
0!
06
#495000
1!
16
1@
0V
0Y
0>
1=
0<
0?
0,
0/
1U
0F
0E
1D
1+
#500000
0!
06
#505000
1!
16
0@
1Y
1?
0=
1/
#510000
0!
06
#515000
1!
16
1X
0Y
1.
0/
#520000
0!
06
#525000
1!
16
1Y
0?
1:
19
1/
#530000
0!
06
#535000
1!
16
0X
1W
0Y
0.
1-
0/
#540000
0!
06
#545000
1!
16
1Y
1?
1<
1/
#550000
0!
06
#555000
1!
16
1X
0Y
0<
1.
0/
#560000
0!
06
#565000
1!
16
1Y
0?
1<
0:
09
1/
#570000
0!
06
#575000
1!
16
0X
0W
1V
0Y
1;
0.
0-
1,
0/
#580000
0!
06
#585000
1!
16
1Y
1?
1>
0;
1/
#590000
0!
06
#595000
1!
16
1@
0V
0Y
0>
1=
0<
0?
0,
0/
1T
0U
0D
1*
0+
#600000
0!
06
#605000
1!
16
0@
1Y
1?
0=
1/
#610000
0!
06
#615000
1!
16
1X
0Y
1.
0/
#620000
0!
06
#625000
1!
16
1Y
0?
1:
19
1/
#630000
0!
06
#635000
1!
16
0X
1W
0Y
0.
1-
0/
#640000
0!
06
#645000
1!
16
1Y
1?
1<
1/
#650000
0!
06
#655000
1!
16
1X
0Y
0<
1.
0/
#660000
0!
06
#665000
1!
16
1Y
0?
1<
0:
09
1/
#670000
0!
06
#675000
1!
16
0X
0W
1V
0Y
1;
0.
0-
1,
0/
#680000
0!
06
#685000
1!
16
1Y
1?
1>
0;
1/
#690000
0!
06
#695000
1!
16
1@
0V
0Y
0>
1=
0<
0?
0,
0/
1U
1F
1E
1D
0B
0A
1+
#700000
0!
06
#705000
1!
16
0@
1Y
1?
0=
1/
#710000
0!
06
#715000
1!
16
1X
0Y
1.
0/
#720000
0!
06
#725000
1!
16
1Y
0?
1:
19
1/
#730000
0!
06
#735000
1!
16
0X
1W
0Y
0.
1-
0/
#740000
0!
06
#745000
1!
16
1Y
1?
1<
1/
#750000
0!
06
#755000
1!
16
1X
0Y
0<
1.
0/
#760000
0!
06
#765000
1!
16
1Y
0?
1<
0:
09
1/
#770000
0!
06
#775000
1!
16
0X
0W
1V
0Y
1;
0.
0-
1,
0/
#780000
0!
06
#785000
1!
16
1Y
1?
1>
0;
1/
#790000
0!
06
#795000
1!
16
1@
0V
0Y
0>
1=
0<
0?
0,
0/
0T
0S
1R
0U
1C
0*
0)
1(
0+
#800000
0!
06
#805000
1!
16
0@
1Y
1?
0=
1/
#810000
0!
06
#815000
1!
16
1X
0Y
1.
0/
#820000
0!
06
#825000
1!
16
1Y
0?
1:
19
1/
#830000
0!
06
#835000
1!
16
0X
1W
0Y
0.
1-
0/
#840000
0!
06
#845000
1!
16
1Y
1?
1<
1/
#850000
0!
06
#855000
1!
16
1X
0Y
0<
1.
0/
#860000
0!
06
#865000
1!
16
1Y
0?
1<
0:
09
1/
#870000
0!
06
#875000
1!
16
0X
0W
1V
0Y
1;
0.
0-
1,
0/
#880000
0!
06
#885000
1!
16
1Y
1?
1>
0;
1/
#890000
0!
06
#895000
1!
16
1@
0V
0Y
0>
1=
0<
0?
0,
0/
1U
0E
0C
1+
#900000
0!
06
#905000
1!
16
0@
1Y
1?
0=
1/
#910000
0!
06
#915000
1!
16
1X
0Y
1.
0/
#920000
0!
06
#925000
1!
16
1Y
0?
1:
19
1/
#930000
0!
06
#935000
1!
16
0X
1W
0Y
0.
1-
0/
#940000
0!
06
#945000
1!
16
1Y
1?
1<
1/
#950000
0!
06
#955000
1!
16
1X
0Y
0<
1.
0/
#960000
0!
06
#965000
1!
16
1Y
0?
1<
0:
09
1/
#970000
0!
06
#975000
1!
16
0X
0W
1V
0Y
1;
0.
0-
1,
0/
#980000
0!
06
#985000
1!
16
1Y
1?
1>
0;
1/
#990000
0!
06
#995000
1!
16
1@
0V
0Y
0>
1=
0<
0?
0,
0/
1G
0R
0U
0D
1E
0(
0+
1Q
0L
1'
