mul1b/simulation/qsim/mul1b.msim.vcd
$comment
	File created using the following command:
		vcd file mul1b.msim.vcd -direction
$end
$date
	Mon Feb 07 22:25:13 2022
$end
$version
	ModelSim Version 2020.1
$end
$timescale
	1ps
$end

$scope module mul1b_vlg_vec_tst $end
$var reg 1 ! ci $end
$var reg 1 " si $end
$var reg 1 # x $end
$var reg 1 $ y $end
$var wire 1 % co $end
$var wire 1 & so $end

$scope module i1 $end
$var wire 1 ' gnd $end
$var wire 1 ( vcc $end
$var wire 1 ) unknown $end
$var tri1 1 * devclrn $end
$var tri1 1 + devpor $end
$var tri1 1 , devoe $end
$var wire 1 - x~combout $end
$var wire 1 . y~combout $end
$var wire 1 / si~combout $end
$var wire 1 0 ci~combout $end
$var wire 1 1 n0|so~0_combout $end
$var wire 1 2 n0|co~0_combout $end
$upscope $end
$upscope $end
$enddefinitions $end
#0
$dumpvars
0!
0"
0#
0$
0%
0&
0'
1(
x)
1*
1+
1,
0-
0.
0/
00
01
02
$end
#5000
1!
10
11
1&
#10000
1"
0!
1/
00
#15000
1!
10
12
01
1%
0&
#20000
1#
0"
0!
1-
0/
00
02
0%
#25000
1!
10
11
1&
#30000
1"
0!
1/
00
#35000
1!
10
12
01
1%
0&
#40000
1$
0#
0"
0!
1.
0-
0/
00
02
0%
#45000
1!
10
11
1&
#50000
1"
0!
1/
00
#55000
1!
10
12
01
1%
0&
#60000
1#
0"
0!
1-
0/
00
02
11
0%
1&
#65000
1!
10
12
01
1%
0&
#70000
1"
0!
1/
00
#75000
1!
10
11
1&
#80000
0$
0#
0"
0!
0.
0-
0/
00
02
01
0%
0&
#85000
1!
10
11
1&
#90000
1"
0!
1/
00
#95000
1!
10
12
01
1%
0&
#100000
1#
0"
0!
1-
0/
00
02
0%
#105000
1!
10
11
1&
#110000
1"
0!
1/
00
#115000
1!
10
12
01
1%
0&
#120000
1$
0#
0"
0!
1.
0-
0/
00
02
0%
#125000
1!
10
11
1&
#130000
1"
0!
1/
00
#135000
1!
10
12
01
1%
0&
#140000
1#
0"
0!
1-
0/
00
02
11
0%
1&
#145000
1!
10
12
01
1%
0&
#150000
1"
0!
1/
00
#155000
1!
10
11
1&
#160000
0$
0#
0"
0!
0.
0-
0/
00
02
01
0%
0&
#165000
1!
10
11
1&
#170000
1"
0!
1/
00
#175000
1!
10
12
01
1%
0&
#180000
1#
0"
0!
1-
0/
00
02
0%
#185000
1!
10
11
1&
#190000
1"
0!
1/
00
#195000
1!
10
12
01
1%
0&
#200000
1$
0#
0"
0!
1.
0-
0/
00
02
0%
#205000
1!
10
11
1&
#210000
1"
0!
1/
00
#215000
1!
10
12
01
1%
0&
#220000
1#
0"
0!
1-
0/
00
02
11
0%
1&
#225000
1!
10
12
01
1%
0&
#230000
1"
0!
1/
00
#235000
1!
10
11
1&
#240000
0$
0#
0"
0!
0.
0-
0/
00
02
01
0%
0&
#245000
1!
10
11
1&
#250000
1"
0!
1/
00
#255000
1!
10
12
01
1%
0&
#260000
1#
0"
0!
1-
0/
00
02
0%
#265000
1!
10
11
1&
#270000
1"
0!
1/
00
#275000
1!
10
12
01
1%
0&
#280000
1$
0#
0"
0!
1.
0-
0/
00
02
0%
#285000
1!
10
11
1&
#290000
1"
0!
1/
00
#295000
1!
10
12
01
1%
0&
#300000
1#
0"
0!
1-
0/
00
02
11
0%
1&
#305000
1!
10
12
01
1%
0&
#310000
1"
0!
1/
00
#315000
1!
10
11
1&
#320000
0$
0#
0"
0!
0.
0-
0/
00
02
01
0%
0&
#325000
1!
10
11
1&
#330000
1"
0!
1/
00
#335000
1!
10
12
01
1%
0&
#340000
1#
0"
0!
1-
0/
00
02
0%
#345000
1!
10
11
1&
#350000
1"
0!
1/
00
#355000
1!
10
12
01
1%
0&
#360000
1$
0#
0"
0!
1.
0-
0/
00
02
0%
#365000
1!
10
11
1&
#370000
1"
0!
1/
00
#375000
1!
10
12
01
1%
0&
#380000
1#
0"
0!
1-
0/
00
02
11
0%
1&
#385000
1!
10
12
01
1%
0&
#390000
1"
0!
1/
00
#395000
1!
10
11
1&
#400000
0$
0#
0"
0!
0.
0-
0/
00
02
01
0%
0&
#405000
1!
10
11
1&
#410000
1"
0!
1/
00
#415000
1!
10
12
01
1%
0&
#420000
1#
0"
0!
1-
0/
00
02
0%
#425000
1!
10
11
1&
#430000
1"
0!
1/
00
#435000
1!
10
12
01
1%
0&
#440000
1$
0#
0"
0!
1.
0-
0/
00
02
0%
#445000
1!
10
11
1&
#450000
1"
0!
1/
00
#455000
1!
10
12
01
1%
0&
#460000
1#
0"
0!
1-
0/
00
02
11
0%
1&
#465000
1!
10
12
01
1%
0&
#470000
1"
0!
1/
00
#475000
1!
10
11
1&
#480000
0$
0#
0"
0!
0.
0-
0/
00
02
01
0%
0&
#485000
1!
10
11
1&
#490000
1"
0!
1/
00
#495000
1!
10
12
01
1%
0&
#500000
1#
0"
0!
1-
0/
00
02
0%
#505000
1!
10
11
1&
#510000
1"
0!
1/
00
#515000
1!
10
12
01
1%
0&
#520000
1$
0#
0"
0!
1.
0-
0/
00
02
0%
#525000
1!
10
11
1&
#530000
1"
0!
1/
00
#535000
1!
10
12
01
1%
0&
#540000
1#
0"
0!
1-
0/
00
02
11
0%
1&
#545000
1!
10
12
01
1%
0&
#550000
1"
0!
1/
00
#555000
1!
10
11
1&
#560000
0$
0#
0"
0!
0.
0-
0/
00
02
01
0%
0&
#565000
1!
10
11
1&
#570000
1"
0!
1/
00
#575000
1!
10
12
01
1%
0&
#580000
1#
0"
0!
1-
0/
00
02
0%
#585000
1!
10
11
1&
#590000
1"
0!
1/
00
#595000
1!
10
12
01
1%
0&
#600000
1$
0#
0"
0!
1.
0-
0/
00
02
0%
#605000
1!
10
11
1&
#610000
1"
0!
1/
00
#615000
1!
10
12
01
1%
0&
#620000
1#
0"
0!
1-
0/
00
02
11
0%
1&
#625000
1!
10
12
01
1%
0&
#630000
1"
0!
1/
00
#635000
1!
10
11
1&
#640000
0$
0#
0"
0!
0.
0-
0/
00
02
01
0%
0&
#645000
1!
10
11
1&
#650000
1"
0!
1/
00
#655000
1!
10
12
01
1%
0&
#660000
1#
0"
0!
1-
0/
00
02
0%
#665000
1!
10
11
1&
#670000
1"
0!
1/
00
#675000
1!
10
12
01
1%
0&
#680000
1$
0#
0"
0!
1.
0-
0/
00
02
0%
#685000
1!
10
11
1&
#690000
1"
0!
1/
00
#695000
1!
10
12
01
1%
0&
#700000
1#
0"
0!
1-
0/
00
02
11
0%
1&
#705000
1!
10
12
01
1%
0&
#710000
1"
0!
1/
00
#715000
1!
10
11
1&
#720000
0$
0#
0"
0!
0.
0-
0/
00
02
01
0%
0&
#725000
1!
10
11
1&
#730000
1"
0!
1/
00
#735000
1!
10
12
01
1%
0&
#740000
1#
0"
0!
1-
0/
00
02
0%
#745000
1!
10
11
1&
#750000
1"
0!
1/
00
#755000
1!
10
12
01
1%
0&
#760000
1$
0#
0"
0!
1.
0-
0/
00
02
0%
#765000
1!
10
11
1&
#770000
1"
0!
1/
00
#775000
1!
10
12
01
1%
0&
#780000
1#
0"
0!
1-
0/
00
02
11
0%
1&
#785000
1!
10
12
01
1%
0&
#790000
1"
0!
1/
00
#795000
1!
10
11
1&
#800000
0$
0#
0"
0!
0.
0-
0/
00
02
01
0%
0&
#805000
1!
10
11
1&
#810000
1"
0!
1/
00
#815000
1!
10
12
01
1%
0&
#820000
1#
0"
0!
1-
0/
00
02
0%
#825000
1!
10
11
1&
#830000
1"
0!
1/
00
#835000
1!
10
12
01
1%
0&
#840000
1$
0#
0"
0!
1.
0-
0/
00
02
0%
#845000
1!
10
11
1&
#850000
1"
0!
1/
00
#855000
1!
10
12
01
1%
0&
#860000
1#
0"
0!
1-
0/
00
02
11
0%
1&
#865000
1!
10
12
01
1%
0&
#870000
1"
0!
1/
00
#875000
1!
10
11
1&
#880000
0$
0#
0"
0!
0.
0-
0/
00
02
01
0%
0&
#885000
1!
10
11
1&
#890000
1"
0!
1/
00
#895000
1!
10
12
01
1%
0&
#900000
1#
0"
0!
1-
0/
00
02
0%
#905000
1!
10
11
1&
#910000
1"
0!
1/
00
#915000
1!
10
12
01
1%
0&
#920000
1$
0#
0"
0!
1.
0-
0/
00
02
0%
#925000
1!
10
11
1&
#930000
1"
0!
1/
00
#935000
1!
10
12
01
1%
0&
#940000
1#
0"
0!
1-
0/
00
02
11
0%
1&
#945000
1!
10
12
01
1%
0&
#950000
1"
0!
1/
00
#955000
1!
10
11
1&
#960000
0$
0#
0"
0!
0.
0-
0/
00
02
01
0%
0&
#965000
1!
10
11
1&
#970000
1"
0!
1/
00
#975000
1!
10
12
01
1%
0&
#980000
1#
0"
0!
1-
0/
00
02
0%
#985000
1!
10
11
1&
#990000
1"
0!
1/
00
#995000
1!
10
12
01
1%
0&
