reloj3/simulation/qsim/reloj3.msim.vcd
$comment
	File created using the following command:
		vcd file reloj3.msim.vcd -direction
$end
$date
	Fri Mar 18 17:39:25 2022
$end
$version
	ModelSim Version 2020.1
$end
$timescale
	1ps
$end

$scope module reloj3_vlg_vec_tst $end
$var reg 1 ! btn1 $end
$var reg 1 " btn2 $end
$var reg 1 # clk $end
$var reg 1 $ rst $end
$var wire 1 % dec [3] $end
$var wire 1 & dec [2] $end
$var wire 1 ' dec [1] $end
$var wire 1 ( dec [0] $end
$var wire 1 ) uni [3] $end
$var wire 1 * uni [2] $end
$var wire 1 + uni [1] $end
$var wire 1 , uni [0] $end

$scope module i1 $end
$var wire 1 - gnd $end
$var wire 1 . vcc $end
$var wire 1 / unknown $end
$var tri1 1 0 devclrn $end
$var tri1 1 1 devpor $end
$var tri1 1 2 devoe $end
$var wire 1 3 clk~combout $end
$var wire 1 4 rst~combout $end
$var wire 1 5 btn2~combout $end
$var wire 1 6 x1|maquina~regout $end
$var wire 1 7 x1|u[0]~1_combout $end
$var wire 1 8 x0|segundos[0]~3 $end
$var wire 1 9 x0|segundos[1]~5 $end
$var wire 1 : x0|segundos[2]~1 $end
$var wire 1 ; x0|segundos[3]~7 $end
$var wire 1 < x0|segundos[4]~9 $end
$var wire 1 = x0|always0~2_combout $end
$var wire 1 > x0|Equal1~0_combout $end
$var wire 1 ? x0|Equal1~1_combout $end
$var wire 1 @ x0|Add1~0_combout $end
$var wire 1 A x0|Add1~1_combout $end
$var wire 1 B x0|Equal0~0_combout $end
$var wire 1 C x0|always1~0_combout $end
$var wire 1 D btn1~combout $end
$var wire 1 E maquina~regout $end
$var wire 1 F uni~0_combout $end
$var wire 1 G x1|Add0~0_combout $end
$var wire 1 H x1|Add0~1_combout $end
$var wire 1 I x1|u[0]~2_combout $end
$var wire 1 J uni~1_combout $end
$var wire 1 K uni~2_combout $end
$var wire 1 L uni~3_combout $end
$var wire 1 M x1|d[0]~3_combout $end
$var wire 1 N x0|always2~1_combout $end
$var wire 1 O x0|always2~2_combout $end
$var wire 1 P x0|Add2~0_combout $end
$var wire 1 Q x0|Add2~1_combout $end
$var wire 1 R x0|Equal2~0_combout $end
$var wire 1 S x0|always2~0_combout $end
$var wire 1 T dec~0_combout $end
$var wire 1 U x1|Add1~0_combout $end
$var wire 1 V x1|d[0]~4_combout $end
$var wire 1 W x1|d[0]~5_combout $end
$var wire 1 X dec~1_combout $end
$var wire 1 Y dec~2_combout $end
$var wire 1 Z dec~3_combout $end
$var wire 1 [ x1|u [3] $end
$var wire 1 \ x1|u [2] $end
$var wire 1 ] x1|u [1] $end
$var wire 1 ^ x1|u [0] $end
$var wire 1 _ x0|mu [3] $end
$var wire 1 ` x0|mu [2] $end
$var wire 1 a x0|mu [1] $end
$var wire 1 b x0|mu [0] $end
$var wire 1 c x1|d [3] $end
$var wire 1 d x1|d [2] $end
$var wire 1 e x1|d [1] $end
$var wire 1 f x1|d [0] $end
$var wire 1 g x0|md [3] $end
$var wire 1 h x0|md [2] $end
$var wire 1 i x0|md [1] $end
$var wire 1 j x0|md [0] $end
$var wire 1 k x0|segundos [5] $end
$var wire 1 l x0|segundos [4] $end
$var wire 1 m x0|segundos [3] $end
$var wire 1 n x0|segundos [2] $end
$var wire 1 o x0|segundos [1] $end
$var wire 1 p x0|segundos [0] $end
$upscope $end
$upscope $end
$enddefinitions $end
#0
$dumpvars
0!
0"
0#
0$
0(
0'
0&
0%
0,
0+
0*
0)
0-
1.
x/
10
11
12
03
04
05
06
07
08
19
0:
1;
0<
0=
1>
1?
0@
0A
0B
0C
0D
0E
0F
0G
0H
0I
0J
0K
0L
0M
1N
1O
0P
0Q
0R
0S
0T
0U
1V
1W
0X
0Y
0Z
0^
0]
0\
0[
0b
0a
0`
0_
0f
0e
0d
0c
0j
0i
0h
0g
0p
0o
0n
0m
0l
0k
$end
#10000
1#
13
1p
18
#20000
0#
03
#30000
1#
13
1o
0p
09
08
19
#40000
0#
03
#50000
1#
13
1p
18
09
#60000
0#
03
#70000
1#
13
1n
0o
0p
1:
19
08
0:
#80000
1!
0#
1D
03
#90000
1#
13
1E
1p
18
#100000
0!
0#
0D
03
#110000
1#
13
1o
0p
09
08
1:
19
0:
#120000
0#
03
#130000
1#
13
1p
18
09
1:
#140000
0#
03
#150000
1#
13
1m
0n
0o
0p
0;
0:
19
08
1;
#160000
0#
03
#170000
1#
13
1p
18
#180000
0#
03
#190000
1#
13
1o
0p
09
08
19
#200000
1"
0#
15
03
#210000
1#
13
1p
16
0>
18
17
09
#220000
0"
0#
05
03
#230000
1#
13
1n
0o
0p
1^
1>
1:
19
08
1F
0;
0:
1,
1;
#240000
0#
03
#250000
1#
13
1]
1p
0^
1J
18
0F
1+
0,
#260000
0#
03
#270000
1#
13
1o
0p
1^
09
08
1G
1F
1:
19
1,
0;
0:
1;
#280000
0#
03
#290000
1#
13
0]
1\
1p
0^
0J
0G
1K
18
0F
09
0+
1*
0,
1:
0;
#300000
0#
03
#310000
1#
13
1l
0m
0n
0o
0p
1^
1<
1;
0:
19
08
1F
0<
1,
#320000
0#
03
#330000
1#
13
1]
1p
0^
1J
18
0F
1+
0,
#340000
0#
03
#350000
1#
13
1o
0p
1^
09
08
1H
1G
1F
19
1,
#360000
0#
03
#370000
1#
13
0]
1[
0\
1p
0^
0J
0H
0G
1L
0K
18
0F
09
0+
1)
0*
0,
#380000
0#
03
#390000
1#
13
1n
0o
0p
1^
1:
19
08
1I
1F
0:
1M
1,
#400000
0#
03
#410000
1#
13
1f
0[
1p
0^
1T
0L
0I
18
0F
0M
1(
0)
0,
#420000
0#
03
#430000
1#
13
1o
0p
1^
09
08
1F
1:
19
1,
0:
#440000
0#
03
#450000
1#
13
1]
1p
0^
1J
18
0F
09
1+
0,
1:
#460000
1!
0#
1D
03
#470000
1#
13
0E
1m
0n
0o
0p
1^
0T
0J
0;
0:
19
08
1G
1<
1;
0(
0+
0<
#480000
0!
0#
0D
03
#490000
1#
13
0]
1\
1p
0^
0G
18
#500000
0#
03
#510000
1#
13
1o
0p
1^
09
08
19
#520000
0#
03
#530000
1#
13
1]
1p
0^
0>
18
09
#540000
0#
03
#550000
1#
13
1n
0o
0p
1^
1>
1:
19
08
1H
1G
0;
0:
1<
1;
0<
#560000
0#
03
#570000
1#
13
0]
1[
0\
1p
0^
0H
0G
18
#580000
0#
03
#590000
1#
13
1o
0p
1^
09
08
1I
1:
19
1M
0;
0:
1<
1;
0<
#600000
0#
03
#610000
1#
13
1e
0f
0[
1p
0^
0I
18
0M
09
1:
0;
1<
#620000
0#
03
#630000
1#
13
1k
0l
0m
0n
0o
0p
1^
0<
1;
0:
19
08
#640000
0#
03
#650000
1#
13
1]
1p
0^
18
#660000
0#
03
#670000
1#
13
1o
0p
1^
09
08
1G
19
#680000
0#
03
#690000
1#
13
0]
1\
1p
0^
0G
18
09
#700000
0#
03
#710000
1#
13
1n
0o
0p
1^
1:
19
08
0:
#720000
0#
03
#730000
1#
13
1]
1p
0^
18
#740000
0#
03
#750000
1#
13
1o
0p
1^
09
08
1H
1G
1:
19
0:
#760000
0#
03
#770000
1#
13
0]
1[
0\
1p
0^
0H
0G
18
09
1:
#780000
0#
03
#790000
1#
13
1m
0n
0o
0p
1^
0;
0:
19
08
1I
1;
1M
#800000
0#
03
#810000
1#
13
1f
0[
1p
0^
1U
0I
18
0M
#820000
0#
03
#830000
1#
13
1o
0p
1^
09
08
19
#840000
0#
03
#850000
1#
13
1]
1p
0^
0>
18
09
#860000
0#
03
#870000
1#
13
1n
0o
0p
1^
1>
1:
19
08
1G
0;
0:
1;
#880000
0#
03
#890000
1#
13
0]
1\
1p
0^
0G
18
#900000
0#
03
#910000
1#
13
1o
0p
1^
09
08
1:
19
0;
0:
1;
#920000
0#
03
#930000
1#
13
1]
1p
0^
18
09
1:
0;
#940000
0#
03
#950000
1#
13
1l
0m
0n
0o
0p
1^
1<
1;
0:
19
08
1H
1G
0<
#960000
0#
03
#970000
1#
13
0]
1[
0\
1p
0^
0H
0G
18
#980000
0#
03
#990000
1#
13
1o
0p
1^
09
08
1I
19
1M
#1000000
0#
03
#1010000
1#
13
0e
1d
0f
0[
1p
0^
0V
0U
0I
18
0M
09
#1020000
1"
0#
15
03
#1030000
1#
13
1n
0o
0p
1^
06
1:
19
08
07
0:
#1040000
0"
0#
05
03
#1050000
1#
13
1p
18
#1060000
0#
03
#1070000
1#
13
1o
0p
09
08
1:
19
0:
#1080000
0#
03
#1090000
1#
13
1p
18
09
1:
#1100000
0#
03
#1110000
1#
13
1m
0n
0o
0p
0;
0:
19
08
1<
1;
0<
#1120000
0#
03
#1130000
1#
13
1p
18
#1140000
0#
03
#1150000
1#
13
1o
0p
09
08
19
#1160000
0#
03
#1170000
1#
13
1p
0>
18
0?
1=
09
#1180000
0#
03
#1190000
1#
13
1b
0k
0l
0m
0o
0p
1F
1?
0=
1>
19
08
1,
#1200000
0#
03
#1210000
1#
13
1p
18
#1220000
0#
03
#1230000
1#
13
1o
0p
09
08
19
#1240000
0#
03
#1250000
1#
13
1p
18
09
#1260000
1"
0#
15
03
#1270000
1#
13
1n
0o
0p
16
1:
19
08
17
0:
#1280000
0"
0#
05
03
#1290000
1#
13
1]
1p
0^
18
#1300000
0#
03
#1310000
1#
13
1o
0p
1^
09
08
1G
1:
19
0:
#1320000
0#
03
#1330000
1#
13
0]
1\
1p
0^
0G
18
09
1:
#1340000
0#
03
#1350000
1#
13
1m
0n
0o
0p
1^
0;
0:
19
08
1;
#1360000
0#
03
#1370000
1#
13
1]
1p
0^
18
#1380000
0#
03
#1390000
1#
13
1o
0p
1^
09
08
1H
1G
19
#1400000
0#
03
#1410000
1#
13
0]
1[
0\
1p
0^
0H
0G
0>
18
09
#1420000
0#
03
#1430000
1#
13
1n
0o
0p
1^
1>
1:
19
08
1I
0;
0:
1M
1;
#1440000
1!
0#
1D
03
#1450000
1#
13
1f
0[
1E
1p
0^
0W
1T
0I
1Y
0F
18
0M
1(
1&
0,
#1460000
0!
0#
0D
03
#1470000
1#
13
1o
0p
1^
09
08
1F
1:
19
1,
0;
0:
1;
#1480000
0#
03
#1490000
1#
13
1]
1p
0^
1J
18
0F
09
1+
0,
1:
0;
#1500000
0#
03
#1510000
1#
13
1l
0m
0n
0o
0p
1^
1<
1;
0:
19
08
1G
1F
0<
1,
#1520000
0#
03
#1530000
1#
13
0]
1\
1p
0^
0J
0G
1K
18
0F
0+
1*
0,
#1540000
0#
03
#1550000
1#
13
1o
0p
1^
09
08
1F
19
1,
#1560000
0#
03
#1570000
1#
13
1]
1p
0^
1J
18
0F
09
1+
0,
#1580000
0#
03
#1590000
1#
13
1n
0o
0p
1^
1:
19
08
1H
1G
1F
0:
1,
#1600000
0#
03
#1610000
1#
13
0]
1[
0\
1p
0^
0J
0H
0G
1L
0K
18
0F
0+
1)
0*
0,
#1620000
0#
03
#1630000
1#
13
1o
0p
1^
09
08
1I
1F
1:
19
1M
1,
0:
#1640000
0#
03
#1650000
1#
13
0d
0f
0[
1p
0^
0Y
1V
1W
0T
0L
0I
18
0F
0M
09
0&
0(
0)
0,
1:
#1660000
0#
03
#1670000
1#
13
1m
0n
0o
0p
1^
0;
0:
19
08
1F
1<
1;
1,
0<
#1680000
0#
03
#1690000
1#
13
1]
1p
0^
1J
18
0F
1+
0,
#1700000
0#
03
#1710000
1#
13
1o
0p
1^
09
08
1G
1F
19
1,
#1720000
0#
03
#1730000
1#
13
0]
1\
1p
0^
0J
0G
1K
0>
18
0F
09
0+
1*
0,
#1740000
0#
03
#1750000
1#
13
1n
0o
0p
1^
1>
1:
19
08
1F
0;
0:
1,
1<
1;
0<
#1760000
0#
03
#1770000
1#
13
1]
1p
0^
1J
18
0F
1+
0,
#1780000
0#
03
#1790000
1#
13
1o
0p
1^
09
08
1H
1G
1F
1:
19
1,
0;
0:
1<
1;
0<
#1800000
0#
03
#1810000
1#
13
0]
1[
0\
1p
0^
0J
0H
0G
1L
0K
18
0F
09
0+
1)
0*
0,
1:
0;
1<
#1820000
0#
03
#1830000
1#
13
1k
0l
0m
0n
0o
0p
1^
0<
1;
0:
19
08
1I
1F
1M
1,
#1840000
0#
03
#1850000
1#
13
1f
0[
1p
0^
1T
0L
0I
18
0F
0M
1(
0)
0,
#1860000
0#
03
#1870000
1#
13
1o
0p
1^
09
08
1F
19
1,
#1880000
0#
03
#1890000
1#
13
1]
1p
0^
1J
18
0F
09
1+
0,
#1900000
0#
03
#1910000
1#
13
1n
0o
0p
1^
1:
19
08
1G
1F
0:
1,
#1920000
0#
03
#1930000
1#
13
0]
1\
1p
0^
0J
0G
1K
18
0F
0+
1*
0,
#1940000
0#
03
#1950000
1#
13
1o
0p
1^
09
08
1F
1:
19
1,
0:
#1960000
0#
03
#1970000
1#
13
1]
1p
0^
1J
18
0F
09
1+
0,
1:
#1980000
0#
03
#1990000
1#
13
1m
0n
0o
0p
1^
0;
0:
19
08
1H
1G
1F
1;
1,
#2000000
0#
03
#2010000
1#
13
0]
1[
0\
1p
0^
0J
0H
0G
1L
0K
18
0F
0+
1)
0*
0,
#2020000
0#
03
#2030000
1#
13
1o
0p
1^
09
08
1I
1F
19
1M
1,
#2040000
0#
03
#2050000
1#
13
1e
0f
0[
1p
0^
1X
0T
0L
0I
0>
18
0F
0M
09
1'
0(
0)
0,
#2060000
0#
03
#2070000
1#
13
1n
0o
0p
1^
1>
1:
19
08
1F
0;
0:
1,
1;
#2080000
0#
03
#2090000
1#
13
1]
1p
0^
1J
18
0F
1+
0,
#2100000
0#
03
#2110000
1#
13
1o
0p
1^
09
08
1G
1F
1:
19
1,
0;
0:
1;
#2120000
0#
03
#2130000
1#
13
0]
1\
1p
0^
0J
0G
1K
18
0F
09
0+
1*
0,
1:
0;
#2140000
0#
03
#2150000
1#
13
1l
0m
0n
0o
0p
1^
1<
1;
0:
19
08
1F
0<
1,
#2160000
0#
03
#2170000
1#
13
1]
1p
0^
1J
18
0F
1+
0,
#2180000
0#
03
#2190000
1#
13
1o
0p
1^
09
08
1H
1G
1F
19
1,
#2200000
0#
03
#2210000
1#
13
0]
1[
0\
1p
0^
0J
0H
0G
1L
0K
18
0F
09
0+
1)
0*
0,
#2220000
0#
03
#2230000
1#
13
1n
0o
0p
1^
1:
19
08
1I
1F
0:
1M
1,
#2240000
0#
03
#2250000
1#
13
1f
0[
1p
0^
1U
1T
0L
0I
18
0F
0M
1(
0)
0,
#2260000
0#
03
#2270000
1#
13
1o
0p
1^
09
08
1F
1:
19
1,
0:
#2280000
0#
03
#2290000
1#
13
1]
1p
0^
1J
18
0F
09
1+
0,
1:
#2300000
0#
03
#2310000
1#
13
1m
0n
0o
0p
1^
0;
0:
19
08
1G
1F
1<
1;
1,
0<
#2320000
0#
03
#2330000
1#
13
0]
1\
1p
0^
0J
0G
1K
18
0F
0+
1*
0,
#2340000
0#
03
#2350000
1#
13
1o
0p
1^
09
08
1F
19
1,
#2360000
0#
03
#2370000
1#
13
1]
1p
0^
1J
0>
18
0F
0?
1=
09
1+
0,
#2380000
0#
03
#2390000
1#
13
0b
1a
0k
0l
0m
0o
0p
1^
1F
1?
0=
1>
19
08
1H
1G
1,
#2400000
0#
03
#2410000
1#
13
0]
1[
0\
1p
0^
0J
0H
0G
1L
0K
18
0F
0+
1)
0*
0,
#2420000
0#
03
#2430000
1#
13
1o
0p
1^
09
08
1I
1F
19
1M
1,
#2440000
0#
03
#2450000
1#
13
0e
1d
0f
0[
1p
0^
0X
0V
0U
1Y
0T
0L
0I
18
0F
0M
09
0'
1&
0(
0)
0,
#2460000
0#
03
#2470000
1#
13
1n
0o
0p
1^
1:
19
08
1F
0:
1,
#2480000
0#
03
#2490000
1#
13
1]
1p
0^
1J
18
0F
1+
0,
#2500000
0#
03
#2510000
1#
13
1o
0p
1^
09
08
1G
1F
1:
19
1,
0:
#2520000
0#
03
#2530000
1#
13
0]
1\
1p
0^
0J
0G
1K
18
0F
09
0+
1*
0,
1:
#2540000
0#
03
#2550000
1#
13
1m
0n
0o
0p
1^
0;
0:
19
08
1F
1;
1,
#2560000
0#
03
#2570000
1#
13
1]
1p
0^
1J
18
0F
1+
0,
#2580000
0#
03
#2590000
1#
13
1o
0p
1^
09
08
1H
1G
1F
19
1,
#2600000
0#
03
#2610000
1#
13
0]
1[
0\
1p
0^
0J
0H
0G
1L
0K
0>
18
0F
09
0+
1)
0*
0,
#2620000
0#
03
#2630000
1#
13
1n
0o
0p
1^
1>
1:
19
08
1I
1F
0;
0:
1M
1,
1;
#2640000
0#
03
#2650000
1#
13
1f
0[
1p
0^
0W
1T
0L
0I
18
0F
0M
1(
0)
0,
#2660000
0#
03
#2670000
1#
13
1o
0p
1^
09
08
1F
1:
19
1,
0;
0:
1;
#2680000
0#
03
#2690000
1#
13
1]
1p
0^
1J
18
0F
09
1+
0,
1:
0;
#2700000
0#
03
#2710000
1#
13
1l
0m
0n
0o
0p
1^
1<
1;
0:
19
08
1G
1F
0<
1,
#2720000
0#
03
#2730000
1#
13
0]
1\
1p
0^
0J
0G
1K
18
0F
0+
1*
0,
#2740000
0#
03
#2750000
1#
13
1o
0p
1^
09
08
1F
19
1,
#2760000
0#
03
#2770000
1#
13
1]
1p
0^
1J
18
0F
09
1+
0,
#2780000
0#
03
#2790000
1#
13
1n
0o
0p
1^
1:
19
08
1H
1G
1F
0:
1,
#2800000
0#
03
#2810000
1#
13
0]
1[
0\
1p
0^
0J
0H
0G
1L
0K
18
0F
0+
1)
0*
0,
#2820000
0#
03
#2830000
1#
13
1o
0p
1^
09
08
1I
1F
1:
19
1M
1,
0:
#2840000
0#
03
#2850000
1#
13
0d
0f
0[
1p
0^
0Y
1V
1W
0T
0L
0I
18
0F
0M
09
0&
0(
0)
0,
1:
#2860000
0#
03
#2870000
1#
13
1m
0n
0o
0p
1^
0;
0:
19
08
1F
1<
1;
1,
0<
#2880000
0#
03
#2890000
1#
13
1]
1p
0^
1J
18
0F
1+
0,
#2900000
0#
03
#2910000
1#
13
1o
0p
1^
09
08
1G
1F
19
1,
#2920000
0#
03
#2930000
1#
13
0]
1\
1p
0^
0J
0G
1K
0>
18
0F
09
0+
1*
0,
#2940000
0#
03
#2950000
1#
13
1n
0o
0p
1^
1>
1:
19
08
1F
0;
0:
1,
1<
1;
0<
#2960000
0#
03
#2970000
1#
13
1]
1p
0^
1J
18
0F
1+
0,
#2980000
0#
03
#2990000
1#
13
1o
0p
1^
09
08
1H
1G
1F
1:
19
1,
0;
0:
1<
1;
0<
#3000000
0#
03
#3010000
1#
13
0]
1[
0\
1p
0^
0J
0H
0G
1L
0K
18
0F
09
0+
1)
0*
0,
1:
0;
1<
#3020000
0#
03
#3030000
1#
13
1k
0l
0m
0n
0o
0p
1^
0<
1;
0:
19
08
1I
1F
1M
1,
#3040000
0#
03
#3050000
1#
13
1f
0[
1p
0^
1T
0L
0I
18
0F
0M
1(
0)
0,
#3060000
0#
03
#3070000
1#
13
1o
0p
1^
09
08
1F
19
1,
#3080000
0#
03
#3090000
1#
13
1]
1p
0^
1J
18
0F
09
1+
0,
#3100000
0#
03
#3110000
1#
13
1n
0o
0p
1^
1:
19
08
1G
1F
0:
1,
#3120000
0#
03
#3130000
1#
13
0]
1\
1p
0^
0J
0G
1K
18
0F
0+
1*
0,
#3140000
0#
03
#3150000
1#
13
1o
0p
1^
09
08
1F
1:
19
1,
0:
#3160000
0#
03
#3170000
1#
13
1]
1p
0^
1J
18
0F
09
1+
0,
1:
#3180000
0#
03
#3190000
1#
13
1m
0n
0o
0p
1^
0;
0:
19
08
1H
1G
1F
1;
1,
#3200000
0#
03
#3210000
1#
13
0]
1[
0\
1p
0^
0J
0H
0G
1L
0K
18
0F
0+
1)
0*
0,
#3220000
0#
03
#3230000
1#
13
1o
0p
1^
09
08
1I
1F
19
1M
1,
#3240000
0#
03
#3250000
1#
13
1e
0f
0[
1p
0^
1X
0T
0L
0I
0>
18
0F
0M
09
1'
0(
0)
0,
#3260000
0#
03
#3270000
1#
13
1n
0o
0p
1^
1>
1:
19
08
1F
0;
0:
1,
1;
#3280000
0#
03
#3290000
1#
13
1]
1p
0^
1J
18
0F
1+
0,
#3300000
0#
03
#3310000
1#
13
1o
0p
1^
09
08
1G
1F
1:
19
1,
0;
0:
1;
#3320000
0#
03
#3330000
1#
13
0]
1\
1p
0^
0J
0G
1K
18
0F
09
0+
1*
0,
1:
0;
#3340000
0#
03
#3350000
1#
13
1l
0m
0n
0o
0p
1^
1<
1;
0:
19
08
1F
0<
1,
#3360000
0#
03
#3370000
1#
13
1]
1p
0^
1J
18
0F
1+
0,
#3380000
0#
03
#3390000
1#
13
1o
0p
1^
09
08
1H
1G
1F
19
1,
#3400000
0#
03
#3410000
1#
13
0]
1[
0\
1p
0^
0J
0H
0G
1L
0K
18
0F
09
0+
1)
0*
0,
#3420000
0#
03
#3430000
1#
13
1n
0o
0p
1^
1:
19
08
1I
1F
0:
1M
1,
#3440000
0#
03
#3450000
1#
13
1f
0[
1p
0^
1U
1T
0L
0I
18
0F
0M
1(
0)
0,
#3460000
0#
03
#3470000
1#
13
1o
0p
1^
09
08
1F
1:
19
1,
0:
#3480000
0#
03
#3490000
1#
13
1]
1p
0^
1J
18
0F
09
1+
0,
1:
#3500000
0#
03
#3510000
1#
13
1m
0n
0o
0p
1^
0;
0:
19
08
1G
1F
1<
1;
1,
0<
#3520000
0#
03
#3530000
1#
13
0]
1\
1p
0^
0J
0G
1K
18
0F
0+
1*
0,
#3540000
0#
03
#3550000
1#
13
1o
0p
1^
09
08
1F
19
1,
#3560000
0#
03
#3570000
1#
13
1]
1p
0^
1J
0>
18
0F
0?
1=
09
1+
0,
#3580000
0#
03
#3590000
1#
13
1b
0k
0l
0m
0o
0p
1^
1F
1@
1?
0=
1>
19
08
1H
1G
1,
#3600000
0#
03
#3610000
1#
13
0]
1[
0\
1p
0^
0J
0H
0G
1L
0K
18
0F
0+
1)
0*
0,
#3620000
0#
03
#3630000
1#
13
1o
0p
1^
09
08
1I
1F
19
1M
1,
#3640000
0#
03
#3650000
1#
13
0e
1d
0f
0[
1p
0^
0X
0V
0U
1Y
0T
0L
0I
18
0F
0M
09
0'
1&
0(
0)
0,
#3660000
0#
03
#3670000
1#
13
1n
0o
0p
1^
1:
19
08
1F
0:
1,
#3680000
0#
03
#3690000
1#
13
1]
1p
0^
1J
18
0F
1+
0,
#3700000
0#
03
#3710000
1#
13
1o
0p
1^
09
08
1G
1F
1:
19
1,
0:
#3720000
0#
03
#3730000
1#
13
0]
1\
1p
0^
0J
0G
1K
18
0F
09
0+
1*
0,
1:
#3740000
0#
03
#3750000
1#
13
1m
0n
0o
0p
1^
0;
0:
19
08
1F
1;
1,
#3760000
0#
03
#3770000
1#
13
1]
1p
0^
1J
18
0F
1+
0,
#3780000
0#
03
#3790000
1#
13
1o
0p
1^
09
08
1H
1G
1F
19
1,
#3800000
0#
03
#3810000
1#
13
0]
1[
0\
1p
0^
0J
0H
0G
1L
0K
0>
18
0F
09
0+
1)
0*
0,
#3820000
0#
03
#3830000
1#
13
1n
0o
0p
1^
1>
1:
19
08
1I
1F
0;
0:
1M
1,
1;
#3840000
0#
03
#3850000
1#
13
1f
0[
1p
0^
0W
1T
0L
0I
18
0F
0M
1(
0)
0,
#3860000
0#
03
#3870000
1#
13
1o
0p
1^
09
08
1F
1:
19
1,
0;
0:
1;
#3880000
0#
03
#3890000
1#
13
1]
1p
0^
1J
18
0F
09
1+
0,
1:
0;
#3900000
0#
03
#3910000
1#
13
1l
0m
0n
0o
0p
1^
1<
1;
0:
19
08
1G
1F
0<
1,
#3920000
0#
03
#3930000
1#
13
0]
1\
1p
0^
0J
0G
1K
18
0F
0+
1*
0,
#3940000
0#
03
#3950000
1#
13
1o
0p
1^
09
08
1F
19
1,
#3960000
0#
03
#3970000
1#
13
1]
1p
0^
1J
18
0F
09
1+
0,
#3980000
0#
03
#3990000
1#
13
1n
0o
0p
1^
1:
19
08
1H
1G
1F
0:
1,
#4000000
0#
03
#4010000
1#
13
0]
1[
0\
1p
0^
0J
0H
0G
1L
0K
18
0F
0+
1)
0*
0,
#4020000
0#
03
#4030000
1#
13
1o
0p
1^
09
08
1I
1F
1:
19
1M
1,
0:
#4040000
0#
03
#4050000
1#
13
0d
0f
0[
1p
0^
0Y
1V
1W
0T
0L
0I
18
0F
0M
09
0&
0(
0)
0,
1:
#4060000
0#
03
#4070000
1#
13
1m
0n
0o
0p
1^
0;
0:
19
08
1F
1<
1;
1,
0<
#4080000
0#
03
#4090000
1#
13
1]
1p
0^
1J
18
0F
1+
0,
#4100000
0#
03
#4110000
1#
13
1o
0p
1^
09
08
1G
1F
19
1,
#4120000
0#
03
#4130000
1#
13
0]
1\
1p
0^
0J
0G
1K
0>
18
0F
09
0+
1*
0,
#4140000
0#
03
#4150000
1#
13
1n
0o
0p
1^
1>
1:
19
08
1F
0;
0:
1,
1<
1;
0<
#4160000
0#
03
#4170000
1#
13
1]
1p
0^
1J
18
0F
1+
0,
#4180000
0#
03
#4190000
1#
13
1o
0p
1^
09
08
1H
1G
1F
1:
19
1,
0;
0:
1<
1;
0<
#4200000
0#
03
#4210000
1#
13
0]
1[
0\
1p
0^
0J
0H
0G
1L
0K
18
0F
09
0+
1)
0*
0,
1:
0;
1<
#4220000
0#
03
#4230000
1#
13
1k
0l
0m
0n
0o
0p
1^
0<
1;
0:
19
08
1I
1F
1M
1,
#4240000
0#
03
#4250000
1#
13
1f
0[
1p
0^
1T
0L
0I
18
0F
0M
1(
0)
0,
#4260000
0#
03
#4270000
1#
13
1o
0p
1^
09
08
1F
19
1,
#4280000
0#
03
#4290000
1#
13
1]
1p
0^
1J
18
0F
09
1+
0,
#4300000
0#
03
#4310000
1#
13
1n
0o
0p
1^
1:
19
08
1G
1F
0:
1,
#4320000
0#
03
#4330000
1#
13
0]
1\
1p
0^
0J
0G
1K
18
0F
0+
1*
0,
#4340000
0#
03
#4350000
1#
13
1o
0p
1^
09
08
1F
1:
19
1,
0:
#4360000
0#
03
#4370000
1#
13
1]
1p
0^
1J
18
0F
09
1+
0,
1:
#4380000
0#
03
#4390000
1#
13
1m
0n
0o
0p
1^
0;
0:
19
08
1H
1G
1F
1;
1,
#4400000
0#
03
#4410000
1#
13
0]
1[
0\
1p
0^
0J
0H
0G
1L
0K
18
0F
0+
1)
0*
0,
#4420000
0#
03
#4430000
1#
13
1o
0p
1^
09
08
1I
1F
19
1M
1,
#4440000
0#
03
#4450000
1#
13
1e
0f
0[
1p
0^
1X
0T
0L
0I
0>
18
0F
0M
09
1'
0(
0)
0,
#4460000
0#
03
#4470000
1#
13
1n
0o
0p
1^
1>
1:
19
08
1F
0;
0:
1,
1;
#4480000
0#
03
#4490000
1#
13
1]
1p
0^
1J
18
0F
1+
0,
#4500000
0#
03
#4510000
1#
13
1o
0p
1^
09
08
1G
1F
1:
19
1,
0;
0:
1;
#4520000
0#
03
#4530000
1#
13
0]
1\
1p
0^
0J
0G
1K
18
0F
09
0+
1*
0,
1:
0;
#4540000
0#
03
#4550000
1#
13
1l
0m
0n
0o
0p
1^
1<
1;
0:
19
08
1F
0<
1,
#4560000
0#
03
#4570000
1#
13
1]
1p
0^
1J
18
0F
1+
0,
#4580000
0#
03
#4590000
1#
13
1o
0p
1^
09
08
1H
1G
1F
19
1,
#4600000
0#
03
#4610000
1#
13
0]
1[
0\
1p
0^
0J
0H
0G
1L
0K
18
0F
09
0+
1)
0*
0,
#4620000
0#
03
#4630000
1#
13
1n
0o
0p
1^
1:
19
08
1I
1F
0:
1M
1,
#4640000
0#
03
#4650000
1#
13
1f
0[
1p
0^
1U
1T
0L
0I
18
0F
0M
1(
0)
0,
#4660000
0#
03
#4670000
1#
13
1o
0p
1^
09
08
1F
1:
19
1,
0:
#4680000
0#
03
#4690000
1#
13
1]
1p
0^
1J
18
0F
09
1+
0,
1:
#4700000
0#
03
#4710000
1#
13
1m
0n
0o
0p
1^
0;
0:
19
08
1G
1F
1<
1;
1,
0<
#4720000
0#
03
#4730000
1#
13
0]
1\
1p
0^
0J
0G
1K
18
0F
0+
1*
0,
#4740000
0#
03
#4750000
1#
13
1o
0p
1^
09
08
1F
19
1,
#4760000
0#
03
#4770000
1#
13
1]
1p
0^
1J
0>
18
0F
0?
1=
09
1+
0,
#4780000
0#
03
#4790000
1#
13
0b
1`
0a
0k
0l
0m
0o
0p
1^
1F
0@
1?
0=
1>
19
08
1H
1G
1,
#4800000
0#
03
#4810000
1#
13
0]
1[
0\
1p
0^
0J
0H
0G
1L
0K
18
0F
0+
1)
0*
0,
#4820000
0#
03
#4830000
1#
13
1o
0p
1^
09
08
1I
1F
19
1M
1,
#4840000
0#
03
#4850000
1#
13
0e
1d
0f
0[
1p
0^
0X
0V
0U
1Y
0T
0L
0I
18
0F
0M
09
0'
1&
0(
0)
0,
#4860000
0#
03
#4870000
1#
13
1n
0o
0p
1^
1:
19
08
1F
0:
1,
#4880000
0#
03
#4890000
1#
13
1]
1p
0^
1J
18
0F
1+
0,
#4900000
0#
03
#4910000
1#
13
1o
0p
1^
09
08
1G
1F
1:
19
1,
0:
#4920000
0#
03
#4930000
1#
13
0]
1\
1p
0^
0J
0G
1K
18
0F
09
0+
1*
0,
1:
#4940000
0#
03
#4950000
1#
13
1m
0n
0o
0p
1^
0;
0:
19
08
1F
1;
1,
#4960000
0#
03
#4970000
1#
13
1]
1p
0^
1J
18
0F
1+
0,
#4980000
0#
03
#4990000
1#
13
1o
0p
1^
09
08
1H
1G
1F
19
1,
#5000000
0#
03
#5010000
1#
13
0]
1[
0\
1p
0^
0J
0H
0G
1L
0K
0>
18
0F
09
0+
1)
0*
0,
#5020000
0#
03
